ls = 5;

w   = 10;      // mm
h   = 10;      // mm
R   = 0.5;     // mm
dx0 = 0.00005;
dx1 = 0.20;

Point(1) = {0, 0, 0, dx1};
Point(2) = {w, 0, 0, dx1};
Point(3) = {w, h, 0, dx1};
Point(4) = {0, h, 0, dx1};
//+
Line(1) = {1, 2};
//+
Line(2) = {2, 3};
//+
Line(3) = {3, 4};
//+
Line(4) = {4, 1};
//+
Point (5) = {5.03600,5.00000,0,dx0};
Point (6) = {5.03598,5.00057,0,dx0};
Point (7) = {5.03593,5.00114,0,dx0};
Point (8) = {5.03584,5.00170,0,dx0};
Point (9) = {5.03571,5.00227,0,dx0};
Point (10) = {5.03555,5.00283,0,dx0};
Point (11) = {5.03536,5.00339,0,dx0};
Point (12) = {5.03512,5.00395,0,dx0};
Point (13) = {5.03486,5.00450,0,dx0};
Point (14) = {5.03456,5.00505,0,dx0};
Point (15) = {5.03422,5.00559,0,dx0};
Point (16) = {5.03385,5.00613,0,dx0};
Point (17) = {5.03345,5.00666,0,dx0};
Point (18) = {5.03301,5.00718,0,dx0};
Point (19) = {5.03254,5.00770,0,dx0};
Point (20) = {5.03204,5.00821,0,dx0};
Point (21) = {5.03150,5.00871,0,dx0};
Point (22) = {5.03094,5.00920,0,dx0};
Point (23) = {5.03034,5.00969,0,dx0};
Point (24) = {5.02971,5.01016,0,dx0};
Point (25) = {5.02906,5.01063,0,dx0};
Point (26) = {5.02837,5.01108,0,dx0};
Point (27) = {5.02766,5.01152,0,dx0};
Point (28) = {5.02692,5.01195,0,dx0};
Point (29) = {5.02615,5.01237,0,dx0};
Point (30) = {5.02536,5.01278,0,dx0};
Point (31) = {5.02454,5.01317,0,dx0};
Point (32) = {5.02369,5.01355,0,dx0};
Point (33) = {5.02282,5.01392,0,dx0};
Point (34) = {5.02193,5.01427,0,dx0};
Point (35) = {5.02102,5.01461,0,dx0};
Point (36) = {5.02009,5.01494,0,dx0};
Point (37) = {5.01914,5.01525,0,dx0};
Point (38) = {5.01816,5.01554,0,dx0};
Point (39) = {5.01717,5.01582,0,dx0};
Point (40) = {5.01617,5.01608,0,dx0};
Point (41) = {5.01514,5.01633,0,dx0};
Point (42) = {5.01410,5.01656,0,dx0};
Point (43) = {5.01305,5.01678,0,dx0};
Point (44) = {5.01199,5.01697,0,dx0};
Point (45) = {5.01091,5.01715,0,dx0};
Point (46) = {5.00982,5.01732,0,dx0};
Point (47) = {5.00872,5.01746,0,dx0};
Point (48) = {5.00761,5.01759,0,dx0};
Point (49) = {5.00650,5.01770,0,dx0};
Point (50) = {5.00538,5.01780,0,dx0};
Point (51) = {5.00425,5.01787,0,dx0};
Point (52) = {5.00312,5.01793,0,dx0};
Point (53) = {5.00199,5.01797,0,dx0};
Point (54) = {5.00085,5.01799,0,dx0};
Point (55) = {4.99972,5.01800,0,dx0};
Point (56) = {4.99858,5.01799,0,dx0};
Point (57) = {4.99744,5.01795,0,dx0};
Point (58) = {4.99631,5.01791,0,dx0};
Point (59) = {4.99518,5.01784,0,dx0};
Point (60) = {4.99406,5.01775,0,dx0};
Point (61) = {4.99294,5.01765,0,dx0};
Point (62) = {4.99183,5.01753,0,dx0};
Point (63) = {4.99073,5.01739,0,dx0};
Point (64) = {4.98963,5.01724,0,dx0};
Point (65) = {4.98855,5.01707,0,dx0};
Point (66) = {4.98748,5.01688,0,dx0};
Point (67) = {4.98642,5.01667,0,dx0};
Point (68) = {4.98537,5.01645,0,dx0};
Point (69) = {4.98434,5.01621,0,dx0};
Point (70) = {4.98333,5.01595,0,dx0};
Point (71) = {4.98233,5.01568,0,dx0};
Point (72) = {4.98135,5.01540,0,dx0};
Point (73) = {4.98039,5.01509,0,dx0};
Point (74) = {4.97944,5.01478,0,dx0};
Point (75) = {4.97852,5.01444,0,dx0};
Point (76) = {4.97762,5.01410,0,dx0};
Point (77) = {4.97674,5.01374,0,dx0};
Point (78) = {4.97588,5.01336,0,dx0};
Point (79) = {4.97505,5.01298,0,dx0};
Point (80) = {4.97424,5.01258,0,dx0};
Point (81) = {4.97346,5.01216,0,dx0};
Point (82) = {4.97271,5.01174,0,dx0};
Point (83) = {4.97198,5.01130,0,dx0};
Point (84) = {4.97128,5.01085,0,dx0};
Point (85) = {4.97061,5.01040,0,dx0};
Point (86) = {4.96997,5.00993,0,dx0};
Point (87) = {4.96936,5.00945,0,dx0};
Point (88) = {4.96878,5.00896,0,dx0};
Point (89) = {4.96823,5.00846,0,dx0};
Point (90) = {4.96771,5.00796,0,dx0};
Point (91) = {4.96722,5.00744,0,dx0};
Point (92) = {4.96677,5.00692,0,dx0};
Point (93) = {4.96635,5.00639,0,dx0};
Point (94) = {4.96596,5.00586,0,dx0};
Point (95) = {4.96561,5.00532,0,dx0};
Point (96) = {4.96529,5.00477,0,dx0};
Point (97) = {4.96500,5.00422,0,dx0};
Point (98) = {4.96476,5.00367,0,dx0};
Point (99) = {4.96454,5.00311,0,dx0};
Point (100) = {4.96436,5.00255,0,dx0};
Point (101) = {4.96422,5.00199,0,dx0};
Point (102) = {4.96411,5.00142,0,dx0};
Point (103) = {4.96404,5.00085,0,dx0};
Point (104) = {4.96400,5.00028,0,dx0};
Point (105) = {4.96400,4.99972,0,dx0};
Point (106) = {4.96404,4.99915,0,dx0};
Point (107) = {4.96411,4.99858,0,dx0};
Point (108) = {4.96422,4.99801,0,dx0};
Point (109) = {4.96436,4.99745,0,dx0};
Point (110) = {4.96454,4.99689,0,dx0};
Point (111) = {4.96476,4.99633,0,dx0};
Point (112) = {4.96500,4.99578,0,dx0};
Point (113) = {4.96529,4.99523,0,dx0};
Point (114) = {4.96561,4.99468,0,dx0};
Point (115) = {4.96596,4.99414,0,dx0};
Point (116) = {4.96635,4.99361,0,dx0};
Point (117) = {4.96677,4.99308,0,dx0};
Point (118) = {4.96722,4.99256,0,dx0};
Point (119) = {4.96771,4.99204,0,dx0};
Point (120) = {4.96823,4.99154,0,dx0};
Point (121) = {4.96878,4.99104,0,dx0};
Point (122) = {4.96936,4.99055,0,dx0};
Point (123) = {4.96997,4.99007,0,dx0};
Point (124) = {4.97061,4.98960,0,dx0};
Point (125) = {4.97128,4.98915,0,dx0};
Point (126) = {4.97198,4.98870,0,dx0};
Point (127) = {4.97271,4.98826,0,dx0};
Point (128) = {4.97346,4.98784,0,dx0};
Point (129) = {4.97424,4.98742,0,dx0};
Point (130) = {4.97505,4.98702,0,dx0};
Point (131) = {4.97588,4.98664,0,dx0};
Point (132) = {4.97674,4.98626,0,dx0};
Point (133) = {4.97762,4.98590,0,dx0};
Point (134) = {4.97852,4.98556,0,dx0};
Point (135) = {4.97944,4.98522,0,dx0};
Point (136) = {4.98039,4.98491,0,dx0};
Point (137) = {4.98135,4.98460,0,dx0};
Point (138) = {4.98233,4.98432,0,dx0};
Point (139) = {4.98333,4.98405,0,dx0};
Point (140) = {4.98434,4.98379,0,dx0};
Point (141) = {4.98537,4.98355,0,dx0};
Point (142) = {4.98642,4.98333,0,dx0};
Point (143) = {4.98748,4.98312,0,dx0};
Point (144) = {4.98855,4.98293,0,dx0};
Point (145) = {4.98963,4.98276,0,dx0};
Point (146) = {4.99073,4.98261,0,dx0};
Point (147) = {4.99183,4.98247,0,dx0};
Point (148) = {4.99294,4.98235,0,dx0};
Point (149) = {4.99406,4.98225,0,dx0};
Point (150) = {4.99518,4.98216,0,dx0};
Point (151) = {4.99631,4.98209,0,dx0};
Point (152) = {4.99744,4.98205,0,dx0};
Point (153) = {4.99858,4.98201,0,dx0};
Point (154) = {4.99972,4.98200,0,dx0};
Point (155) = {5.00085,4.98201,0,dx0};
Point (156) = {5.00199,4.98203,0,dx0};
Point (157) = {5.00312,4.98207,0,dx0};
Point (158) = {5.00425,4.98213,0,dx0};
Point (159) = {5.00538,4.98220,0,dx0};
Point (160) = {5.00650,4.98230,0,dx0};
Point (161) = {5.00761,4.98241,0,dx0};
Point (162) = {5.00872,4.98254,0,dx0};
Point (163) = {5.00982,4.98268,0,dx0};
Point (164) = {5.01091,4.98285,0,dx0};
Point (165) = {5.01199,4.98303,0,dx0};
Point (166) = {5.01305,4.98322,0,dx0};
Point (167) = {5.01410,4.98344,0,dx0};
Point (168) = {5.01514,4.98367,0,dx0};
Point (169) = {5.01617,4.98392,0,dx0};
Point (170) = {5.01717,4.98418,0,dx0};
Point (171) = {5.01816,4.98446,0,dx0};
Point (172) = {5.01914,4.98475,0,dx0};
Point (173) = {5.02009,4.98506,0,dx0};
Point (174) = {5.02102,4.98539,0,dx0};
Point (175) = {5.02193,4.98573,0,dx0};
Point (176) = {5.02282,4.98608,0,dx0};
Point (177) = {5.02369,4.98645,0,dx0};
Point (178) = {5.02454,4.98683,0,dx0};
Point (179) = {5.02536,4.98722,0,dx0};
Point (180) = {5.02615,4.98763,0,dx0};
Point (181) = {5.02692,4.98805,0,dx0};
Point (182) = {5.02766,4.98848,0,dx0};
Point (183) = {5.02837,4.98892,0,dx0};
Point (184) = {5.02906,4.98937,0,dx0};
Point (185) = {5.02971,4.98984,0,dx0};
Point (186) = {5.03034,4.99031,0,dx0};
Point (187) = {5.03094,4.99080,0,dx0};
Point (188) = {5.03150,4.99129,0,dx0};
Point (189) = {5.03204,4.99179,0,dx0};
Point (190) = {5.03254,4.99230,0,dx0};
Point (191) = {5.03301,4.99282,0,dx0};
Point (192) = {5.03345,4.99334,0,dx0};
Point (193) = {5.03385,4.99387,0,dx0};
Point (194) = {5.03422,4.99441,0,dx0};
Point (195) = {5.03456,4.99495,0,dx0};
Point (196) = {5.03486,4.99550,0,dx0};
Point (197) = {5.03512,4.99605,0,dx0};
Point (198) = {5.03536,4.99661,0,dx0};
Point (199) = {5.03555,4.99717,0,dx0};
Point (200) = {5.03571,4.99773,0,dx0};
Point (201) = {5.03584,4.99830,0,dx0};
Point (202) = {5.03593,4.99886,0,dx0};
Point (203) = {5.03598,4.99943,0,dx0};
Point (204) = {5.03600,5.00000,0,dx0};
//+
BSpline(5)={5,6,7,8,9,10,11,12,13,14,15,16,17,18,19,20,21,22,23,24,25,26,27,28,29,30,31,32,33,34,35,36,37,38,39,40,41,42,43,44,45,46,47,48,49,50,51,52,53,54,55,56,57,58,59,60,61,62,63,64,65,66,67,68,69,70,71,72,73,74,75,76,77,78,79,80,81,82,83,84,85,86,87,88,89,90,91,92,93,94,95,96,97,98,99,100,101,102,103,104,105,106,107,108,109,110,111,112,113,114,115,116,117,118,119,120,121,122,123,124,125,126,127,128,129,130,131,132,133,134,135,136,137,138,139,140,141,142,143,144,145,146,147,148,149,150,151,152,153,154,155,156,157,158,159,160,161,162,163,164,165,166,167,168,169,170,171,172,173,174,175,176,177,178,179,180,181,182,183,184,185,186,187,188,189,190,191,192,193,194,195,196,197,198,199,200,201,202,203,204,5};
//+
Curve Loop(1) = {4, 1, 2, 3};
//+
Curve Loop(2) = {5};
//+
Plane Surface(1) = {1, 2};
//+
Plane Surface(2) = {2};
//+
Physical Curve("HV") = {4};
//+
Physical Curve("GE") = {2};
//+
Physical Curve("wall") = {3, 1};
//+
Physical Surface("rock") = {1};
//+
Physical Surface("pore") = {2};
