ls = 5;

w   = 10; // mm
h   = 10;  // mm
R   = 0.5;   // mm
dx0 = 0.01;
dx1 = 0.20;
vf  = 0.10;

b   = 2.5;
a   = vf*h*w/(Pi*b);

Point(1) = {0, 0, 0, dx1};
Point(2) = {w, 0, 0, dx1};
Point(3) = {w, h, 0, dx1};
Point(4) = {0, h, 0, dx1};
//+
Line(1) = {1, 2};
//+
Line(2) = {2, 3};
//+
Line(3) = {3, 4};
//+
Line(4) = {4, 1};
//+
Point (5) = {7.50,5.00,0,dx0};
Point (6) = {7.49,5.08,0,dx0};
Point (7) = {7.48,5.16,0,dx0};
Point (8) = {7.45,5.24,0,dx0};
Point (9) = {7.42,5.32,0,dx0};
Point (10) = {7.38,5.40,0,dx0};
Point (11) = {7.32,5.47,0,dx0};
Point (12) = {7.26,5.55,0,dx0};
Point (13) = {7.18,5.62,0,dx0};
Point (14) = {7.10,5.69,0,dx0};
Point (15) = {7.01,5.75,0,dx0};
Point (16) = {6.92,5.82,0,dx0};
Point (17) = {6.81,5.88,0,dx0};
Point (18) = {6.70,5.93,0,dx0};
Point (19) = {6.58,5.99,0,dx0};
Point (20) = {6.45,6.03,0,dx0};
Point (21) = {6.32,6.08,0,dx0};
Point (22) = {6.18,6.12,0,dx0};
Point (23) = {6.04,6.16,0,dx0};
Point (24) = {5.89,6.19,0,dx0};
Point (25) = {5.74,6.21,0,dx0};
Point (26) = {5.59,6.23,0,dx0};
Point (27) = {5.43,6.25,0,dx0};
Point (28) = {5.28,6.26,0,dx0};
Point (29) = {5.12,6.27,0,dx0};
Point (30) = {4.96,6.27,0,dx0};
Point (31) = {4.80,6.27,0,dx0};
Point (32) = {4.64,6.26,0,dx0};
Point (33) = {4.49,6.24,0,dx0};
Point (34) = {4.33,6.22,0,dx0};
Point (35) = {4.18,6.20,0,dx0};
Point (36) = {4.03,6.17,0,dx0};
Point (37) = {3.89,6.14,0,dx0};
Point (38) = {3.75,6.10,0,dx0};
Point (39) = {3.62,6.06,0,dx0};
Point (40) = {3.49,6.01,0,dx0};
Point (41) = {3.36,5.96,0,dx0};
Point (42) = {3.25,5.91,0,dx0};
Point (43) = {3.14,5.85,0,dx0};
Point (44) = {3.03,5.79,0,dx0};
Point (45) = {2.94,5.72,0,dx0};
Point (46) = {2.86,5.65,0,dx0};
Point (47) = {2.78,5.58,0,dx0};
Point (48) = {2.71,5.51,0,dx0};
Point (49) = {2.65,5.43,0,dx0};
Point (50) = {2.60,5.36,0,dx0};
Point (51) = {2.56,5.28,0,dx0};
Point (52) = {2.53,5.20,0,dx0};
Point (53) = {2.51,5.12,0,dx0};
Point (54) = {2.50,5.04,0,dx0};
Point (55) = {2.50,4.96,0,dx0};
Point (56) = {2.51,4.88,0,dx0};
Point (57) = {2.53,4.80,0,dx0};
Point (58) = {2.56,4.72,0,dx0};
Point (59) = {2.60,4.64,0,dx0};
Point (60) = {2.65,4.57,0,dx0};
Point (61) = {2.71,4.49,0,dx0};
Point (62) = {2.78,4.42,0,dx0};
Point (63) = {2.86,4.35,0,dx0};
Point (64) = {2.94,4.28,0,dx0};
Point (65) = {3.03,4.21,0,dx0};
Point (66) = {3.14,4.15,0,dx0};
Point (67) = {3.25,4.09,0,dx0};
Point (68) = {3.36,4.04,0,dx0};
Point (69) = {3.49,3.99,0,dx0};
Point (70) = {3.62,3.94,0,dx0};
Point (71) = {3.75,3.90,0,dx0};
Point (72) = {3.89,3.86,0,dx0};
Point (73) = {4.03,3.83,0,dx0};
Point (74) = {4.18,3.80,0,dx0};
Point (75) = {4.33,3.78,0,dx0};
Point (76) = {4.49,3.76,0,dx0};
Point (77) = {4.64,3.74,0,dx0};
Point (78) = {4.80,3.73,0,dx0};
Point (79) = {4.96,3.73,0,dx0};
Point (80) = {5.12,3.73,0,dx0};
Point (81) = {5.28,3.74,0,dx0};
Point (82) = {5.43,3.75,0,dx0};
Point (83) = {5.59,3.77,0,dx0};
Point (84) = {5.74,3.79,0,dx0};
Point (85) = {5.89,3.81,0,dx0};
Point (86) = {6.04,3.84,0,dx0};
Point (87) = {6.18,3.88,0,dx0};
Point (88) = {6.32,3.92,0,dx0};
Point (89) = {6.45,3.97,0,dx0};
Point (90) = {6.58,4.01,0,dx0};
Point (91) = {6.70,4.07,0,dx0};
Point (92) = {6.81,4.12,0,dx0};
Point (93) = {6.92,4.18,0,dx0};
Point (94) = {7.01,4.25,0,dx0};
Point (95) = {7.10,4.31,0,dx0};
Point (96) = {7.18,4.38,0,dx0};
Point (97) = {7.26,4.45,0,dx0};
Point (98) = {7.32,4.53,0,dx0};
Point (99) = {7.38,4.60,0,dx0};
Point (100) = {7.42,4.68,0,dx0};
Point (101) = {7.45,4.76,0,dx0};
Point (102) = {7.48,4.84,0,dx0};
Point (103) = {7.49,4.92,0,dx0};
Point (104) = {7.50,5.00,0,dx0};
//+
BSpline(5) = {5,6,7,8,9,10,11,12,13,14,15,16,17,18,19,20,21,
22,23,24,25,26,27,28,29,30,31,32,33,34,35,36,37,38,39,40,
41,42,43,44,45,46,47,48,49,50,51,52,53,54,55,56,57,58,59,
60,61,62,63,64,65,66,67,68,69,70,71,72,73,74,75,76,77,78,
79,80,81,82,83,84,85,86,87,88,89,90,91,92,93,94,95,96,97,
98,99,100,101,102,103,104,5};
//+
Curve Loop(1) = {4, 1, 2, 3};
//+
Curve Loop(2) = {5};
//+
Plane Surface(1) = {1, 2};
//+
Plane Surface(2) = {2};
//+
Physical Curve("HV") = {4};
//+
Physical Curve("GE") = {2};
//+
Physical Curve("wall") = {3, 1};
//+
Physical Surface("rock") = {1};
//+
Physical Surface("pore") = {2};
