ls = 5;

w   = 10; // mm
h   = 10;  // mm
R   = 0.5;   // mm
dx0 = 0.01;
dx1 = 0.20;
vf  = 0.10;

b   = 2.5;
a   = vf*h*w/(Pi*b);

Point(1) = {0, 0, 0, dx1};
Point(2) = {w, 0, 0, dx1};
Point(3) = {w, h, 0, dx1};
Point(4) = {0, h, 0, dx1};
//+
Line(1) = {1, 2};
//+
Line(2) = {2, 3};
//+
Line(3) = {3, 4};
//+
Line(4) = {4, 1};
//+
Point (5) = {6.27,5.00,0,dx0};
Point (6) = {6.27,5.16,0,dx0};
Point (7) = {6.26,5.32,0,dx0};
Point (8) = {6.25,5.47,0,dx0};
Point (9) = {6.23,5.63,0,dx0};
Point (10) = {6.21,5.78,0,dx0};
Point (11) = {6.18,5.93,0,dx0};
Point (12) = {6.15,6.07,0,dx0};
Point (13) = {6.11,6.22,0,dx0};
Point (14) = {6.07,6.35,0,dx0};
Point (15) = {6.02,6.48,0,dx0};
Point (16) = {5.97,6.61,0,dx0};
Point (17) = {5.92,6.73,0,dx0};
Point (18) = {5.86,6.84,0,dx0};
Point (19) = {5.80,6.94,0,dx0};
Point (20) = {5.74,7.04,0,dx0};
Point (21) = {5.67,7.12,0,dx0};
Point (22) = {5.60,7.20,0,dx0};
Point (23) = {5.53,7.27,0,dx0};
Point (24) = {5.45,7.34,0,dx0};
Point (25) = {5.38,7.39,0,dx0};
Point (26) = {5.30,7.43,0,dx0};
Point (27) = {5.22,7.46,0,dx0};
Point (28) = {5.14,7.48,0,dx0};
Point (29) = {5.06,7.50,0,dx0};
Point (30) = {4.98,7.50,0,dx0};
Point (31) = {4.90,7.49,0,dx0};
Point (32) = {4.82,7.47,0,dx0};
Point (33) = {4.74,7.45,0,dx0};
Point (34) = {4.66,7.41,0,dx0};
Point (35) = {4.58,7.36,0,dx0};
Point (36) = {4.51,7.31,0,dx0};
Point (37) = {4.44,7.24,0,dx0};
Point (38) = {4.37,7.17,0,dx0};
Point (39) = {4.30,7.08,0,dx0};
Point (40) = {4.23,6.99,0,dx0};
Point (41) = {4.17,6.89,0,dx0};
Point (42) = {4.11,6.78,0,dx0};
Point (43) = {4.05,6.67,0,dx0};
Point (44) = {4.00,6.55,0,dx0};
Point (45) = {3.95,6.42,0,dx0};
Point (46) = {3.91,6.28,0,dx0};
Point (47) = {3.87,6.15,0,dx0};
Point (48) = {3.84,6.00,0,dx0};
Point (49) = {3.81,5.86,0,dx0};
Point (50) = {3.78,5.70,0,dx0};
Point (51) = {3.76,5.55,0,dx0};
Point (52) = {3.75,5.40,0,dx0};
Point (53) = {3.74,5.24,0,dx0};
Point (54) = {3.73,5.08,0,dx0};
Point (55) = {3.73,4.92,0,dx0};
Point (56) = {3.74,4.76,0,dx0};
Point (57) = {3.75,4.60,0,dx0};
Point (58) = {3.76,4.45,0,dx0};
Point (59) = {3.78,4.30,0,dx0};
Point (60) = {3.81,4.14,0,dx0};
Point (61) = {3.84,4.00,0,dx0};
Point (62) = {3.87,3.85,0,dx0};
Point (63) = {3.91,3.72,0,dx0};
Point (64) = {3.95,3.58,0,dx0};
Point (65) = {4.00,3.45,0,dx0};
Point (66) = {4.05,3.33,0,dx0};
Point (67) = {4.11,3.22,0,dx0};
Point (68) = {4.17,3.11,0,dx0};
Point (69) = {4.23,3.01,0,dx0};
Point (70) = {4.30,2.92,0,dx0};
Point (71) = {4.37,2.83,0,dx0};
Point (72) = {4.44,2.76,0,dx0};
Point (73) = {4.51,2.69,0,dx0};
Point (74) = {4.58,2.64,0,dx0};
Point (75) = {4.66,2.59,0,dx0};
Point (76) = {4.74,2.55,0,dx0};
Point (77) = {4.82,2.53,0,dx0};
Point (78) = {4.90,2.51,0,dx0};
Point (79) = {4.98,2.50,0,dx0};
Point (80) = {5.06,2.50,0,dx0};
Point (81) = {5.14,2.52,0,dx0};
Point (82) = {5.22,2.54,0,dx0};
Point (83) = {5.30,2.57,0,dx0};
Point (84) = {5.38,2.61,0,dx0};
Point (85) = {5.45,2.66,0,dx0};
Point (86) = {5.53,2.73,0,dx0};
Point (87) = {5.60,2.80,0,dx0};
Point (88) = {5.67,2.88,0,dx0};
Point (89) = {5.74,2.96,0,dx0};
Point (90) = {5.80,3.06,0,dx0};
Point (91) = {5.86,3.16,0,dx0};
Point (92) = {5.92,3.27,0,dx0};
Point (93) = {5.97,3.39,0,dx0};
Point (94) = {6.02,3.52,0,dx0};
Point (95) = {6.07,3.65,0,dx0};
Point (96) = {6.11,3.78,0,dx0};
Point (97) = {6.15,3.93,0,dx0};
Point (98) = {6.18,4.07,0,dx0};
Point (99) = {6.21,4.22,0,dx0};
Point (100) = {6.23,4.37,0,dx0};
Point (101) = {6.25,4.53,0,dx0};
Point (102) = {6.26,4.68,0,dx0};
Point (103) = {6.27,4.84,0,dx0};
Point (104) = {6.27,5.00,0,dx0};
//+
BSpline(5)={5,6,7,8,9,10,11,12,13,14,15,16,17,18,19,20,21,
22,23,24,25,26,27,28,29,30,31,32,33,34,35,36,37,38,39,40,41,
42,43,44,45,46,47,48,49,50,51,52,53,54,55,56,57,58,59,60,61,
62,63,64,65,66,67,68,69,70,71,72,73,74,75,76,77,78,79,80,81,
82,83,84,85,86,87,88,89,90,91,92,93,94,95,96,97,98,99,100,101,
102,103,104,5};
//+
Curve Loop(1) = {4, 1, 2, 3};
//+
Curve Loop(2) = {5};
//+
Plane Surface(1) = {1, 2};
//+
Plane Surface(2) = {2};
//+
Physical Curve("HV") = {4};
//+
Physical Curve("GE") = {2};
//+
Physical Curve("wall") = {3, 1};
//+
Physical Surface("rock") = {1};
//+
Physical Surface("pore") = {2};
