$MeshFormat
4.1 0 8
$EndMeshFormat
$PhysicalNames
5
1 1 "wall"
1 2 "HV"
1 3 "GE"
2 4 "rock"
2 5 "pore"
$EndPhysicalNames
$Entities
7 6 2 0
1 0 0 0 0 
2 1 0 0 0 
3 1 1 0 0 
4 0 1 0 0 
5 0.5 0.5 0 0 
6 0.5 0.3216 0 0 
7 0.5 0.6784 0 0 
1 0 0 0 1 0 0 1 1 2 1 -2 
2 1 0 0 1 1 0 1 3 2 2 -3 
3 0 1 0 1 1 0 1 1 2 3 -4 
4 0 0 0 0 1 0 1 2 2 4 -1 
5 0.3243102968626221 0.3216 0 0.5 0.6784 0 0 2 7 -6 
6 0.5 0.3216 0 0.6756897031373779 0.6784 0 0 2 6 -7 
1 0 0 0 1 1 0 1 4 6 4 1 2 3 -6 -5 
2 0.3243102968626221 0.3216 0 0.6756897031373779 0.6784 0 1 5 2 5 6 
$EndEntities
$Nodes
14 565 1 565
0 1 0 1
1
0 0 0
0 2 0 1
2
1 0 0
0 3 0 1
3
1 1 0
0 4 0 1
4
0 1 0
0 6 0 1
5
0.5 0.3216 0
0 7 0 1
6
0.5 0.6784 0
1 1 0 19
7
8
9
10
11
12
13
14
15
16
17
18
19
20
21
22
23
24
25
0.04999999999989965 0 0
0.09999999999981467 0 0
0.1499999999997036 0 0
0.1999999999995579 0 0
0.2499999999994121 0 0
0.2999999999992664 0 0
0.3499999999991206 0 0
0.3999999999989749 0 0
0.4499999999988292 0 0
0.4999999999986943 0 0
0.5499999999988151 0 0
0.5999999999989468 0 0
0.6499999999990784 0 0
0.69999999999921 0 0
0.7499999999993417 0 0
0.7999999999994734 0 0
0.8499999999996051 0 0
0.8999999999997368 0 0
0.9499999999998684 0 0
1 2 0 19
26
27
28
29
30
31
32
33
34
35
36
37
38
39
40
41
42
43
44
1 0.04999999999989965 0
1 0.09999999999981467 0
1 0.1499999999997036 0
1 0.1999999999995579 0
1 0.2499999999994121 0
1 0.2999999999992664 0
1 0.3499999999991206 0
1 0.3999999999989749 0
1 0.4499999999988292 0
1 0.4999999999986943 0
1 0.5499999999988151 0
1 0.5999999999989468 0
1 0.6499999999990784 0
1 0.69999999999921 0
1 0.7499999999993417 0
1 0.7999999999994734 0
1 0.8499999999996051 0
1 0.8999999999997368 0
1 0.9499999999998684 0
1 3 0 19
45
46
47
48
49
50
51
52
53
54
55
56
57
58
59
60
61
62
63
0.9499999999997918 1 0
0.8999999999995836 1 0
0.8499999999996529 1 0
0.7999999999999998 1 0
0.7500000000003466 1 0
0.7000000000006934 1 0
0.6500000000010401 1 0
0.6000000000013869 1 0
0.5500000000017335 1 0
0.5000000000020587 1 0
0.4500000000018723 1 0
0.4000000000016644 1 0
0.3500000000014564 1 0
0.3000000000012483 1 0
0.2500000000010403 1 0
0.2000000000008322 1 0
0.1500000000006241 1 0
0.100000000000416 1 0
0.05000000000020799 1 0
1 4 0 19
64
65
66
67
68
69
70
71
72
73
74
75
76
77
78
79
80
81
82
0 0.9499999999997918 0
0 0.8999999999995836 0
0 0.8499999999996529 0
0 0.7999999999999998 0
0 0.7500000000003466 0
0 0.7000000000006934 0
0 0.6500000000010401 0
0 0.6000000000013869 0
0 0.5500000000017335 0
0 0.5000000000020587 0
0 0.4500000000018723 0
0 0.4000000000016644 0
0 0.3500000000014564 0
0 0.3000000000012483 0
0 0.2500000000010403 0
0 0.2000000000008322 0
0 0.1500000000006241 0
0 0.100000000000416 0
0 0.05000000000020799 0
1 5 0 11
83
84
85
86
87
88
89
90
91
92
93
0.4538266823165442 0.6723211674000111 0
0.4107999998031613 0.654498931921499 0
0.373852149954217 0.6261478494815772 0
0.3455010676869011 0.5891999995185678 0
0.3276788323813279 0.546173316867402 0
0.3216 0.4999999989942622 0
0.3276788328149335 0.4538266815143598 0
0.345501068342422 0.4107999993460368 0
0.3738521506222939 0.373852149850346 0
0.410800000331468 0.345501067773483 0
0.4538266825401245 0.3276788325400807 0
1 6 0 11
94
95
96
97
98
99
100
101
102
103
104
0.5461733177986953 0.3276788326308672 0
0.5892000002640023 0.3455010681172779 0
0.6261478500680366 0.3738521505406764 0
0.6544989323444474 0.4108000005357296 0
0.6723211676183575 0.4538266831314237 0
0.6784 0.5000000008559626 0
0.6723211672421496 0.5461733182726033 0
0.6544989317575554 0.5892000004807975 0
0.6261478494483075 0.6261478500790527 0
0.5891999997794526 0.6544989321624769 0
0.5461733175741191 0.6723211674293078 0
2 1 0 411
105
106
107
108
109
110
111
112
113
114
115
116
117
118
119
120
121
122
123
124
125
126
127
128
129
130
131
132
133
134
135
136
137
138
139
140
141
142
143
144
145
146
147
148
149
150
151
152
153
154
155
156
157
158
159
160
161
162
163
164
165
166
167
168
169
170
171
172
173
174
175
176
177
178
179
180
181
182
183
184
185
186
187
188
189
190
191
192
193
194
195
196
197
198
199
200
201
202
203
204
205
206
207
208
209
210
211
212
213
214
215
216
217
218
219
220
221
222
223
224
225
226
227
228
229
230
231
232
233
234
235
236
237
238
239
240
241
242
243
244
245
246
247
248
249
250
251
252
253
254
255
256
257
258
259
260
261
262
263
264
265
266
267
268
269
270
271
272
273
274
275
276
277
278
279
280
281
282
283
284
285
286
287
288
289
290
291
292
293
294
295
296
297
298
299
300
301
302
303
304
305
306
307
308
309
310
311
312
313
314
315
316
317
318
319
320
321
322
323
324
325
326
327
328
329
330
331
332
333
334
335
336
337
338
339
340
341
342
343
344
345
346
347
348
349
350
351
352
353
354
355
356
357
358
359
360
361
362
363
364
365
366
367
368
369
370
371
372
373
374
375
376
377
378
379
380
381
382
383
384
385
386
387
388
389
390
391
392
393
394
395
396
397
398
399
400
401
402
403
404
405
406
407
408
409
410
411
412
413
414
415
416
417
418
419
420
421
422
423
424
425
426
427
428
429
430
431
432
433
434
435
436
437
438
439
440
441
442
443
444
445
446
447
448
449
450
451
452
453
454
455
456
457
458
459
460
461
462
463
464
465
466
467
468
469
470
471
472
473
474
475
476
477
478
479
480
481
482
483
484
485
486
487
488
489
490
491
492
493
494
495
496
497
498
499
500
501
502
503
504
505
506
507
508
509
510
511
512
513
514
515
0.04583256905995431 0.2244068764923971 0
0.9512658740957145 0.7708300578614284 0
0.7758967467548349 0.04195229459289285 0
0.2200602606935105 0.9587732267832012 0
0.6294610293579904 0.6708144598587638 0
0.3613382797364806 0.332189417569451 0
0.3282371996436208 0.6357523728819251 0
0.6731451426934938 0.3670470800407747 0
0.2234935846667127 0.04076255008903883 0
0.7723243576220724 0.9583823556811812 0
0.9574872289720395 0.2262769848611303 0
0.04330127018892155 0.7750000000001731 0
0.3056472419521266 0.4173713464124046 0
0.7025798327630396 0.5818850846306809 0
0.4155558262151521 0.6951972202547987 0
0.580881697398052 0.305352656970749 0
0.4729434884953032 0.2847185208899644 0
0.5289336603801199 0.7209773255891351 0
0.7134273979515675 0.4631389685477541 0
0.2838768969316487 0.522386870239446 0
0.961035862757616 0.3744457577984787 0
0.3741129316525034 0.04347949460365615 0
0.04156713496208632 0.6264929114172066 0
0.6239172642784959 0.956193066853026 0
0.04915971809816967 0.3702174103799354 0
0.9567761040670812 0.6256789706144052 0
0.3713222429848915 0.9550168815234377 0
0.6239898040669142 0.04272826191962191 0
0.4749999999987617 0.04330127018910041 0
0.524993907754199 0.9599453455035611 0
0.9487005944248575 0.4717283573453216 0
0.04782793495370948 0.5277542239171316 0
0.8748262452892817 0.9587067939851414 0
0.04376100884304829 0.8783552523819858 0
0.04327618552724755 0.1250401412160802 0
0.8752987853816442 0.04291257122832546 0
0.9566987298106641 0.874999999999671 0
0.1205666771199828 0.04485682896539631 0
0.1238049606010981 0.9566964602711111 0
0.9550162439424749 0.1205304281522192 0
0.3014865325854997 0.5910295471625857 0
0.2777397082973037 0.6295272746784402 0
0.2975381693091027 0.6729334739712387 0
0.252079073623837 0.6676934567539681 0
0.2728591689177403 0.7108142014708082 0
0.2301641729034181 0.6255196205057852 0
0.2041711032683398 0.6651134663148199 0
0.1827581888512501 0.6222013997799279 0
0.1561712763157886 0.6623129460952693 0
0.1778115609986244 0.7055068841064612 0
0.1295285388818102 0.7006306770061186 0
0.1451282371826896 0.7468900427106597 0
0.3180329716991751 0.7154345051117996 0
0.2937532234982858 0.75365561695629 0
0.3414107979062542 0.7571299378728138 0
0.3151828084456905 0.7966543289445568 0
0.3628881940241839 0.7992792562333857 0
0.2675704396893467 0.7935294927170182 0
0.2886152596791606 0.8367741849937881 0
0.2404201935839209 0.833760134864046 0
0.2088384173347937 0.5824284424275312 0
0.1613032141189918 0.5791409839062807 0
0.1880103674697974 0.5388790979490099 0
0.1399367021563344 0.5358856488063705 0
0.1667215794416097 0.4954700460032715 0
0.1197809225402243 0.493389311317027 0
0.1455240850242604 0.4523321457235457 0
0.1935551528177483 0.4552056018742368 0
0.1722373011114299 0.4120631819850574 0
0.0907247567755613 0.4505034440082601 0
0.2617281930063837 0.8765018134646222 0
0.2129400871523455 0.8731868071157345 0
0.309301037721862 0.8796492156621692 0
0.1922543718894035 0.8304048088446541 0
0.1650588636954649 0.8702086154624024 0
0.1452918701516332 0.8276275959614934 0
0.1158263223551112 0.5748399332486168 0
0.2188484619010152 0.4158525788125279 0
0.1988271585434708 0.3720915684885073 0
0.15089732801224 0.3687900427094766 0
0.1777705465363937 0.3287257910017921 0
0.2258997924932774 0.3320156770663479 0
0.2047968943722518 0.2887300491470234 0
0.2515661782372711 0.2911645278971051 0
0.2315324188691645 0.2485434324393336 0
0.2784600539418655 0.2509659551864304 0
0.2586746601949093 0.2085271440387987 0
0.3069701426350678 0.211887701221772 0
0.2136381884044664 0.2063089311346415 0
0.2859896646634411 0.1684794295230087 0
0.334246615943381 0.1718392069020426 0
0.3554928733642676 0.2153346755357965 0
0.3825509071962538 0.1753516766160024 0
0.1294505276720332 0.325290625464682 0
0.3129804388725321 0.1280333333518686 0
0.4096593705427956 0.2184424007438549 0
0.4319839958977888 0.1760807209774338 0
0.4099553894698732 0.1348410233797734 0
0.458344698914888 0.1370425898056219 0
0.4791914732394043 0.1808903312778023 0
0.5064669611965994 0.1406534928986363 0
0.5275341547783331 0.18271559760342 0
0.5527866429533355 0.1461628212849514 0
0.5751688083507184 0.1891304668552665 0
0.6004355848349594 0.1523230066741283 0
0.6231725448192287 0.1936771438450525 0
0.6503426543570648 0.1556329778102108 0
0.6717671881475618 0.1975828032087135 0
0.6991155758915265 0.1575313220219676 0
0.720262927223855 0.2010943608457317 0
0.7476894854802103 0.1608133966820189 0
0.7687476956288317 0.2046206450695543 0
0.7963427702954252 0.1643379311960068 0
0.7413242739642923 0.2448098073305667 0
0.7896683914301481 0.2485066767749647 0
0.7622315064141609 0.288450720390147 0
0.8105319044746997 0.2922602078737495 0
0.7831399570404632 0.3321352414096146 0
0.8314186554328866 0.3359486775257066 0
0.8051856239447384 0.3753271840951969 0
0.8364997220031396 0.2531432536162078 0
0.8525039222430135 0.3795534759084161 0
0.8262787911716958 0.4189440730120218 0
0.7138735149761674 0.2843949194669055 0
0.8723417909585996 0.4238017062393725 0
0.845838082817127 0.4632506681125253 0
0.6445697622327079 0.2369223908914605 0
0.8798236845487277 0.3396596006375149 0
0.6758047851604303 0.1191425822410282 0
0.2790222847312041 0.3362205407024051 0
0.2639137858637662 0.1264004747952108 0
0.5334106716915195 0.1015561091228143 0
0.7596821260459699 0.3709464730122287 0
0.2380508125955164 0.460506910079872 0
0.7918053230853108 0.4571405106329688 0
0.8173735251395264 0.502739139734696 0
0.8663687737973873 0.5069570732551711 0
0.8387997101205761 0.5468267321518148 0
0.8872841406126799 0.5508151414573714 0
0.8595975387562965 0.5906873520888547 0
0.8137848137857673 0.5883566215890492 0
0.8323621823197686 0.6306852277497674 0
0.7849520052640495 0.6276428221431125 0
0.8043920096236322 0.669975454684389 0
0.852645580622224 0.6742167162231663 0
0.8248246621690793 0.7138771994439719 0
0.7759345608271078 0.7092512289617497 0
0.7969274268758264 0.7535453894388301 0
0.7484613305724467 0.7493182542754272 0
0.7691300623269859 0.7933638355013701 0
0.7205843051236523 0.789137663454661 0
0.8177054390525192 0.7984001974160181 0
0.7412507082115922 0.8332628146358384 0
0.6927493109441885 0.8288848417807504 0
0.6721866502519513 0.7849031668598199 0
0.6443723979448978 0.8244947548708949 0
0.6246766798821247 0.7821767840525373 0
0.5961150231693084 0.8220404187641602 0
0.7132960399116003 0.8732229545154432 0
0.7267881835895121 0.703331802110868 0
0.8732779206066499 0.7181745149825068 0
0.6164308326456075 0.8644337723705673 0
0.5681638350889932 0.8596617236965634 0
0.5490521272262654 0.8184751624963766 0
0.5208586018160735 0.8527721649838691 0
0.5009114871216855 0.806341755077252 0
0.4723650985493311 0.846799983970287 0
0.4537439270251935 0.8067673250559736 0
0.425554128620368 0.8448480802367313 0
0.4481560856976693 0.8890369096255533 0
0.7644867765246441 0.8747922047388524 0
0.5415918459222671 0.2298081110536122 0
0.2927691003461383 0.08497472740254688 0
0.1988017168092386 0.7482603431769258 0
0.3956408004201402 0.8818508971571669 0
0.6646799318281312 0.642835195081661 0
0.5859905115837715 0.7016121691628237 0
0.6332896204602618 0.3264425172521006 0
0.7144182280701195 0.5405762903396927 0
0.4673861060327866 0.717157635893544 0
0.4322463142014286 0.291309594273147 0
0.8996518599309333 0.6789232848800363 0
0.7750833092099738 0.1213880263270952 0
0.8240811677615669 0.124957341262593 0
0.8453980452411122 0.1683077004641786 0
0.8718813881951839 0.1285149267864529 0
0.8947345226654485 0.1721103174097738 0
0.5667455853997571 0.7443447421123031 0
0.652315633752095 0.7413559894154655 0
0.2896937064810547 0.9205680087674835 0
0.7017346775938759 0.4151575105155512 0
0.1102381965727177 0.6578783673881733 0
0.08307508985172221 0.6897701791045749 0
0.1206018246630936 0.8670114579653694 0
0.3802490414624812 0.7626444256907008 0
0.09588009067157968 0.8205799207223727 0
0.7728186320376036 0.5017140250015995 0
0.5875793793650437 0.9107704977811801 0
0.4405125112472673 0.09022458487135566 0
0.3276788332038856 0.3677733171190395 0
0.3717022082367401 0.6684589387100177 0
0.3744643112162396 0.2548765866748393 0
0.7449476012915119 0.56866604644414 0
0.9221770297280751 0.7229331982853713 0
0.8960435293258567 0.764270430746724 0
0.9149310487398163 0.8107897087067283 0
0.7378579401919747 0.616380502278433 0
0.7473298200171432 0.4337281757155442 0
0.5283510823627757 0.2846521502786151 0
0.1024541970861325 0.3657281758598854 0
0.08083513728737228 0.3242293998942684 0
0.1077715524403383 0.2858147809088303 0
0.4983836671414316 0.7572456884295591 0
0.1917825466517113 0.9140416630038858 0
0.7433279609160308 0.9159337284340717 0
0.6848510978354712 0.9134544404311681 0
0.6735924578390631 0.6964450882696777 0
0.9145951631275122 0.5976483694002176 0
0.9399208413148019 0.5521542853241812 0
0.3406359909720775 0.08738745875818929 0
0.499283630216071 0.2498628019649046 0
0.05103442801046195 0.2790088364867795 0
0.4550539751956844 0.2447815009085587 0
0.332307636447495 0.9242502962569622 0
0.9519243171254299 0.6778167600047782 0
0.2401144300864156 0.5412078028702484 0
0.6802221624922532 0.3197778383894629 0
0.3220457914133488 0.3234606569908528 0
0.8665460322217183 0.8044528905538183 0
0.88524514017274 0.8492439519670365 0
0.8376479772940386 0.8422173252387362 0
0.8579539802350691 0.890291075974224 0
0.9138235515618511 0.8865620335463396 0
0.7564565845533278 0.6648275141352641 0
0.2137017941143765 0.4984888364991219 0
0.6996328465320258 0.745252597486909 0
0.7348176438038763 0.3281254603851184 0
0.3262628234254356 0.2523641546970344 0
0.6935983998574751 0.2404300372549691 0
0.5960816220761856 0.2330960333362047 0
0.4232447601966264 0.04401872262673837 0
0.5742855640450982 0.9575945567973609 0
0.9593775164951543 0.4210164386996582 0
0.04274029436852621 0.5810416067533005 0
0.2450374391546673 0.376043560825085 0
0.7886406183266966 0.5477315915908528 0
0.5255047506125167 0.05085525205435062 0
0.5764883547036882 0.04274699185809761 0
0.6007979218645472 0.07958715095261656 0
0.4751065670555144 0.9597128768065664 0
0.4992165526043118 0.916370355278803 0
0.4248997451168482 0.9590614162455788 0
0.9587463123145619 0.3243296710665334 0
0.9572496772198869 0.2750450835572854 0
0.9142463939111944 0.2484901093222724 0
0.9094324733491104 0.2988030387164704 0
0.04335043881084695 0.474760219087032 0
0.0433034194113784 0.4253374028854688 0
0.6747946659640787 0.04266907344577942 0
0.7264889832759067 0.0411879159501671 0
0.0436570927679775 0.1749062550652681 0
0.08649066297788086 0.1499908866640129 0
0.0907424069326484 0.09225072083389614 0
0.129610305608293 0.125090956434642 0
0.1284589754619831 0.1748235852808928 0
0.1691283191492615 0.1491864727173901 0
0.1725318421513584 0.1005127293966291 0
0.08669260900386988 0.1986778351977413 0
0.1309696220158459 0.2201242107964907 0
0.8259131978783586 0.04219191815104935 0
0.4537771877974642 0.7647842885285112 0
0.1718483330198546 0.04924198801266722 0
0.8245269447158068 0.9597208685404454 0
0.8030548601621106 0.914341996184015 0
0.9486289668215028 0.1730687187524228 0
0.0423328446916484 0.07469087081524545 0
0.618001699691636 0.2760918715629176 0
0.9508626332848893 0.9233964217221791 0
0.07515220510227602 0.9577301321000176 0
0.9247997645203725 0.0422697226686221 0
0.04771024710395134 0.8250917277149995 0
0.09297068086260782 0.7685957093032674 0
0.89379486178711 0.4678395772617525 0
0.4879063799084199 0.09257339681860752 0
0.2144000246304311 0.1251850236736097 0
0.1563148249718667 0.2887711555699407 0
0.8717230761857668 0.2170564737002174 0
0.8800516580307526 0.6345325585477948 0
0.361519242948901 0.1315436588278421 0
0.664728773234504 0.8686046930903421 0
0.8180632834640706 0.2093287801368549 0
0.8458875017086083 0.7587867704303114 0
0.3354567346893139 0.8389308367464694 0
0.7898305654581625 0.8359310298905431 0
0.8573115171844909 0.2968200146966756 0
0.1768606049179851 0.244383509330712 0
0.7259892737800191 0.1202302424890734 0
0.8953738956159781 0.386644846821406 0
0.1240918127391333 0.4088113970243971 0
0.1358296430993089 0.6186557529787985 0
0.09666407327386317 0.5322128297873945 0
0.9074546125753926 0.09021055388196147 0
0.9160909020068262 0.5113252773617458 0
0.225555178348103 0.7076183737356359 0
0.6381231055905296 0.909142580985373 0
0.3908299408406596 0.08950442292494987 0
0.08937356205459554 0.9070048340147807 0
0.2853977800924821 0.4717470806142702 0
0.2465165124898735 0.7508120465716437 0
0.3249999999991935 0.04151655320473553 0
0.3687644338950009 0.716809065604892 0
0.2398958126135569 0.1674481986225922 0
0.2203027500786558 0.7908668800880007 0
0.8511866700559507 0.08535082430586563 0
0.03966689810571779 0.6738952863303967 0
0.05178130450498467 0.7268206524982392 0
0.9231078294607921 0.962701257649522 0
0.07454236808537593 0.0415475631384512 0
0.04112359955771583 0.9250735088658537 0
0.9583488958946128 0.07446316313141202 0
0.6750000000008666 0.9597773817378775 0
0.1735682287460297 0.7871016412255554 0
0.2543613756202711 0.5867089697643028 0
0.2717245118967741 0.04231458478032219 0
0.08515086401755063 0.6107115815921906 0
0.172435531501149 0.9575356935288726 0
0.5365287141801889 0.8917774977628603 0
0.9596388937400739 0.8254897438038753 0
0.8008919952550724 0.08293836636410237 0
0.41109015615258 0.793722399950744 0
0.2446979393042434 0.0824010559213143 0
0.6063727295630399 0.7441513931101968 0
0.7088372979605928 0.6569682227603197 0
0.6496037868776545 0.08164445102030085 0
0.72091723606258 0.957924651047383 0
0.6639258599517501 0.2806765958029693 0
0.2418674656643583 0.9178584850479995 0
0.1703023769789782 0.1941024829717352 0
0.3804595350685313 0.8395657343811803 0
0.7515669858906719 0.08140219664009046 0
0.7185893375374747 0.3710007070619525 0
0.03650227387263661 0.3249195984372605 0
0.0814459147726493 0.4038240810447141 0
0.08955659532565752 0.2440365785645446 0
0.2739857278591418 0.9631518897484723 0
0.9609424675492971 0.5170415840057516 0
0.3530597238895107 0.879378735244032 0
0.7795733547647263 0.4103726718888003 0
0.1430793828501853 0.9094520124330128 0
0.3491540251716692 0.291064866613581 0
0.2856370054506613 0.3808447128804403 0
0.964945911796062 0.7249999999992764 0
0.2532369369101118 0.499094945819878 0
0.9148551725288186 0.4303510745684491 0
0.7007080801581269 0.08104607696440656 0
0.9153498907984801 0.1353657004613246 0
0.9173640377111903 0.2074005208091634 0
0.9226809496409382 0.3539093929213831 0
0.3222201797434589 0.9631428634673072 0
0.2596716959128362 0.4225050995416011 0
0.2959690832747536 0.2903533599316074 0
0.1344595987800286 0.08379283285044878 0
0.5783816430853935 0.7827291550915192 0
0.5370680283924421 0.7716856381326906 0
0.5664628242589304 0.2658681377150692 0
0.8105948319348051 0.8715147264052741 0
0.9199193143558585 0.6421818662560703 0
0.07926302425758149 0.4955075022188066 0
0.1319464473586751 0.7888029853766892 0
0.6246512125667355 0.1166371067583524 0
0.9625047878486289 0.5850563875123304 0
0.4094638579027794 0.9209299466537846 0
0.3866419293880721 0.2950423654794276 0
0.9260674728050291 0.8494170876047301 0
0.4175148263479853 0.7407044631895395 0
0.8770197924965242 0.2620018752185497 0
0.4142596080572026 0.2575161873573231 0
0.2043921400879824 0.0782344709525106 0
0.5764164049678883 0.111966979052888 0
0.03665863600904596 0.03665863600912824 0
0.7533486364412207 0.5329348709847227 0
0.7305644988825679 0.5012688142380117 0
0.9633879277452543 0.9633879277452748 0
0.03661207225383823 0.9633879277461619 0
0.9633926528319258 0.03660734716801225 0
0.629546472419192 0.7108758199633854 0
0.4513685616754247 0.9290223009220573 0
0.1004967702567629 0.726541452124572 0
0.07946534666725369 0.8596086385599016 0
0.8519864401696442 0.9307554274256724 0
0.07148842085173707 0.6496308816314179 0
0.6936907869002586 0.6174538010463784 0
0.7511891343948386 0.4713980988271756 0
0.3346852394542877 0.6810851623243472 0
0.5616887766301223 0.07715163952211074 0
0.2022900360464162 0.1692991336335893 0
0.07764189779375213 0.5653120350597267 0
0.4773811826545867 0.7834311522206229 0
0.3706711751848824 0.9124343426208388 0
0.4933909381940916 0.8788447581683835 0
0.4554342137117642 0.2058829383450584 0
0.4982693631926617 0.211565635184473 0
0.7376642982677573 0.400973739688019 0
0.7016935716317744 0.3464877714693271 0
0.8966106058418826 0.926920520972615 0
0.7758237512197761 0.5912407886689448 0
0.06996557220676509 0.7973168394352033 0
0.9311587805596686 0.396359187219518 0
0.2748821683993823 0.560320140074854 0
0.5471863686132057 0.9297180192991744 0
0.1344007169031426 0.2586394269328803 0
2 2 0 50
516
517
518
519
520
521
522
523
524
525
526
527
528
529
530
531
532
533
534
535
536
537
538
539
540
541
542
543
544
545
546
547
548
549
550
551
552
553
554
555
556
557
558
559
560
561
562
563
564
565
0.4131080157449539 0.389148532585551 0
0.5846658592012015 0.6088108377404001 0
0.3902382031815343 0.5829959536941398 0
0.6083256145171896 0.4168788329975682 0
0.6353733177612615 0.5178222359706274 0
0.3670416579335273 0.481056634045342 0
0.4821777646088726 0.6353733176573029 0
0.5178222354359194 0.364626682352252 0
0.480874385693459 0.354726535865497 0
0.4913964300964748 0.397586004270106 0
0.5324483952556216 0.4082375704004467 0
0.5037119785112638 0.4425910618358877 0
0.5472641163457308 0.4524132177626593 0
0.5182111869206656 0.4869000666327344 0
0.4728210904111284 0.4776917339284593 0
0.4877563297885928 0.5218473166442452 0
0.5334280339122286 0.5309286181598487 0
0.4432676330327078 0.5130412914371816 0
0.4584933264924063 0.553919257407782 0
0.4231542802948963 0.4682788103088688 0
0.4612579044900143 0.4326370781657088 0
0.5624856887163618 0.4949394395690838 0
0.5841877580792554 0.5358863535869539 0
0.549289030450781 0.5761537761789833 0
0.5033957839213572 0.5643456385862429 0
0.5942970767445646 0.4561241385007661 0
0.5126181039660498 0.6082023724545761 0
0.4153353999580761 0.546329494816446 0
0.3975436352112576 0.5085019211069228 0
0.3812633980746634 0.4400567031573169 0
0.3714187717221745 0.5477106839283887 0
0.5580454206787211 0.3751779754497226 0
0.471041203557191 0.5943840011561333 0
0.4422595390994751 0.6253891619013019 0
0.5498178767189822 0.627692863954691 0
0.4508295729622848 0.3821982832805362 0
0.6022173992255979 0.4953636907171579 0
0.6233333893523002 0.5597098924278125 0
0.6362046586546781 0.4768889335854904 0
0.5712155146166358 0.4177618797043607 0
0.4301776836734188 0.5848074691984436 0
0.5178155659360861 0.6449042738600974 0
0.4215459125019131 0.4253143948631204 0
0.5914546436932699 0.3854553947609289 0
0.4087167826075156 0.6147226146738015 0
0.5885160878430761 0.5740785535632971 0
0.615289397507171 0.5922794627847444 0
0.6338590412913283 0.4405983142825105 0
0.354685434534209 0.5149129550268592 0
0.3866966801966027 0.4062455255446104 0
$EndNodes
$Elements
6 1128 1 1128
1 1 1 20
1 1 7 
2 7 8 
3 8 9 
4 9 10 
5 10 11 
6 11 12 
7 12 13 
8 13 14 
9 14 15 
10 15 16 
11 16 17 
12 17 18 
13 18 19 
14 19 20 
15 20 21 
16 21 22 
17 22 23 
18 23 24 
19 24 25 
20 25 2 
1 2 1 20
21 2 26 
22 26 27 
23 27 28 
24 28 29 
25 29 30 
26 30 31 
27 31 32 
28 32 33 
29 33 34 
30 34 35 
31 35 36 
32 36 37 
33 37 38 
34 38 39 
35 39 40 
36 40 41 
37 41 42 
38 42 43 
39 43 44 
40 44 3 
1 3 1 20
41 3 45 
42 45 46 
43 46 47 
44 47 48 
45 48 49 
46 49 50 
47 50 51 
48 51 52 
49 52 53 
50 53 54 
51 54 55 
52 55 56 
53 56 57 
54 57 58 
55 58 59 
56 59 60 
57 60 61 
58 61 62 
59 62 63 
60 63 4 
1 4 1 20
61 4 64 
62 64 65 
63 65 66 
64 66 67 
65 67 68 
66 68 69 
67 69 70 
68 70 71 
69 71 72 
70 72 73 
71 73 74 
72 74 75 
73 75 76 
74 76 77 
75 77 78 
76 78 79 
77 79 80 
78 80 81 
79 81 82 
80 82 1 
2 1 2 926
81 344 381 469 
82 386 420 492 
83 386 116 420 
84 138 411 423 
85 381 120 469 
86 77 78 326 
87 144 406 424 
88 142 367 422 
89 308 106 309 
90 411 138 493 
91 406 144 460 
92 367 142 466 
93 314 129 315 
94 114 319 378 
95 375 434 479 
96 319 275 378 
97 78 105 326 
98 351 236 388 
99 434 299 479 
100 309 106 310 
101 135 387 458 
102 304 234 332 
103 302 128 346 
104 293 321 340 
105 133 303 345 
106 321 264 340 
107 234 304 455 
108 387 135 407 
109 331 282 440 
110 282 381 440 
111 128 409 425 
112 303 133 388 
113 174 361 362 
114 128 302 409 
115 315 129 446 
116 108 441 449 
117 441 294 449 
118 122 292 468 
119 409 320 425 
120 317 122 468 
121 276 313 325 
122 130 38 329 
123 36 323 450 
124 323 36 475 
125 379 291 460 
126 436 261 467 
127 425 320 439 
128 345 303 410 
129 77 326 446 
130 320 319 439 
131 145 111 146 
132 133 351 388 
133 123 295 312 
134 122 281 292 
135 313 121 325 
136 284 122 317 
137 106 308 456 
138 375 272 434 
139 285 92 477 
140 430 143 453 
141 126 345 410 
142 305 119 415 
143 117 412 464 
144 112 282 331 
145 110 304 332 
146 336 378 470 
147 38 39 329 
148 438 363 459 
149 119 284 479 
150 292 436 467 
151 127 348 429 
152 205 203 388 
153 378 336 494 
154 291 379 461 
155 102 101 280 
156 93 92 285 
157 100 99 283 
158 282 120 381 
159 110 91 304 
160 111 85 305 
161 97 112 295 
162 90 117 304 
163 84 119 305 
164 112 96 282 
165 86 111 145 
166 103 109 281 
167 123 98 295 
168 120 94 313 
169 95 120 282 
170 5 121 313 
171 119 83 284 
172 122 104 281 
173 6 122 284 
174 121 285 327 
175 428 277 435 
176 449 294 463 
177 337 141 382 
178 117 89 412 
179 347 135 458 
180 420 297 492 
181 88 124 412 
182 274 355 491 
183 313 276 469 
184 355 274 504 
185 344 231 381 
186 294 328 463 
187 283 99 486 
188 429 348 501 
189 359 391 461 
190 331 228 341 
191 376 371 466 
192 318 430 453 
193 311 247 338 
194 233 438 459 
195 281 109 490 
196 248 251 338 
197 367 380 422 
198 129 314 447 
199 360 232 399 
200 325 327 506 
201 415 119 479 
202 247 311 510 
203 113 428 435 
204 391 359 480 
205 327 505 506 
206 474 209 483 
207 331 341 508 
208 406 384 424 
209 361 174 472 
210 298 411 493 
211 130 322 475 
212 411 383 423 
213 400 373 442 
214 280 101 496 
215 236 351 499 
216 239 312 452 
217 342 454 465 
218 324 126 410 
219 111 305 498 
220 318 108 430 
221 236 205 388 
222 337 382 509 
223 295 112 445 
224 203 303 388 
225 126 324 414 
226 174 362 447 
227 120 313 469 
228 304 117 455 
229 327 285 481 
230 353 474 483 
231 69 419 420 
232 92 110 477 
233 412 124 457 
234 108 318 441 
235 309 310 333 
236 264 321 437 
237 247 248 338 
238 251 264 338 
239 270 317 468 
240 373 400 515 
241 319 114 439 
242 412 238 464 
243 312 239 497 
244 284 375 479 
245 299 415 479 
246 156 386 492 
247 300 386 473 
248 144 379 460 
249 307 350 510 
250 130 329 471 
251 360 399 480 
252 324 277 414 
253 321 293 490 
254 309 333 396 
255 333 256 396 
256 256 333 335 
257 146 111 147 
258 454 332 465 
259 311 307 510 
260 322 130 471 
261 325 121 327 
262 142 376 466 
263 494 336 509 
264 414 277 428 
265 317 270 502 
266 349 455 464 
267 284 317 375 
268 341 237 445 
269 386 156 473 
270 419 297 420 
271 330 167 339 
272 264 253 340 
273 336 337 509 
274 279 274 476 
275 124 87 513 
276 87 145 513 
277 231 212 343 
278 350 307 485 
279 476 274 491 
280 256 335 398 
281 310 106 432 
282 222 237 341 
283 352 132 353 
284 210 231 344 
285 167 169 339 
286 253 255 340 
287 190 192 342 
288 75 129 362 
289 18 132 352 
290 56 131 356 
291 212 214 343 
292 21 107 364 
293 366 369 372 
294 301 240 350 
295 372 369 373 
296 126 14 345 
297 128 52 346 
298 125 33 347 
299 127 71 348 
300 182 183 349 
301 358 357 360 
302 333 310 334 
303 196 200 306 
304 259 261 293 
305 145 146 427 
306 172 182 238 
307 218 220 228 
308 32 125 357 
309 134 354 355 
310 222 224 237 
311 220 222 341 
312 206 208 276 
313 242 245 350 
314 365 366 372 
315 240 242 350 
316 239 240 301 
317 228 220 341 
318 31 357 358 
319 251 253 264 
320 105 365 372 
321 186 188 234 
322 172 173 182 
323 227 230 239 
324 165 167 330 
325 259 260 261 
326 105 79 365 
327 107 22 374 
328 327 200 505 
329 214 218 343 
330 210 212 231 
331 192 196 342 
332 183 186 349 
333 196 197 200 
334 15 133 345 
335 53 134 346 
336 34 135 347 
337 72 136 348 
338 276 208 344 
339 245 246 247 
340 359 358 360 
341 136 73 361 
342 133 16 351 
343 361 74 362 
344 351 17 352 
345 242 244 245 
346 208 210 344 
347 169 171 172 
348 134 54 354 
349 354 55 356 
350 366 368 369 
351 115 358 359 
352 186 234 349 
353 169 172 339 
354 255 259 340 
355 255 258 259 
356 132 19 363 
357 363 20 364 
358 377 114 378 
359 218 219 220 
360 369 368 370 
361 15 16 133 
362 13 14 126 
363 53 54 134 
364 51 52 128 
365 34 35 135 
366 32 33 125 
367 72 73 136 
368 70 71 127 
369 74 75 362 
370 17 18 352 
371 55 56 356 
372 75 76 129 
373 37 38 130 
374 56 57 131 
375 18 19 132 
376 192 195 196 
377 20 21 364 
378 78 79 105 
379 40 41 106 
380 21 22 107 
381 59 60 108 
382 268 269 270 
383 218 228 343 
384 365 139 366 
385 31 32 357 
386 161 159 299 
387 289 391 395 
388 196 306 342 
389 262 267 268 
390 214 216 218 
391 239 230 240 
392 204 205 206 
393 115 30 358 
394 333 334 335 
395 206 207 208 
396 172 238 339 
397 14 15 345 
398 52 53 346 
399 33 34 347 
400 71 72 348 
401 366 367 368 
402 220 221 222 
403 172 171 173 
404 201 203 204 
405 73 74 361 
406 16 17 351 
407 10 113 376 
408 48 114 377 
409 29 115 379 
410 259 293 340 
411 54 55 354 
412 183 185 186 
413 245 244 246 
414 182 173 183 
415 259 258 260 
416 19 20 363 
417 222 223 224 
418 270 271 272 
419 80 139 365 
420 23 140 374 
421 30 31 358 
422 79 80 365 
423 22 23 374 
424 261 260 262 
425 10 11 113 
426 48 49 114 
427 29 30 115 
428 67 68 116 
429 146 147 148 
430 224 226 227 
431 200 197 201 
432 81 82 380 
433 208 209 210 
434 67 116 385 
435 186 187 188 
436 196 195 197 
437 142 9 376 
438 137 47 377 
439 144 28 379 
440 218 216 219 
441 248 250 251 
442 391 225 395 
443 251 252 253 
444 141 43 382 
445 9 10 376 
446 47 48 377 
447 28 29 379 
448 366 139 367 
449 188 189 190 
450 247 246 248 
451 43 44 382 
452 42 43 141 
453 61 62 143 
454 143 62 383 
455 46 47 137 
456 80 81 139 
457 8 9 142 
458 23 24 140 
459 65 66 138 
460 27 28 144 
461 328 131 463 
462 140 24 384 
463 156 154 278 
464 150 152 165 
465 24 25 384 
466 62 63 383 
467 138 66 385 
468 268 267 269 
469 210 211 212 
470 407 135 450 
471 139 81 380 
472 263 320 394 
473 220 219 221 
474 227 229 230 
475 370 368 371 
476 253 254 255 
477 149 147 157 
478 277 235 435 
479 322 323 475 
480 190 191 192 
481 165 166 167 
482 204 203 205 
483 326 105 448 
484 206 205 207 
485 158 157 159 
486 240 241 242 
487 208 207 209 
488 270 269 271 
489 367 139 380 
490 167 168 169 
491 335 334 336 
492 242 243 244 
493 222 221 223 
494 169 170 171 
495 160 161 397 
496 255 257 258 
497 186 185 187 
498 212 213 214 
499 66 67 385 
500 382 421 509 
501 224 223 226 
502 272 271 273 
503 199 324 393 
504 217 289 395 
505 251 250 252 
506 192 194 195 
507 210 209 211 
508 263 319 320 
509 164 176 178 
510 188 187 189 
511 370 371 389 
512 178 179 180 
513 217 288 289 
514 253 252 254 
515 163 160 397 
516 146 148 150 
517 289 290 291 
518 212 211 213 
519 190 189 191 
520 214 215 216 
521 183 184 185 
522 199 277 324 
523 198 315 316 
524 175 163 177 
525 262 266 267 
526 227 226 229 
527 265 308 309 
528 201 202 203 
529 180 298 300 
530 97 96 112 
531 92 91 110 
532 86 85 111 
533 103 102 109 
534 160 159 161 
535 149 157 158 
536 371 376 482 
537 99 123 486 
538 165 152 166 
539 255 254 257 
540 84 83 119 
541 90 89 117 
542 101 100 118 
543 95 94 120 
544 148 147 149 
545 88 87 124 
546 99 98 123 
547 6 104 122 
548 5 93 121 
549 91 90 304 
550 289 288 290 
551 336 334 337 
552 85 84 305 
553 240 230 241 
554 98 97 295 
555 258 257 263 
556 192 191 194 
557 178 176 179 
558 155 154 156 
559 294 177 328 
560 180 179 298 
561 94 5 313 
562 96 95 282 
563 248 249 250 
564 87 86 145 
565 217 215 287 
566 214 213 215 
567 104 103 281 
568 183 173 184 
569 262 260 266 
570 201 197 202 
571 216 215 217 
572 179 176 318 
573 248 246 249 
574 83 6 284 
575 167 166 168 
576 242 241 243 
577 273 274 279 
578 169 168 170 
579 316 315 326 
580 195 194 199 
581 217 287 288 
582 244 243 322 
583 263 257 275 
584 171 170 174 
585 164 163 175 
586 153 151 154 
587 199 194 235 
588 254 252 256 
589 164 175 176 
590 158 159 160 
591 221 219 225 
592 191 189 193 
593 278 154 408 
594 263 275 319 
595 175 177 294 
596 118 307 311 
597 153 155 296 
598 109 102 280 
599 265 249 286 
600 230 229 387 
601 162 163 164 
602 250 249 265 
603 13 126 414 
604 150 151 152 
605 267 266 302 
606 199 235 277 
607 121 93 285 
608 187 185 390 
609 118 100 283 
610 289 291 391 
611 185 184 198 
612 213 211 233 
613 273 271 274 
614 207 205 236 
615 265 309 396 
616 226 223 232 
617 265 286 308 
618 308 286 329 
619 198 184 314 
620 203 202 303 
621 162 160 163 
622 153 154 155 
623 198 316 390 
624 296 155 297 
625 150 148 151 
626 241 230 387 
627 168 166 181 
628 322 243 323 
629 258 263 394 
630 198 314 315 
631 158 160 162 
632 148 149 408 
633 173 171 403 
634 152 151 153 
635 216 217 395 
636 171 174 403 
637 219 216 395 
638 177 163 397 
639 185 198 390 
640 197 195 393 
641 260 258 394 
642 195 199 393 
643 244 322 392 
644 109 280 321 
645 246 244 392 
646 252 250 396 
647 159 157 415 
648 140 384 406 
649 118 283 307 
650 250 265 396 
651 202 197 393 
652 151 148 408 
653 225 219 395 
654 266 260 394 
655 184 173 403 
656 249 246 392 
657 256 252 396 
658 223 221 399 
659 257 254 398 
660 275 257 398 
661 178 180 426 
662 254 256 398 
663 189 187 400 
664 287 215 401 
665 153 296 404 
666 166 152 404 
667 215 213 401 
668 193 189 400 
669 221 225 399 
670 286 249 392 
671 229 226 402 
672 152 153 404 
673 232 223 399 
674 187 390 400 
675 394 320 409 
676 314 184 403 
677 213 233 401 
678 226 232 402 
679 181 166 404 
680 170 168 405 
681 393 324 410 
682 168 181 405 
683 165 330 427 
684 243 241 407 
685 143 383 411 
686 323 243 407 
687 154 151 408 
688 241 387 407 
689 302 266 409 
690 266 394 409 
691 202 393 410 
692 51 128 425 
693 303 202 410 
694 180 300 473 
695 326 315 446 
696 386 300 511 
697 89 88 412 
698 69 70 419 
699 158 162 413 
700 68 69 420 
701 116 386 511 
702 413 162 417 
703 164 178 417 
704 374 140 418 
705 45 46 421 
706 7 8 422 
707 113 11 428 
708 64 65 423 
709 26 27 424 
710 278 408 413 
711 146 150 427 
712 108 60 430 
713 235 194 416 
714 149 158 413 
715 359 360 480 
716 191 193 416 
717 389 235 416 
718 408 149 413 
719 455 117 464 
720 124 330 457 
721 299 159 415 
722 341 445 508 
723 106 41 432 
724 61 143 430 
725 12 13 414 
726 132 363 438 
727 276 325 506 
728 141 337 478 
729 278 413 417 
730 42 141 432 
731 231 343 440 
732 269 267 431 
733 272 273 434 
734 348 136 501 
735 369 370 442 
736 136 405 501 
737 190 342 465 
738 114 49 439 
739 338 264 437 
740 12 414 428 
741 194 191 416 
742 406 290 418 
743 332 234 465 
744 129 76 446 
745 415 157 498 
746 232 360 462 
747 290 288 418 
748 237 224 452 
749 227 239 452 
750 70 127 419 
751 374 418 433 
752 381 231 440 
753 140 406 418 
754 162 164 417 
755 107 374 433 
756 311 338 437 
757 268 270 468 
758 59 108 449 
759 293 261 436 
760 335 336 470 
761 302 346 514 
762 116 68 420 
763 182 349 464 
764 269 431 504 
765 318 176 441 
766 417 178 426 
767 292 281 436 
768 391 291 461 
769 175 294 441 
770 404 296 429 
771 35 36 450 
772 40 106 456 
773 46 137 421 
774 8 142 422 
775 65 138 423 
776 27 144 424 
777 305 415 498 
778 200 327 481 
779 143 411 453 
780 193 400 442 
781 434 273 443 
782 50 51 425 
783 290 406 460 
784 156 278 426 
785 273 279 443 
786 131 57 463 
787 234 188 465 
788 150 165 427 
789 379 115 461 
790 328 177 451 
791 11 12 428 
792 134 355 514 
793 261 262 467 
794 329 39 456 
795 350 245 510 
796 418 288 433 
797 389 371 482 
798 364 107 444 
799 330 339 457 
800 298 179 453 
801 206 276 506 
802 368 367 466 
803 355 354 491 
804 228 331 440 
805 181 404 429 
806 107 433 444 
807 36 37 475 
808 60 61 430 
809 378 275 470 
810 278 417 426 
811 411 298 453 
812 403 174 447 
813 377 378 494 
814 267 302 431 
815 200 201 505 
816 50 425 439 
817 443 279 451 
818 229 402 458 
819 362 129 447 
820 82 1 484 
821 1 7 484 
822 3 45 487 
823 44 3 487 
824 63 4 488 
825 4 64 488 
826 25 2 489 
827 2 26 489 
828 436 281 490 
829 329 286 471 
830 41 42 432 
831 372 373 448 
832 431 355 504 
833 288 287 433 
834 161 299 434 
835 233 211 474 
836 343 228 440 
837 174 170 472 
838 235 389 435 
839 147 111 498 
840 363 364 459 
841 296 297 495 
842 209 207 483 
843 337 334 478 
844 462 125 512 
845 155 156 492 
846 355 431 514 
847 131 328 503 
848 101 118 496 
849 360 357 462 
850 105 372 448 
851 276 344 469 
852 353 132 438 
853 392 322 471 
854 274 271 504 
855 225 391 480 
856 321 280 437 
857 402 462 512 
858 433 287 444 
859 435 389 482 
860 477 306 481 
861 49 50 439 
862 373 369 442 
863 161 434 443 
864 400 390 515 
865 176 175 441 
866 285 477 481 
867 349 234 455 
868 323 407 450 
869 297 419 495 
870 364 444 459 
871 397 161 443 
872 239 301 497 
873 237 452 507 
874 330 124 513 
875 339 238 457 
876 110 332 454 
877 357 125 462 
878 287 401 444 
879 76 77 446 
880 308 329 456 
881 275 398 470 
882 109 321 490 
883 136 361 472 
884 342 306 454 
885 135 35 450 
886 316 326 448 
887 397 443 451 
888 351 352 499 
889 58 59 449 
890 405 136 472 
891 448 373 515 
892 224 227 452 
893 385 300 493 
894 138 385 493 
895 314 403 447 
896 442 370 500 
897 438 233 474 
898 238 412 457 
899 181 429 501 
900 311 437 496 
901 58 449 463 
902 179 318 453 
903 307 283 485 
904 177 397 451 
905 39 40 456 
906 444 401 459 
907 115 359 461 
908 312 295 507 
909 387 229 458 
910 291 290 460 
911 238 182 464 
912 57 58 463 
913 370 389 500 
914 401 233 459 
915 426 180 473 
916 123 312 497 
917 188 190 465 
918 316 448 515 
919 437 280 496 
920 402 232 462 
921 262 268 467 
922 427 330 513 
923 371 368 466 
924 356 131 476 
925 112 331 508 
926 306 200 481 
927 432 141 478 
928 156 426 473 
929 398 335 470 
930 37 130 475 
931 356 476 491 
932 376 113 482 
933 389 416 500 
934 286 392 471 
935 211 209 474 
936 431 302 514 
937 385 116 511 
938 352 353 499 
939 45 421 487 
940 300 385 511 
941 7 422 484 
942 64 423 488 
943 26 424 489 
944 170 405 472 
945 301 350 485 
946 452 312 507 
947 334 310 478 
948 353 438 474 
949 354 356 491 
950 193 442 500 
951 380 82 484 
952 382 44 487 
953 383 63 488 
954 384 25 489 
955 207 236 483 
956 399 225 480 
957 125 347 512 
958 137 377 494 
959 297 155 492 
960 505 204 506 
961 300 298 493 
962 270 272 502 
963 157 147 498 
964 201 204 505 
965 346 134 514 
966 328 451 503 
967 204 206 506 
968 118 311 496 
969 245 247 510 
970 375 317 502 
971 137 494 509 
972 272 375 502 
973 458 402 512 
974 421 382 487 
975 310 432 478 
976 271 269 504 
977 422 380 484 
978 292 467 468 
979 423 383 488 
980 424 384 489 
981 416 193 500 
982 390 316 515 
983 405 181 501 
984 429 296 495 
985 419 127 495 
986 467 268 468 
987 127 429 495 
988 113 435 482 
989 454 306 477 
990 293 436 490 
991 295 445 507 
992 445 112 508 
993 421 137 509 
994 145 427 513 
995 476 131 503 
996 110 454 477 
997 301 486 497 
998 451 279 503 
999 486 123 497 
1000 301 485 486 
1001 353 483 499 
1002 445 237 507 
1003 279 476 503 
1004 485 283 486 
1005 347 458 512 
1006 483 236 499 
2 2 2 122
1007 535 521 545 
1008 521 535 544 
1009 89 90 545 
1010 521 89 545 
1011 92 93 551 
1012 538 520 553 
1013 520 538 552 
1014 518 86 546 
1015 539 517 550 
1016 542 539 550 
1017 516 92 551 
1018 86 87 546 
1019 100 101 553 
1020 520 100 553 
1021 551 536 558 
1022 99 520 554 
1023 516 551 558 
1024 93 524 551 
1025 98 99 554 
1026 522 83 549 
1027 83 84 549 
1028 530 535 536 
1029 527 530 536 
1030 529 528 537 
1031 532 539 540 
1032 531 532 540 
1033 5 94 523 
1034 96 97 519 
1035 6 83 522 
1036 85 86 518 
1037 91 92 516 
1038 102 103 517 
1039 88 89 521 
1040 99 100 520 
1041 532 538 539 
1042 532 537 538 
1043 534 531 540 
1044 530 533 535 
1045 532 529 537 
1046 533 531 534 
1047 531 529 532 
1048 530 531 533 
1049 530 529 531 
1050 527 529 530 
1051 527 528 529 
1052 525 527 536 
1053 527 526 528 
1054 537 528 541 
1055 525 526 527 
1056 525 536 551 
1057 525 523 526 
1058 94 95 547 
1059 523 94 547 
1060 540 539 542 
1061 535 533 544 
1062 543 518 546 
1063 538 537 552 
1064 548 549 556 
1065 540 542 548 
1066 542 522 548 
1067 533 534 543 
1068 541 528 555 
1069 519 541 555 
1070 535 545 558 
1071 103 104 550 
1072 517 103 550 
1073 544 543 546 
1074 545 90 565 
1075 526 523 547 
1076 534 540 548 
1077 526 547 555 
1078 541 519 563 
1079 544 546 564 
1080 533 543 544 
1081 524 523 525 
1082 521 544 564 
1083 548 522 549 
1084 555 547 559 
1085 520 552 554 
1086 534 548 556 
1087 536 535 558 
1088 517 539 561 
1089 5 523 524 
1090 93 5 524 
1091 528 526 555 
1092 537 541 552 
1093 104 6 557 
1094 95 96 559 
1095 554 541 563 
1096 84 85 560 
1097 97 98 563 
1098 90 91 565 
1099 87 88 564 
1100 101 102 562 
1101 539 538 561 
1102 6 522 557 
1103 524 525 551 
1104 96 519 559 
1105 552 541 554 
1106 85 518 560 
1107 553 101 562 
1108 102 517 562 
1109 522 542 557 
1110 519 97 563 
1111 88 521 564 
1112 91 516 565 
1113 546 87 564 
1114 556 549 560 
1115 549 84 560 
1116 538 553 561 
1117 543 534 556 
1118 518 543 556 
1119 547 95 559 
1120 98 554 563 
1121 550 104 557 
1122 519 555 559 
1123 542 550 557 
1124 516 558 565 
1125 558 545 565 
1126 518 556 560 
1127 517 561 562 
1128 561 553 562 
$EndElements
