ls = 5;

w   = 10;      // mm
h   = 10;      // mm
R   = 0.5;     // mm
dx0 = 0.00005;
dx1 = 0.20;

Point(1) = {0, 0, 0, dx1};
Point(2) = {w, 0, 0, dx1};
Point(3) = {w, h, 0, dx1};
Point(4) = {0, h, 0, dx1};
//+
Line(1) = {1, 2};
//+
Line(2) = {2, 3};
//+
Line(3) = {3, 4};
//+
Line(4) = {4, 1};
//+
Point (5) = {5.01800,5.00000,0,dx0};
Point (6) = {5.01799,5.00114,0,dx0};
Point (7) = {5.01796,5.00227,0,dx0};
Point (8) = {5.01792,5.00340,0,dx0};
Point (9) = {5.01786,5.00453,0,dx0};
Point (10) = {5.01778,5.00566,0,dx0};
Point (11) = {5.01768,5.00678,0,dx0};
Point (12) = {5.01756,5.00789,0,dx0};
Point (13) = {5.01743,5.00900,0,dx0};
Point (14) = {5.01728,5.01009,0,dx0};
Point (15) = {5.01711,5.01118,0,dx0};
Point (16) = {5.01693,5.01225,0,dx0};
Point (17) = {5.01672,5.01332,0,dx0};
Point (18) = {5.01650,5.01437,0,dx0};
Point (19) = {5.01627,5.01540,0,dx0};
Point (20) = {5.01602,5.01642,0,dx0};
Point (21) = {5.01575,5.01742,0,dx0};
Point (22) = {5.01547,5.01841,0,dx0};
Point (23) = {5.01517,5.01938,0,dx0};
Point (24) = {5.01486,5.02032,0,dx0};
Point (25) = {5.01453,5.02125,0,dx0};
Point (26) = {5.01419,5.02216,0,dx0};
Point (27) = {5.01383,5.02304,0,dx0};
Point (28) = {5.01346,5.02391,0,dx0};
Point (29) = {5.01307,5.02474,0,dx0};
Point (30) = {5.01268,5.02556,0,dx0};
Point (31) = {5.01227,5.02634,0,dx0};
Point (32) = {5.01185,5.02711,0,dx0};
Point (33) = {5.01141,5.02784,0,dx0};
Point (34) = {5.01097,5.02855,0,dx0};
Point (35) = {5.01051,5.02922,0,dx0};
Point (36) = {5.01004,5.02987,0,dx0};
Point (37) = {5.00957,5.03049,0,dx0};
Point (38) = {5.00908,5.03108,0,dx0};
Point (39) = {5.00859,5.03164,0,dx0};
Point (40) = {5.00808,5.03217,0,dx0};
Point (41) = {5.00757,5.03266,0,dx0};
Point (42) = {5.00705,5.03312,0,dx0};
Point (43) = {5.00653,5.03355,0,dx0};
Point (44) = {5.00599,5.03395,0,dx0};
Point (45) = {5.00545,5.03431,0,dx0};
Point (46) = {5.00491,5.03463,0,dx0};
Point (47) = {5.00436,5.03493,0,dx0};
Point (48) = {5.00381,5.03519,0,dx0};
Point (49) = {5.00325,5.03541,0,dx0};
Point (50) = {5.00269,5.03560,0,dx0};
Point (51) = {5.00213,5.03575,0,dx0};
Point (52) = {5.00156,5.03586,0,dx0};
Point (53) = {5.00099,5.03595,0,dx0};
Point (54) = {5.00043,5.03599,0,dx0};
Point (55) = {4.99986,5.03600,0,dx0};
Point (56) = {4.99929,5.03597,0,dx0};
Point (57) = {4.99872,5.03591,0,dx0};
Point (58) = {4.99816,5.03581,0,dx0};
Point (59) = {4.99759,5.03568,0,dx0};
Point (60) = {4.99703,5.03551,0,dx0};
Point (61) = {4.99647,5.03530,0,dx0};
Point (62) = {4.99592,5.03506,0,dx0};
Point (63) = {4.99536,5.03479,0,dx0};
Point (64) = {4.99482,5.03448,0,dx0};
Point (65) = {4.99428,5.03413,0,dx0};
Point (66) = {4.99374,5.03375,0,dx0};
Point (67) = {4.99321,5.03334,0,dx0};
Point (68) = {4.99269,5.03290,0,dx0};
Point (69) = {4.99217,5.03242,0,dx0};
Point (70) = {4.99166,5.03191,0,dx0};
Point (71) = {4.99116,5.03136,0,dx0};
Point (72) = {4.99067,5.03079,0,dx0};
Point (73) = {4.99019,5.03019,0,dx0};
Point (74) = {4.98972,5.02955,0,dx0};
Point (75) = {4.98926,5.02889,0,dx0};
Point (76) = {4.98881,5.02820,0,dx0};
Point (77) = {4.98837,5.02748,0,dx0};
Point (78) = {4.98794,5.02673,0,dx0};
Point (79) = {4.98753,5.02595,0,dx0};
Point (80) = {4.98712,5.02515,0,dx0};
Point (81) = {4.98673,5.02433,0,dx0};
Point (82) = {4.98635,5.02348,0,dx0};
Point (83) = {4.98599,5.02260,0,dx0};
Point (84) = {4.98564,5.02171,0,dx0};
Point (85) = {4.98531,5.02079,0,dx0};
Point (86) = {4.98498,5.01985,0,dx0};
Point (87) = {4.98468,5.01889,0,dx0};
Point (88) = {4.98439,5.01792,0,dx0};
Point (89) = {4.98411,5.01692,0,dx0};
Point (90) = {4.98385,5.01591,0,dx0};
Point (91) = {4.98361,5.01488,0,dx0};
Point (92) = {4.98338,5.01384,0,dx0};
Point (93) = {4.98317,5.01279,0,dx0};
Point (94) = {4.98298,5.01172,0,dx0};
Point (95) = {4.98280,5.01064,0,dx0};
Point (96) = {4.98264,5.00955,0,dx0};
Point (97) = {4.98250,5.00845,0,dx0};
Point (98) = {4.98238,5.00734,0,dx0};
Point (99) = {4.98227,5.00622,0,dx0};
Point (100) = {4.98218,5.00510,0,dx0};
Point (101) = {4.98211,5.00397,0,dx0};
Point (102) = {4.98206,5.00284,0,dx0};
Point (103) = {4.98202,5.00170,0,dx0};
Point (104) = {4.98200,5.00057,0,dx0};
Point (105) = {4.98200,4.99943,0,dx0};
Point (106) = {4.98202,4.99830,0,dx0};
Point (107) = {4.98206,4.99716,0,dx0};
Point (108) = {4.98211,4.99603,0,dx0};
Point (109) = {4.98218,4.99490,0,dx0};
Point (110) = {4.98227,4.99378,0,dx0};
Point (111) = {4.98238,4.99266,0,dx0};
Point (112) = {4.98250,4.99155,0,dx0};
Point (113) = {4.98264,4.99045,0,dx0};
Point (114) = {4.98280,4.98936,0,dx0};
Point (115) = {4.98298,4.98828,0,dx0};
Point (116) = {4.98317,4.98721,0,dx0};
Point (117) = {4.98338,4.98616,0,dx0};
Point (118) = {4.98361,4.98512,0,dx0};
Point (119) = {4.98385,4.98409,0,dx0};
Point (120) = {4.98411,4.98308,0,dx0};
Point (121) = {4.98439,4.98208,0,dx0};
Point (122) = {4.98468,4.98111,0,dx0};
Point (123) = {4.98498,4.98015,0,dx0};
Point (124) = {4.98531,4.97921,0,dx0};
Point (125) = {4.98564,4.97829,0,dx0};
Point (126) = {4.98599,4.97740,0,dx0};
Point (127) = {4.98635,4.97652,0,dx0};
Point (128) = {4.98673,4.97567,0,dx0};
Point (129) = {4.98712,4.97485,0,dx0};
Point (130) = {4.98753,4.97405,0,dx0};
Point (131) = {4.98794,4.97327,0,dx0};
Point (132) = {4.98837,4.97252,0,dx0};
Point (133) = {4.98881,4.97180,0,dx0};
Point (134) = {4.98926,4.97111,0,dx0};
Point (135) = {4.98972,4.97045,0,dx0};
Point (136) = {4.99019,4.96981,0,dx0};
Point (137) = {4.99067,4.96921,0,dx0};
Point (138) = {4.99116,4.96864,0,dx0};
Point (139) = {4.99166,4.96809,0,dx0};
Point (140) = {4.99217,4.96758,0,dx0};
Point (141) = {4.99269,4.96710,0,dx0};
Point (142) = {4.99321,4.96666,0,dx0};
Point (143) = {4.99374,4.96625,0,dx0};
Point (144) = {4.99428,4.96587,0,dx0};
Point (145) = {4.99482,4.96552,0,dx0};
Point (146) = {4.99536,4.96521,0,dx0};
Point (147) = {4.99592,4.96494,0,dx0};
Point (148) = {4.99647,4.96470,0,dx0};
Point (149) = {4.99703,4.96449,0,dx0};
Point (150) = {4.99759,4.96432,0,dx0};
Point (151) = {4.99816,4.96419,0,dx0};
Point (152) = {4.99872,4.96409,0,dx0};
Point (153) = {4.99929,4.96403,0,dx0};
Point (154) = {4.99986,4.96400,0,dx0};
Point (155) = {5.00043,4.96401,0,dx0};
Point (156) = {5.00099,4.96405,0,dx0};
Point (157) = {5.00156,4.96414,0,dx0};
Point (158) = {5.00213,4.96425,0,dx0};
Point (159) = {5.00269,4.96440,0,dx0};
Point (160) = {5.00325,4.96459,0,dx0};
Point (161) = {5.00381,4.96481,0,dx0};
Point (162) = {5.00436,4.96507,0,dx0};
Point (163) = {5.00491,4.96537,0,dx0};
Point (164) = {5.00545,4.96569,0,dx0};
Point (165) = {5.00599,4.96605,0,dx0};
Point (166) = {5.00653,4.96645,0,dx0};
Point (167) = {5.00705,4.96688,0,dx0};
Point (168) = {5.00757,4.96734,0,dx0};
Point (169) = {5.00808,4.96783,0,dx0};
Point (170) = {5.00859,4.96836,0,dx0};
Point (171) = {5.00908,4.96892,0,dx0};
Point (172) = {5.00957,4.96951,0,dx0};
Point (173) = {5.01004,4.97013,0,dx0};
Point (174) = {5.01051,4.97078,0,dx0};
Point (175) = {5.01097,4.97145,0,dx0};
Point (176) = {5.01141,4.97216,0,dx0};
Point (177) = {5.01185,4.97289,0,dx0};
Point (178) = {5.01227,4.97366,0,dx0};
Point (179) = {5.01268,4.97444,0,dx0};
Point (180) = {5.01307,4.97526,0,dx0};
Point (181) = {5.01346,4.97609,0,dx0};
Point (182) = {5.01383,4.97696,0,dx0};
Point (183) = {5.01419,4.97784,0,dx0};
Point (184) = {5.01453,4.97875,0,dx0};
Point (185) = {5.01486,4.97968,0,dx0};
Point (186) = {5.01517,4.98062,0,dx0};
Point (187) = {5.01547,4.98159,0,dx0};
Point (188) = {5.01575,4.98258,0,dx0};
Point (189) = {5.01602,4.98358,0,dx0};
Point (190) = {5.01627,4.98460,0,dx0};
Point (191) = {5.01650,4.98563,0,dx0};
Point (192) = {5.01672,4.98668,0,dx0};
Point (193) = {5.01693,4.98775,0,dx0};
Point (194) = {5.01711,4.98882,0,dx0};
Point (195) = {5.01728,4.98991,0,dx0};
Point (196) = {5.01743,4.99100,0,dx0};
Point (197) = {5.01756,4.99211,0,dx0};
Point (198) = {5.01768,4.99322,0,dx0};
Point (199) = {5.01778,4.99434,0,dx0};
Point (200) = {5.01786,4.99547,0,dx0};
Point (201) = {5.01792,4.99660,0,dx0};
Point (202) = {5.01796,4.99773,0,dx0};
Point (203) = {5.01799,4.99886,0,dx0};
Point (204) = {5.01800,5.00000,0,dx0};
//+
BSpline(5)={5,6,7,8,9,10,11,12,13,14,15,16,17,18,19,20,21,22,23,24,25,26,27,28,29,30,31,32,33,34,35,36,37,38,39,40,41,42,43,44,45,46,47,48,49,50,51,52,53,54,55,56,57,58,59,60,61,62,63,64,65,66,67,68,69,70,71,72,73,74,75,76,77,78,79,80,81,82,83,84,85,86,87,88,89,90,91,92,93,94,95,96,97,98,99,100,101,102,103,104,105,106,107,108,109,110,111,112,113,114,115,116,117,118,119,120,121,122,123,124,125,126,127,128,129,130,131,132,133,134,135,136,137,138,139,140,141,142,143,144,145,146,147,148,149,150,151,152,153,154,155,156,157,158,159,160,161,162,163,164,165,166,167,168,169,170,171,172,173,174,175,176,177,178,179,180,181,182,183,184,185,186,187,188,189,190,191,192,193,194,195,196,197,198,199,200,201,202,203,204,5};
//+
Curve Loop(1) = {4, 1, 2, 3};
//+
Curve Loop(2) = {5};
//+
Plane Surface(1) = {1, 2};
//+
Plane Surface(2) = {2};
//+
Physical Curve("HV") = {4};
//+
Physical Curve("GE") = {2};
//+
Physical Curve("wall") = {3, 1};
//+
Physical Surface("rock") = {1};
//+
Physical Surface("pore") = {2};
