w   = 1;      // m
h   = 1;      // m
dx0 = 0.032;     // m
dx1 = 0.05;   // m
Point(1) = {0, 0, 0, dx1};
Point(2) = {w, 0, 0, dx1};
Point(3) = {w, h, 0, dx1};
Point(4) = {0, h, 0, dx1};
//+
Line(1) = {1, 2};
//+
Line(2) = {2, 3};
//+
Line(3) = {3, 4};
//+
Line(4) = {4, 1};
//+
Point (5) = {0.81539,0.50000,0,dx0};
Point (6) = {0.81523,0.50637,0,dx0};
Point (7) = {0.81476,0.51274,0,dx0};
Point (8) = {0.81398,0.51909,0,dx0};
Point (9) = {0.81288,0.52543,0,dx0};
Point (10) = {0.81147,0.53173,0,dx0};
Point (11) = {0.80975,0.53801,0,dx0};
Point (12) = {0.80772,0.54425,0,dx0};
Point (13) = {0.80538,0.55045,0,dx0};
Point (14) = {0.80274,0.55659,0,dx0};
Point (15) = {0.79980,0.56268,0,dx0};
Point (16) = {0.79656,0.56870,0,dx0};
Point (17) = {0.79302,0.57466,0,dx0};
Point (18) = {0.78919,0.58054,0,dx0};
Point (19) = {0.78508,0.58635,0,dx0};
Point (20) = {0.78068,0.59206,0,dx0};
Point (21) = {0.77600,0.59769,0,dx0};
Point (22) = {0.77104,0.60322,0,dx0};
Point (23) = {0.76581,0.60864,0,dx0};
Point (24) = {0.76032,0.61396,0,dx0};
Point (25) = {0.75457,0.61916,0,dx0};
Point (26) = {0.74857,0.62424,0,dx0};
Point (27) = {0.74231,0.62920,0,dx0};
Point (28) = {0.73582,0.63404,0,dx0};
Point (29) = {0.72909,0.63873,0,dx0};
Point (30) = {0.72213,0.64329,0,dx0};
Point (31) = {0.71495,0.64771,0,dx0};
Point (32) = {0.70756,0.65198,0,dx0};
Point (33) = {0.69996,0.65610,0,dx0};
Point (34) = {0.69216,0.66006,0,dx0};
Point (35) = {0.68417,0.66386,0,dx0};
Point (36) = {0.67600,0.66750,0,dx0};
Point (37) = {0.66765,0.67097,0,dx0};
Point (38) = {0.65913,0.67427,0,dx0};
Point (39) = {0.65046,0.67740,0,dx0};
Point (40) = {0.64163,0.68035,0,dx0};
Point (41) = {0.63266,0.68313,0,dx0};
Point (42) = {0.62356,0.68571,0,dx0};
Point (43) = {0.61434,0.68812,0,dx0};
Point (44) = {0.60501,0.69033,0,dx0};
Point (45) = {0.59557,0.69236,0,dx0};
Point (46) = {0.58603,0.69420,0,dx0};
Point (47) = {0.57641,0.69584,0,dx0};
Point (48) = {0.56671,0.69728,0,dx0};
Point (49) = {0.55695,0.69853,0,dx0};
Point (50) = {0.54712,0.69958,0,dx0};
Point (51) = {0.53726,0.70044,0,dx0};
Point (52) = {0.52735,0.70109,0,dx0};
Point (53) = {0.51742,0.70154,0,dx0};
Point (54) = {0.50747,0.70179,0,dx0};
Point (55) = {0.49751,0.70184,0,dx0};
Point (56) = {0.48756,0.70169,0,dx0};
Point (57) = {0.47761,0.70134,0,dx0};
Point (58) = {0.46769,0.70079,0,dx0};
Point (59) = {0.45780,0.70004,0,dx0};
Point (60) = {0.44796,0.69908,0,dx0};
Point (61) = {0.43816,0.69793,0,dx0};
Point (62) = {0.42843,0.69659,0,dx0};
Point (63) = {0.41877,0.69504,0,dx0};
Point (64) = {0.40919,0.69330,0,dx0};
Point (65) = {0.39970,0.69137,0,dx0};
Point (66) = {0.39031,0.68925,0,dx0};
Point (67) = {0.38103,0.68694,0,dx0};
Point (68) = {0.37187,0.68444,0,dx0};
Point (69) = {0.36284,0.68176,0,dx0};
Point (70) = {0.35394,0.67890,0,dx0};
Point (71) = {0.34519,0.67586,0,dx0};
Point (72) = {0.33659,0.67264,0,dx0};
Point (73) = {0.32816,0.66926,0,dx0};
Point (74) = {0.31989,0.66570,0,dx0};
Point (75) = {0.31181,0.66198,0,dx0};
Point (76) = {0.30391,0.65810,0,dx0};
Point (77) = {0.29621,0.65406,0,dx0};
Point (78) = {0.28872,0.64986,0,dx0};
Point (79) = {0.28143,0.64552,0,dx0};
Point (80) = {0.27436,0.64103,0,dx0};
Point (81) = {0.26752,0.63640,0,dx0};
Point (82) = {0.26090,0.63164,0,dx0};
Point (83) = {0.25453,0.62674,0,dx0};
Point (84) = {0.24840,0.62172,0,dx0};
Point (85) = {0.24252,0.61657,0,dx0};
Point (86) = {0.23690,0.61131,0,dx0};
Point (87) = {0.23154,0.60594,0,dx0};
Point (88) = {0.22645,0.60047,0,dx0};
Point (89) = {0.22163,0.59489,0,dx0};
Point (90) = {0.21709,0.58922,0,dx0};
Point (91) = {0.21283,0.58346,0,dx0};
Point (92) = {0.20885,0.57761,0,dx0};
Point (93) = {0.20517,0.57169,0,dx0};
Point (94) = {0.20178,0.56570,0,dx0};
Point (95) = {0.19869,0.55964,0,dx0};
Point (96) = {0.19590,0.55352,0,dx0};
Point (97) = {0.19341,0.54735,0,dx0};
Point (98) = {0.19123,0.54114,0,dx0};
Point (99) = {0.18935,0.53488,0,dx0};
Point (100) = {0.18779,0.52858,0,dx0};
Point (101) = {0.18653,0.52226,0,dx0};
Point (102) = {0.18559,0.51592,0,dx0};
Point (103) = {0.18496,0.50956,0,dx0};
Point (104) = {0.18465,0.50319,0,dx0};
Point (105) = {0.18465,0.49681,0,dx0};
Point (106) = {0.18496,0.49044,0,dx0};
Point (107) = {0.18559,0.48408,0,dx0};
Point (108) = {0.18653,0.47774,0,dx0};
Point (109) = {0.18779,0.47142,0,dx0};
Point (110) = {0.18935,0.46512,0,dx0};
Point (111) = {0.19123,0.45886,0,dx0};
Point (112) = {0.19341,0.45265,0,dx0};
Point (113) = {0.19590,0.44648,0,dx0};
Point (114) = {0.19869,0.44036,0,dx0};
Point (115) = {0.20178,0.43430,0,dx0};
Point (116) = {0.20517,0.42831,0,dx0};
Point (117) = {0.20885,0.42239,0,dx0};
Point (118) = {0.21283,0.41654,0,dx0};
Point (119) = {0.21709,0.41078,0,dx0};
Point (120) = {0.22163,0.40511,0,dx0};
Point (121) = {0.22645,0.39953,0,dx0};
Point (122) = {0.23154,0.39406,0,dx0};
Point (123) = {0.23690,0.38869,0,dx0};
Point (124) = {0.24252,0.38343,0,dx0};
Point (125) = {0.24840,0.37828,0,dx0};
Point (126) = {0.25453,0.37326,0,dx0};
Point (127) = {0.26090,0.36836,0,dx0};
Point (128) = {0.26752,0.36360,0,dx0};
Point (129) = {0.27436,0.35897,0,dx0};
Point (130) = {0.28143,0.35448,0,dx0};
Point (131) = {0.28872,0.35014,0,dx0};
Point (132) = {0.29621,0.34594,0,dx0};
Point (133) = {0.30391,0.34190,0,dx0};
Point (134) = {0.31181,0.33802,0,dx0};
Point (135) = {0.31989,0.33430,0,dx0};
Point (136) = {0.32816,0.33074,0,dx0};
Point (137) = {0.33659,0.32736,0,dx0};
Point (138) = {0.34519,0.32414,0,dx0};
Point (139) = {0.35394,0.32110,0,dx0};
Point (140) = {0.36284,0.31824,0,dx0};
Point (141) = {0.37187,0.31556,0,dx0};
Point (142) = {0.38103,0.31306,0,dx0};
Point (143) = {0.39031,0.31075,0,dx0};
Point (144) = {0.39970,0.30863,0,dx0};
Point (145) = {0.40919,0.30670,0,dx0};
Point (146) = {0.41877,0.30496,0,dx0};
Point (147) = {0.42843,0.30341,0,dx0};
Point (148) = {0.43816,0.30207,0,dx0};
Point (149) = {0.44796,0.30092,0,dx0};
Point (150) = {0.45780,0.29996,0,dx0};
Point (151) = {0.46769,0.29921,0,dx0};
Point (152) = {0.47761,0.29866,0,dx0};
Point (153) = {0.48756,0.29831,0,dx0};
Point (154) = {0.49751,0.29816,0,dx0};
Point (155) = {0.50747,0.29821,0,dx0};
Point (156) = {0.51742,0.29846,0,dx0};
Point (157) = {0.52735,0.29891,0,dx0};
Point (158) = {0.53726,0.29956,0,dx0};
Point (159) = {0.54712,0.30042,0,dx0};
Point (160) = {0.55695,0.30147,0,dx0};
Point (161) = {0.56671,0.30272,0,dx0};
Point (162) = {0.57641,0.30416,0,dx0};
Point (163) = {0.58603,0.30580,0,dx0};
Point (164) = {0.59557,0.30764,0,dx0};
Point (165) = {0.60501,0.30967,0,dx0};
Point (166) = {0.61434,0.31188,0,dx0};
Point (167) = {0.62356,0.31429,0,dx0};
Point (168) = {0.63266,0.31687,0,dx0};
Point (169) = {0.64163,0.31965,0,dx0};
Point (170) = {0.65046,0.32260,0,dx0};
Point (171) = {0.65913,0.32573,0,dx0};
Point (172) = {0.66765,0.32903,0,dx0};
Point (173) = {0.67600,0.33250,0,dx0};
Point (174) = {0.68417,0.33614,0,dx0};
Point (175) = {0.69216,0.33994,0,dx0};
Point (176) = {0.69996,0.34390,0,dx0};
Point (177) = {0.70756,0.34802,0,dx0};
Point (178) = {0.71495,0.35229,0,dx0};
Point (179) = {0.72213,0.35671,0,dx0};
Point (180) = {0.72909,0.36127,0,dx0};
Point (181) = {0.73582,0.36596,0,dx0};
Point (182) = {0.74231,0.37080,0,dx0};
Point (183) = {0.74857,0.37576,0,dx0};
Point (184) = {0.75457,0.38084,0,dx0};
Point (185) = {0.76032,0.38604,0,dx0};
Point (186) = {0.76581,0.39136,0,dx0};
Point (187) = {0.77104,0.39678,0,dx0};
Point (188) = {0.77600,0.40231,0,dx0};
Point (189) = {0.78068,0.40794,0,dx0};
Point (190) = {0.78508,0.41365,0,dx0};
Point (191) = {0.78919,0.41946,0,dx0};
Point (192) = {0.79302,0.42534,0,dx0};
Point (193) = {0.79656,0.43130,0,dx0};
Point (194) = {0.79980,0.43732,0,dx0};
Point (195) = {0.80274,0.44341,0,dx0};
Point (196) = {0.80538,0.44955,0,dx0};
Point (197) = {0.80772,0.45575,0,dx0};
Point (198) = {0.80975,0.46199,0,dx0};
Point (199) = {0.81147,0.46827,0,dx0};
Point (200) = {0.81288,0.47457,0,dx0};
Point (201) = {0.81398,0.48091,0,dx0};
Point (202) = {0.81476,0.48726,0,dx0};
Point (203) = {0.81523,0.49363,0,dx0};
Point (204) = {0.81539,0.50000,0,dx0};
//+ 
BSpline(5)={5,6,7,8,9,10,11,12,13,14,15,16,17,18,19,20,21,22,23,24,25,26,27,28,29,30,31,32,33,34,35,36,37,38,39,40,41,42,43,44,45,46,47,48,49,50,51,52,53,54,55,56,57,58,59,60,61,62,63,64,65,66,67,68,69,70,71,72,73,74,75,76,77,78,79,80,81,82,83,84,85,86,87,88,89,90,91,92,93,94,95,96,97,98,99,100,101,102,103,104,105,106,107,108,109,110,111,112,113,114,115,116,117,118,119,120,121,122,123,124,125,126,127,128,129,130,131,132,133,134,135,136,137,138,139,140,141,142,143,144,145,146,147,148,149,150,151,152,153,154,155,156,157,158,159,160,161,162,163,164,165,166,167,168,169,170,171,172,173,174,175,176,177,178,179,180,181,182,183,184,185,186,187,188,189,190,191,192,193,194,195,196,197,198,199,200,201,202,203,204,5};

//+
Curve Loop(1) = {4, 1, 2, 3};
//+
Curve Loop(2) = {5};
//+
Plane Surface(1) = {1, 2};
//+
Plane Surface(2) = {2};
//+
Physical Curve("HV") = {4};
//+
Physical Curve("GE") = {2};
//+
Physical Curve("wall") = {3, 1};
//+
Physical Surface("rock") = {1};
//+
Physical Surface("pore") = {2};
