w   = 1;      // m
h   = 1;      // m
dx0 = 0.022;     // m
dx1 = 0.05;   // m
Point(1) = {0, 0, 0, dx1};
Point(2) = {w, 0, 0, dx1};
Point(3) = {w, h, 0, dx1};
Point(4) = {0, h, 0, dx1};
//+
Line(1) = {1, 2};
//+
Line(2) = {2, 3};
//+
Line(3) = {3, 4};
//+
Line(4) = {4, 1};
//+
Point (5) = {0.72302,0.50000,0,dx0};
Point (6) = {0.72290,0.50451,0,dx0};
Point (7) = {0.72257,0.50901,0,dx0};
Point (8) = {0.72202,0.51350,0,dx0};
Point (9) = {0.72124,0.51798,0,dx0};
Point (10) = {0.72024,0.52244,0,dx0};
Point (11) = {0.71903,0.52688,0,dx0};
Point (12) = {0.71759,0.53129,0,dx0};
Point (13) = {0.71594,0.53567,0,dx0};
Point (14) = {0.71407,0.54002,0,dx0};
Point (15) = {0.71199,0.54432,0,dx0};
Point (16) = {0.70970,0.54858,0,dx0};
Point (17) = {0.70720,0.55279,0,dx0};
Point (18) = {0.70449,0.55695,0,dx0};
Point (19) = {0.70158,0.56106,0,dx0};
Point (20) = {0.69847,0.56510,0,dx0};
Point (21) = {0.69516,0.56908,0,dx0};
Point (22) = {0.69165,0.57298,0,dx0};
Point (23) = {0.68796,0.57682,0,dx0};
Point (24) = {0.68407,0.58058,0,dx0};
Point (25) = {0.68001,0.58426,0,dx0};
Point (26) = {0.67576,0.58785,0,dx0};
Point (27) = {0.67134,0.59136,0,dx0};
Point (28) = {0.66675,0.59478,0,dx0};
Point (29) = {0.66199,0.59810,0,dx0};
Point (30) = {0.65707,0.60132,0,dx0};
Point (31) = {0.65200,0.60445,0,dx0};
Point (32) = {0.64677,0.60746,0,dx0};
Point (33) = {0.64139,0.61038,0,dx0};
Point (34) = {0.63588,0.61318,0,dx0};
Point (35) = {0.63023,0.61587,0,dx0};
Point (36) = {0.62445,0.61844,0,dx0};
Point (37) = {0.61854,0.62090,0,dx0};
Point (38) = {0.61252,0.62323,0,dx0};
Point (39) = {0.60639,0.62544,0,dx0};
Point (40) = {0.60015,0.62753,0,dx0};
Point (41) = {0.59381,0.62949,0,dx0};
Point (42) = {0.58737,0.63132,0,dx0};
Point (43) = {0.58085,0.63302,0,dx0};
Point (44) = {0.57425,0.63459,0,dx0};
Point (45) = {0.56757,0.63602,0,dx0};
Point (46) = {0.56083,0.63732,0,dx0};
Point (47) = {0.55403,0.63848,0,dx0};
Point (48) = {0.54717,0.63950,0,dx0};
Point (49) = {0.54027,0.64038,0,dx0};
Point (50) = {0.53332,0.64113,0,dx0};
Point (51) = {0.52634,0.64173,0,dx0};
Point (52) = {0.51934,0.64219,0,dx0};
Point (53) = {0.51232,0.64251,0,dx0};
Point (54) = {0.50528,0.64269,0,dx0};
Point (55) = {0.49824,0.64273,0,dx0};
Point (56) = {0.49120,0.64262,0,dx0};
Point (57) = {0.48417,0.64237,0,dx0};
Point (58) = {0.47716,0.64198,0,dx0};
Point (59) = {0.47016,0.64145,0,dx0};
Point (60) = {0.46320,0.64077,0,dx0};
Point (61) = {0.45628,0.63996,0,dx0};
Point (62) = {0.44939,0.63901,0,dx0};
Point (63) = {0.44256,0.63792,0,dx0};
Point (64) = {0.43579,0.63669,0,dx0};
Point (65) = {0.42908,0.63532,0,dx0};
Point (66) = {0.42244,0.63382,0,dx0};
Point (67) = {0.41588,0.63219,0,dx0};
Point (68) = {0.40940,0.63042,0,dx0};
Point (69) = {0.40301,0.62853,0,dx0};
Point (70) = {0.39672,0.62650,0,dx0};
Point (71) = {0.39053,0.62435,0,dx0};
Point (72) = {0.38445,0.62208,0,dx0};
Point (73) = {0.37849,0.61968,0,dx0};
Point (74) = {0.37264,0.61717,0,dx0};
Point (75) = {0.36693,0.61454,0,dx0};
Point (76) = {0.36135,0.61179,0,dx0};
Point (77) = {0.35590,0.60893,0,dx0};
Point (78) = {0.35060,0.60597,0,dx0};
Point (79) = {0.34545,0.60290,0,dx0};
Point (80) = {0.34045,0.59972,0,dx0};
Point (81) = {0.33561,0.59645,0,dx0};
Point (82) = {0.33093,0.59308,0,dx0};
Point (83) = {0.32643,0.58962,0,dx0};
Point (84) = {0.32209,0.58607,0,dx0};
Point (85) = {0.31794,0.58243,0,dx0};
Point (86) = {0.31396,0.57871,0,dx0};
Point (87) = {0.31017,0.57491,0,dx0};
Point (88) = {0.30657,0.57104,0,dx0};
Point (89) = {0.30316,0.56710,0,dx0};
Point (90) = {0.29995,0.56309,0,dx0};
Point (91) = {0.29694,0.55901,0,dx0};
Point (92) = {0.29413,0.55488,0,dx0};
Point (93) = {0.29152,0.55069,0,dx0};
Point (94) = {0.28913,0.54646,0,dx0};
Point (95) = {0.28694,0.54217,0,dx0};
Point (96) = {0.28497,0.53785,0,dx0};
Point (97) = {0.28321,0.53348,0,dx0};
Point (98) = {0.28166,0.52909,0,dx0};
Point (99) = {0.28034,0.52466,0,dx0};
Point (100) = {0.27923,0.52021,0,dx0};
Point (101) = {0.27834,0.51574,0,dx0};
Point (102) = {0.27768,0.51125,0,dx0};
Point (103) = {0.27723,0.50676,0,dx0};
Point (104) = {0.27701,0.50225,0,dx0};
Point (105) = {0.27701,0.49775,0,dx0};
Point (106) = {0.27723,0.49324,0,dx0};
Point (107) = {0.27768,0.48875,0,dx0};
Point (108) = {0.27834,0.48426,0,dx0};
Point (109) = {0.27923,0.47979,0,dx0};
Point (110) = {0.28034,0.47534,0,dx0};
Point (111) = {0.28166,0.47091,0,dx0};
Point (112) = {0.28321,0.46652,0,dx0};
Point (113) = {0.28497,0.46215,0,dx0};
Point (114) = {0.28694,0.45783,0,dx0};
Point (115) = {0.28913,0.45354,0,dx0};
Point (116) = {0.29152,0.44931,0,dx0};
Point (117) = {0.29413,0.44512,0,dx0};
Point (118) = {0.29694,0.44099,0,dx0};
Point (119) = {0.29995,0.43691,0,dx0};
Point (120) = {0.30316,0.43290,0,dx0};
Point (121) = {0.30657,0.42896,0,dx0};
Point (122) = {0.31017,0.42509,0,dx0};
Point (123) = {0.31396,0.42129,0,dx0};
Point (124) = {0.31794,0.41757,0,dx0};
Point (125) = {0.32209,0.41393,0,dx0};
Point (126) = {0.32643,0.41038,0,dx0};
Point (127) = {0.33093,0.40692,0,dx0};
Point (128) = {0.33561,0.40355,0,dx0};
Point (129) = {0.34045,0.40028,0,dx0};
Point (130) = {0.34545,0.39710,0,dx0};
Point (131) = {0.35060,0.39403,0,dx0};
Point (132) = {0.35590,0.39107,0,dx0};
Point (133) = {0.36135,0.38821,0,dx0};
Point (134) = {0.36693,0.38546,0,dx0};
Point (135) = {0.37264,0.38283,0,dx0};
Point (136) = {0.37849,0.38032,0,dx0};
Point (137) = {0.38445,0.37792,0,dx0};
Point (138) = {0.39053,0.37565,0,dx0};
Point (139) = {0.39672,0.37350,0,dx0};
Point (140) = {0.40301,0.37147,0,dx0};
Point (141) = {0.40940,0.36958,0,dx0};
Point (142) = {0.41588,0.36781,0,dx0};
Point (143) = {0.42244,0.36618,0,dx0};
Point (144) = {0.42908,0.36468,0,dx0};
Point (145) = {0.43579,0.36331,0,dx0};
Point (146) = {0.44256,0.36208,0,dx0};
Point (147) = {0.44939,0.36099,0,dx0};
Point (148) = {0.45628,0.36004,0,dx0};
Point (149) = {0.46320,0.35923,0,dx0};
Point (150) = {0.47016,0.35855,0,dx0};
Point (151) = {0.47716,0.35802,0,dx0};
Point (152) = {0.48417,0.35763,0,dx0};
Point (153) = {0.49120,0.35738,0,dx0};
Point (154) = {0.49824,0.35727,0,dx0};
Point (155) = {0.50528,0.35731,0,dx0};
Point (156) = {0.51232,0.35749,0,dx0};
Point (157) = {0.51934,0.35781,0,dx0};
Point (158) = {0.52634,0.35827,0,dx0};
Point (159) = {0.53332,0.35887,0,dx0};
Point (160) = {0.54027,0.35962,0,dx0};
Point (161) = {0.54717,0.36050,0,dx0};
Point (162) = {0.55403,0.36152,0,dx0};
Point (163) = {0.56083,0.36268,0,dx0};
Point (164) = {0.56757,0.36398,0,dx0};
Point (165) = {0.57425,0.36541,0,dx0};
Point (166) = {0.58085,0.36698,0,dx0};
Point (167) = {0.58737,0.36868,0,dx0};
Point (168) = {0.59381,0.37051,0,dx0};
Point (169) = {0.60015,0.37247,0,dx0};
Point (170) = {0.60639,0.37456,0,dx0};
Point (171) = {0.61252,0.37677,0,dx0};
Point (172) = {0.61854,0.37910,0,dx0};
Point (173) = {0.62445,0.38156,0,dx0};
Point (174) = {0.63023,0.38413,0,dx0};
Point (175) = {0.63588,0.38682,0,dx0};
Point (176) = {0.64139,0.38962,0,dx0};
Point (177) = {0.64677,0.39254,0,dx0};
Point (178) = {0.65200,0.39555,0,dx0};
Point (179) = {0.65707,0.39868,0,dx0};
Point (180) = {0.66199,0.40190,0,dx0};
Point (181) = {0.66675,0.40522,0,dx0};
Point (182) = {0.67134,0.40864,0,dx0};
Point (183) = {0.67576,0.41215,0,dx0};
Point (184) = {0.68001,0.41574,0,dx0};
Point (185) = {0.68407,0.41942,0,dx0};
Point (186) = {0.68796,0.42318,0,dx0};
Point (187) = {0.69165,0.42702,0,dx0};
Point (188) = {0.69516,0.43092,0,dx0};
Point (189) = {0.69847,0.43490,0,dx0};
Point (190) = {0.70158,0.43894,0,dx0};
Point (191) = {0.70449,0.44305,0,dx0};
Point (192) = {0.70720,0.44721,0,dx0};
Point (193) = {0.70970,0.45142,0,dx0};
Point (194) = {0.71199,0.45568,0,dx0};
Point (195) = {0.71407,0.45998,0,dx0};
Point (196) = {0.71594,0.46433,0,dx0};
Point (197) = {0.71759,0.46871,0,dx0};
Point (198) = {0.71903,0.47312,0,dx0};
Point (199) = {0.72024,0.47756,0,dx0};
Point (200) = {0.72124,0.48202,0,dx0};
Point (201) = {0.72202,0.48650,0,dx0};
Point (202) = {0.72257,0.49099,0,dx0};
Point (203) = {0.72290,0.49549,0,dx0};
Point (204) = {0.72302,0.50000,0,dx0};
//+ 
BSpline(5)={5,6,7,8,9,10,11,12,13,14,15,16,17,18,19,20,21,22,23,24,25,26,27,28,29,30,31,32,33,34,35,36,37,38,39,40,41,42,43,44,45,46,47,48,49,50,51,52,53,54,55,56,57,58,59,60,61,62,63,64,65,66,67,68,69,70,71,72,73,74,75,76,77,78,79,80,81,82,83,84,85,86,87,88,89,90,91,92,93,94,95,96,97,98,99,100,101,102,103,104,105,106,107,108,109,110,111,112,113,114,115,116,117,118,119,120,121,122,123,124,125,126,127,128,129,130,131,132,133,134,135,136,137,138,139,140,141,142,143,144,145,146,147,148,149,150,151,152,153,154,155,156,157,158,159,160,161,162,163,164,165,166,167,168,169,170,171,172,173,174,175,176,177,178,179,180,181,182,183,184,185,186,187,188,189,190,191,192,193,194,195,196,197,198,199,200,201,202,203,204,5};

//+
Curve Loop(1) = {4, 1, 2, 3};
//+
Curve Loop(2) = {5};
//+
Plane Surface(1) = {1, 2};
//+
Plane Surface(2) = {2};
//+
Physical Curve("HV") = {4};
//+
Physical Curve("GE") = {2};
//+
Physical Curve("wall") = {3, 1};
//+
Physical Surface("rock") = {1};
//+
Physical Surface("pore") = {2};
