$MeshFormat
4.1 0 8
$EndMeshFormat
$PhysicalNames
5
1 1 "HV"
1 2 "GE"
1 3 "wall"
2 4 "rock"
2 5 "pore"
$EndPhysicalNames
$Entities
204 5 2 0
1 0 0 0 0 
2 1 0 0 0 
3 1 1 0 0 
4 0 1 0 0 
5 0.752 0.5 0 0 
6 0.75187 0.50398 0 0 
7 0.7514999999999999 0.50795 0 0 
8 0.75087 0.51192 0 0 
9 0.74999 0.5158700000000001 0 0 
10 0.74887 0.51981 0 0 
11 0.74749 0.52373 0 0 
12 0.74587 0.52762 0 0 
13 0.744 0.53149 0 0 
14 0.74189 0.53532 0 0 
15 0.73954 0.53913 0 0 
16 0.73695 0.54289 0 0 
17 0.7341299999999999 0.54661 0 0 
18 0.73107 0.55028 0 0 
19 0.72778 0.5538999999999999 0 0 
20 0.72426 0.55747 0 0 
21 0.72052 0.56098 0 0 
22 0.71656 0.56443 0 0 
23 0.71239 0.56782 0 0 
24 0.708 0.57113 0 0 
25 0.7034 0.57438 0 0 
26 0.69861 0.57756 0 0 
27 0.6936099999999999 0.58065 0 0 
28 0.68842 0.58367 0 0 
29 0.68305 0.5866 0 0 
30 0.67749 0.58945 0 0 
31 0.67175 0.5921999999999999 0 0 
32 0.66584 0.59487 0 0 
33 0.65977 0.59744 0 0 
34 0.65354 0.5999100000000001 0 0 
35 0.64715 0.60229 0 0 
36 0.64062 0.60456 0 0 
37 0.63395 0.60673 0 0 
38 0.62715 0.6087900000000001 0 0 
39 0.62021 0.6107399999999999 0 0 
40 0.61316 0.61258 0 0 
41 0.606 0.61431 0 0 
42 0.59873 0.61593 0 0 
43 0.59136 0.61743 0 0 
44 0.5839 0.61881 0 0 
45 0.57636 0.62008 0 0 
46 0.56874 0.62122 0 0 
47 0.56105 0.62225 0 0 
48 0.5533 0.62315 0 0 
49 0.5455 0.62393 0 0 
50 0.53765 0.62459 0 0 
51 0.52977 0.62512 0 0 
52 0.52185 0.62553 0 0 
53 0.51392 0.62581 0 0 
54 0.50597 0.62596 0 0 
55 0.49801 0.626 0 0 
56 0.49006 0.6259 0 0 
57 0.48211 0.62568 0 0 
58 0.47419 0.62534 0 0 
59 0.46629 0.62487 0 0 
60 0.45842 0.62427 0 0 
61 0.45059 0.62355 0 0 
62 0.44282 0.62271 0 0 
63 0.4351 0.62175 0 0 
64 0.42744 0.62066 0 0 
65 0.41986 0.61946 0 0 
66 0.41236 0.61813 0 0 
67 0.40494 0.61669 0 0 
68 0.39762 0.61513 0 0 
69 0.39041 0.61346 0 0 
70 0.3833 0.61167 0 0 
71 0.3763 0.60978 0 0 
72 0.36943 0.60777 0 0 
73 0.3627 0.60565 0 0 
74 0.35609 0.60343 0 0 
75 0.34963 0.60111 0 0 
76 0.34333 0.5986900000000001 0 0 
77 0.33717 0.59617 0 0 
78 0.33118 0.59355 0 0 
79 0.32536 0.59084 0 0 
80 0.31971 0.5880300000000001 0 0 
81 0.31424 0.58514 0 0 
82 0.30896 0.58217 0 0 
83 0.30387 0.57911 0 0 
84 0.29897 0.57598 0 0 
85 0.29427 0.57277 0 0 
86 0.28978 0.56948 0 0 
87 0.2855 0.56613 0 0 
88 0.28143 0.56271 0 0 
89 0.27758 0.55923 0 0 
90 0.27395 0.55569 0 0 
91 0.27055 0.5521 0 0 
92 0.26737 0.54845 0 0 
93 0.26443 0.54475 0 0 
94 0.26172 0.54101 0 0 
95 0.25925 0.53723 0 0 
96 0.25702 0.5334100000000001 0 0 
97 0.25503 0.52956 0 0 
98 0.25329 0.52568 0 0 
99 0.25179 0.52177 0 0 
100 0.25054 0.51784 0 0 
101 0.24954 0.5139 0 0 
102 0.24878 0.5099399999999999 0 0 
103 0.24828 0.50597 0 0 
104 0.24803 0.50199 0 0 
105 0.24803 0.49801 0 0 
106 0.24828 0.49403 0 0 
107 0.24878 0.49006 0 0 
108 0.24954 0.4861 0 0 
109 0.25054 0.48216 0 0 
110 0.25179 0.47823 0 0 
111 0.25329 0.47432 0 0 
112 0.25503 0.47044 0 0 
113 0.25702 0.46659 0 0 
114 0.25925 0.46277 0 0 
115 0.26172 0.45899 0 0 
116 0.26443 0.45525 0 0 
117 0.26737 0.45155 0 0 
118 0.27055 0.4479 0 0 
119 0.27395 0.44431 0 0 
120 0.27758 0.44077 0 0 
121 0.28143 0.43729 0 0 
122 0.2855 0.43387 0 0 
123 0.28978 0.43052 0 0 
124 0.29427 0.42723 0 0 
125 0.29897 0.42402 0 0 
126 0.30387 0.42089 0 0 
127 0.30896 0.41783 0 0 
128 0.31424 0.41486 0 0 
129 0.31971 0.41197 0 0 
130 0.32536 0.40916 0 0 
131 0.33118 0.40645 0 0 
132 0.33717 0.40383 0 0 
133 0.34333 0.40131 0 0 
134 0.34963 0.39889 0 0 
135 0.35609 0.39657 0 0 
136 0.3627 0.39435 0 0 
137 0.36943 0.39223 0 0 
138 0.3763 0.39022 0 0 
139 0.3833 0.38833 0 0 
140 0.39041 0.38654 0 0 
141 0.39762 0.38487 0 0 
142 0.40494 0.38331 0 0 
143 0.41236 0.38187 0 0 
144 0.41986 0.38054 0 0 
145 0.42744 0.37934 0 0 
146 0.4351 0.37825 0 0 
147 0.44282 0.37729 0 0 
148 0.45059 0.37645 0 0 
149 0.45842 0.37573 0 0 
150 0.46629 0.37513 0 0 
151 0.47419 0.37466 0 0 
152 0.48211 0.37432 0 0 
153 0.49006 0.3741 0 0 
154 0.49801 0.374 0 0 
155 0.50597 0.37404 0 0 
156 0.51392 0.37419 0 0 
157 0.52185 0.37447 0 0 
158 0.52977 0.37488 0 0 
159 0.53765 0.37541 0 0 
160 0.5455 0.37607 0 0 
161 0.5533 0.37685 0 0 
162 0.56105 0.37775 0 0 
163 0.56874 0.37878 0 0 
164 0.57636 0.37992 0 0 
165 0.5839 0.38119 0 0 
166 0.59136 0.38257 0 0 
167 0.59873 0.38407 0 0 
168 0.606 0.38569 0 0 
169 0.61316 0.38742 0 0 
170 0.62021 0.38926 0 0 
171 0.62715 0.39121 0 0 
172 0.63395 0.39327 0 0 
173 0.64062 0.39544 0 0 
174 0.64715 0.39771 0 0 
175 0.65354 0.40009 0 0 
176 0.65977 0.40256 0 0 
177 0.66584 0.40513 0 0 
178 0.67175 0.4078 0 0 
179 0.67749 0.41055 0 0 
180 0.68305 0.4134 0 0 
181 0.68842 0.41633 0 0 
182 0.6936099999999999 0.41935 0 0 
183 0.69861 0.42244 0 0 
184 0.7034 0.42562 0 0 
185 0.708 0.42887 0 0 
186 0.71239 0.43218 0 0 
187 0.71656 0.43557 0 0 
188 0.72052 0.43902 0 0 
189 0.72426 0.44253 0 0 
190 0.72778 0.4461 0 0 
191 0.73107 0.44972 0 0 
192 0.7341299999999999 0.45339 0 0 
193 0.73695 0.45711 0 0 
194 0.73954 0.46087 0 0 
195 0.74189 0.46468 0 0 
196 0.744 0.46851 0 0 
197 0.74587 0.47238 0 0 
198 0.74749 0.47627 0 0 
199 0.74887 0.48019 0 0 
200 0.74999 0.48413 0 0 
201 0.75087 0.48808 0 0 
202 0.7514999999999999 0.49205 0 0 
203 0.75187 0.49602 0 0 
204 0.752 0.5 0 0 
1 0 0 0 1 0 0 1 3 2 1 -2 
2 1 0 0 1 1 0 1 2 2 2 -3 
3 0 1 0 1 1 0 1 3 2 3 -4 
4 0 0 0 0 1 0 1 1 2 4 -1 
5 0.2620492569730224 0.3765085185185186 0 0.7519783333333332 0.6242180018289893 0 0 2 5 -5 
1 0 0 0 1 1 0 1 4 5 4 1 2 3 -5 
2 0.2620492569730224 0.3765085185185186 0 0.7519783333333332 0.6242180018289893 0 1 5 1 5 
$EndEntities
$Nodes
12 544 1 544
0 1 0 1
1
0 0 0
0 2 0 1
2
1 0 0
0 3 0 1
3
1 1 0
0 4 0 1
4
0 1 0
0 5 0 1
5
0.7519783333333332 0.5006633333333332 0
1 1 0 19
6
7
8
9
10
11
12
13
14
15
16
17
18
19
20
21
22
23
24
0.04999999999989965 0 0
0.09999999999981467 0 0
0.1499999999997036 0 0
0.1999999999995579 0 0
0.2499999999994121 0 0
0.2999999999992664 0 0
0.3499999999991206 0 0
0.3999999999989749 0 0
0.4499999999988292 0 0
0.4999999999986943 0 0
0.5499999999988151 0 0
0.5999999999989468 0 0
0.6499999999990784 0 0
0.69999999999921 0 0
0.7499999999993417 0 0
0.7999999999994734 0 0
0.8499999999996051 0 0
0.8999999999997368 0 0
0.9499999999998684 0 0
1 2 0 19
25
26
27
28
29
30
31
32
33
34
35
36
37
38
39
40
41
42
43
1 0.04999999999989965 0
1 0.09999999999981467 0
1 0.1499999999997036 0
1 0.1999999999995579 0
1 0.2499999999994121 0
1 0.2999999999992664 0
1 0.3499999999991206 0
1 0.3999999999989749 0
1 0.4499999999988292 0
1 0.4999999999986943 0
1 0.5499999999988151 0
1 0.5999999999989468 0
1 0.6499999999990784 0
1 0.69999999999921 0
1 0.7499999999993417 0
1 0.7999999999994734 0
1 0.8499999999996051 0
1 0.8999999999997368 0
1 0.9499999999998684 0
1 3 0 19
44
45
46
47
48
49
50
51
52
53
54
55
56
57
58
59
60
61
62
0.9499999999997918 1 0
0.8999999999995836 1 0
0.8499999999996529 1 0
0.7999999999999998 1 0
0.7500000000003466 1 0
0.7000000000006934 1 0
0.6500000000010401 1 0
0.6000000000013869 1 0
0.5500000000017335 1 0
0.5000000000020587 1 0
0.4500000000018723 1 0
0.4000000000016644 1 0
0.3500000000014564 1 0
0.3000000000012483 1 0
0.2500000000010403 1 0
0.2000000000008322 1 0
0.1500000000006241 1 0
0.100000000000416 1 0
0.05000000000020799 1 0
1 4 0 19
63
64
65
66
67
68
69
70
71
72
73
74
75
76
77
78
79
80
81
0 0.9499999999997918 0
0 0.8999999999995836 0
0 0.8499999999996529 0
0 0.7999999999999998 0
0 0.7500000000003466 0
0 0.7000000000006934 0
0 0.6500000000010401 0
0 0.6000000000013869 0
0 0.5500000000017335 0
0 0.5000000000020587 0
0 0.4500000000018723 0
0 0.4000000000016644 0
0 0.3500000000014564 0
0 0.3000000000012483 0
0 0.2500000000010403 0
0 0.2000000000008322 0
0 0.1500000000006241 0
0 0.100000000000416 0
0 0.05000000000020799 0
1 5 0 24
82
83
84
85
86
87
88
89
90
91
92
93
94
95
96
97
98
99
100
101
102
103
104
105
0.7349521265678742 0.5455027520613527 0
0.698481184207604 0.5776050431130064 0
0.6548673652050859 0.5993711076582824 0
0.6082538869480527 0.6137574050258072 0
0.56021616140214 0.6223305331497456 0
0.5115414167740923 0.6258469039559813 0
0.4627549719600336 0.6245949515333573 0
0.4143406843733298 0.6184725285563852 0
0.3669239209642158 0.6069730517426747 0
0.3216037603071517 0.5889623442029541 0
0.2809170697207512 0.562218741824315 0
0.2523593039923519 0.5232205712078627 0
0.2528365142260757 0.4755410876427403 0
0.2819173003248924 0.4369090220978153 0
0.3227912866690281 0.4104451682579013 0
0.3681915747168294 0.392634118039929 0
0.4156468989033784 0.3812928177125933 0
0.4640784884713753 0.375307245659696 0
0.5128681721996906 0.3741844054755483 0
0.5615330972456066 0.3778335836281306 0
0.6095444157254644 0.3865520941625632 0
0.6561029545340408 0.4011132280051478 0
0.6995965169164771 0.4231141118678789 0
0.7357572226406318 0.4555522616243735 0
2 1 0 396
106
107
108
109
110
111
112
113
114
115
116
117
118
119
120
121
122
123
124
125
126
127
128
129
130
131
132
133
134
135
136
137
138
139
140
141
142
143
144
145
146
147
148
149
150
151
152
153
154
155
156
157
158
159
160
161
162
163
164
165
166
167
168
169
170
171
172
173
174
175
176
177
178
179
180
181
182
183
184
185
186
187
188
189
190
191
192
193
194
195
196
197
198
199
200
201
202
203
204
205
206
207
208
209
210
211
212
213
214
215
216
217
218
219
220
221
222
223
224
225
226
227
228
229
230
231
232
233
234
235
236
237
238
239
240
241
242
243
244
245
246
247
248
249
250
251
252
253
254
255
256
257
258
259
260
261
262
263
264
265
266
267
268
269
270
271
272
273
274
275
276
277
278
279
280
281
282
283
284
285
286
287
288
289
290
291
292
293
294
295
296
297
298
299
300
301
302
303
304
305
306
307
308
309
310
311
312
313
314
315
316
317
318
319
320
321
322
323
324
325
326
327
328
329
330
331
332
333
334
335
336
337
338
339
340
341
342
343
344
345
346
347
348
349
350
351
352
353
354
355
356
357
358
359
360
361
362
363
364
365
366
367
368
369
370
371
372
373
374
375
376
377
378
379
380
381
382
383
384
385
386
387
388
389
390
391
392
393
394
395
396
397
398
399
400
401
402
403
404
405
406
407
408
409
410
411
412
413
414
415
416
417
418
419
420
421
422
423
424
425
426
427
428
429
430
431
432
433
434
435
436
437
438
439
440
441
442
443
444
445
446
447
448
449
450
451
452
453
454
455
456
457
458
459
460
461
462
463
464
465
466
467
468
469
470
471
472
473
474
475
476
477
478
479
480
481
482
483
484
485
486
487
488
489
490
491
492
493
494
495
496
497
498
499
500
501
0.7003774277939674 0.3761801551101053 0
0.699974513481725 0.6278917192557008 0
0.2279623018652147 0.9590389745062406 0
0.2224766679250559 0.04831551954885818 0
0.2845352630271762 0.3918821617740053 0
0.3821167208563306 0.3482829372423213 0
0.3806758537975085 0.6537770561975994 0
0.2793341627623629 0.6096872452875383 0
0.7749999999994074 0.0433012701893359 0
0.7780895714709366 0.9589815952065522 0
0.5979376521134288 0.3415034622233893 0
0.5916585264522141 0.659640007292536 0
0.4723626906291556 0.9602451158334531 0
0.4749311769665461 0.05348832193224867 0
0.9580300012569102 0.7727612764946504 0
0.9567978456755835 0.2299345461418853 0
0.04257950929720539 0.7762378705219852 0
0.0433012701894021 0.2250000000009362 0
0.6257481318056852 0.9571255502895228 0
0.625671582155482 0.04129234430372478 0
0.4897281148124129 0.3343204041032888 0
0.486064011169618 0.6674696927733104 0
0.959402227378316 0.6250136080314173 0
0.9611616577770095 0.3772946661377158 0
0.04301810853814801 0.3671748329633072 0
0.03688284269944493 0.6252259069485981 0
0.3250000000013523 0.956698729810598 0
0.3245431748473273 0.0391897428695677 0
0.211330749088811 0.4987151501046463 0
0.9575251238653861 0.4706510421977603 0
0.8749999999996182 0.9566987298109583 0
0.04093826545549797 0.8721721910481609 0
0.04258702696255476 0.1178926778160662 0
0.8758153434863829 0.04188313615358134 0
0.7806243957834647 0.5407337324804771 0
0.7833490004075273 0.4626178195237153 0
0.04265580915741779 0.5291037889836905 0
0.2097587713899894 0.545467984740859 0
0.2100698987726646 0.4507945026246686 0
0.1695055018682007 0.4742767603330764 0
0.1698442875102626 0.4259431413478036 0
0.9563593455046615 0.8773993594015457 0
0.1274609042004957 0.04793287394042728 0
0.9555214039472515 0.1246139596611925 0
0.1250151373541371 0.9567088039959701 0
0.1281225155477296 0.4499793595758419 0
0.7689275636634594 0.4176001515501452 0
0.8144700641328476 0.4271693059717787 0
0.7983430128318695 0.3813067080832558 0
0.8309962865718923 0.4713333917001924 0
0.8623710465106158 0.435670446109177 0
0.7671425144072606 0.5842782642464591 0
0.811090610618873 0.5775633591907351 0
0.7958044248303562 0.621279820526853 0
0.8439348807171182 0.6128069027040582 0
0.8257507072410297 0.658334187261713 0
0.8575339595797599 0.5639534912144142 0
0.7791975105547337 0.6667769038677069 0
0.8091738681674806 0.7043652477509357 0
0.7618466565534462 0.7126644034676773 0
0.7918466702368174 0.7504488754635076 0
0.7432132446725533 0.758266888704181 0
0.7741401097334234 0.7965001769960429 0
0.7253300392755644 0.8042246745496459 0
0.6942697723838931 0.7659169129757251 0
0.6760761769385384 0.8090895968387559 0
0.6451001979170434 0.7733167319435883 0
0.6277319771763759 0.8196570435408705 0
0.5963251602613833 0.78146103192544 0
0.5814173057571611 0.8282049199901218 0
0.5483617384524487 0.7900973594617791 0
0.822862017267278 0.7886593972352821 0
0.5308540865535265 0.8367605060740263 0
0.4993995703207867 0.7981091222653309 0
0.4817212024144631 0.8446853407177239 0
0.4502319169008712 0.8044475961669836 0
0.4325529810499114 0.8509238649578981 0
0.4013857152697876 0.8121746118405236 0
0.704261002278312 0.8511599975822302 0
0.8052469633289375 0.8349159135773918 0
0.8576926684748526 0.6966159543844885 0
0.4175525293843123 0.7697185860574601 0
0.3704185880612375 0.7763792235729852 0
0.3526259718513431 0.8202789405276272 0
0.3215717506515987 0.7818977974543913 0
0.3038114724710094 0.8276856162284649 0
0.2727125867698438 0.7891248373485906 0
0.255490325418944 0.8348200948284493 0
0.2244938123293972 0.7961784454186767 0
0.2417365492200798 0.7504248007302476 0
0.1928942953008007 0.7580555898764636 0
0.1760924914292721 0.8009678052880242 0
0.2106068781910928 0.7119743134542117 0
0.1617520316352316 0.7196300235663415 0
0.179545984938604 0.6735414044487966 0
0.8541805246276437 0.827069615404828 0
0.566885642245874 0.8769206815125632 0
0.6643059133554813 0.7270700704829715 0
0.2581145137872355 0.7054324338559126 0
0.1307256151283482 0.6811449405260985 0
0.1485717917938285 0.6350915470463117 0
0.3439873201485997 0.7325534056307259 0
0.128378757433337 0.4011545936241759 0
0.1708038537383049 0.377183862561821 0
0.1292124881237381 0.3520036769722594 0
0.1717245105769556 0.3279007154273691 0
0.1292642959769044 0.3026543965021583 0
0.1722720115500226 0.2785541517427607 0
0.2147896176286428 0.3038061284823572 0
0.2153996789586298 0.2544637427625751 0
0.1729102340970681 0.229154084450559 0
0.2160793205642464 0.2050566115455882 0
0.2585331346034868 0.2304100319437936 0
0.2597220085795968 0.1808355542963371 0
0.3018233887552407 0.2064410661934272 0
0.1735789966966528 0.1796390062457784 0
0.3009504984683113 0.255758179473788 0
0.3441352493546346 0.2317523292145878 0
0.3449481816023774 0.1824547743556585 0
0.3873097768546395 0.2077716621454369 0
0.3880886020936513 0.1583415549390313 0
0.4304507160993836 0.1837732531846046 0
0.4296609512887465 0.2331352473374294 0
0.4728391670164556 0.2092063129523549 0
0.4736546520101663 0.159799624748294 0
0.5160710242210387 0.1852761953384692 0
0.5166344132813961 0.1362744355145524 0
0.5592501859872164 0.1614085102153953 0
0.5584285600237708 0.2107600351126457 0
0.6016176804850208 0.186860847376867 0
0.6027426528627349 0.2332343729112246 0
0.6443018758055838 0.2117350394459468 0
0.6449167445830528 0.1628405785309064 0
0.6872249074979879 0.1883519920716347 0
0.6864815701616753 0.2373692840822327 0
0.7294861359846002 0.2138973581031284 0
0.728437980201317 0.2631302554606162 0
0.7716671725833573 0.239386472896131 0
0.7727140177497538 0.1900499295996544 0
0.8139406868085732 0.2136080083121472 0
0.816993925584016 0.1677537947921892 0
0.6873934942521529 0.1402067786187446 0
0.8192028546638552 0.2619447305058342 0
0.8574027253113795 0.1896761720595769 0
0.5603112793028282 0.2607892626136882 0
0.8606423502600904 0.1440103116866502 0
0.7763095640812487 0.1368703667048329 0
0.1295881063203263 0.4977447943925295 0
0.6844280101134693 0.2844719641593931 0
0.5582808211228152 0.1144356434254954 0
0.346194916158467 0.1331425120130657 0
0.3911055708879689 0.1119850903594084 0
0.284674989334362 0.8731643475044073 0
0.8349647798443762 0.8728851491530663 0
0.5672851989811442 0.7458943902606927 0
0.1308291432158792 0.2038035826850254 0
0.131467587213683 0.1541908270982872 0
0.1744316561884858 0.1299884259767624 0
0.8762232800548224 0.7778185338891874 0
0.1972318383373567 0.6274592489368941 0
0.8801291592869498 0.4843545650350441 0
0.1200824868179031 0.722530934876062 0
0.7874071602167839 0.8812682530158406 0
0.2370743012947777 0.8814999926918823 0
0.9029662632508884 0.8215997414945695 0
0.08169172105794975 0.6886986696644822 0
0.7293169168025455 0.3082428250553169 0
0.4713989704836783 0.2579464595340735 0
0.428861200773358 0.2824138042210217 0
0.3452625268783847 0.2786440574719214 0
0.3057980467508875 0.3100128506238155 0
0.6463357596920738 0.1153453394181739 0
0.6953349273995028 0.09106890103691123 0
0.9021663002567056 0.1678933753786087 0
0.08563402761344362 0.4694551745081863 0
0.3236668285246407 0.6435857251909545 0
0.4635031839136619 0.8878702914585677 0
0.4234731785255941 0.9001743988930984 0
0.4744652430331139 0.1103139257392784 0
0.08614360334654288 0.3333908013675433 0
0.08660279262326402 0.2773296994252594 0
0.8872651472145237 0.6057426086279354 0
0.9101645998076351 0.5591762620932186 0
0.08779764216904282 0.1858112433343937 0
0.1630501641298129 0.5913823710125659 0
0.1183049943279438 0.5961790417285036 0
0.647330866434669 0.3565914346711698 0
0.6503961572636336 0.6471173905169033 0
0.6850155108843444 0.6797642993531592 0
0.3333360746890964 0.3580369145042569 0
0.6334913438338866 0.3050678804038 0
0.1307747875891079 0.1032837930890452 0
0.1751632978072306 0.08023456462447726 0
0.219258806183597 0.1039402341648674 0
0.2639557585097712 0.0825256589275384 0
0.08427936555235534 0.08481317451152821 0
0.4302500701561777 0.6637765693340653 0
0.4514925773492201 0.7055806583779024 0
0.3944882513498813 0.7013599980585704 0
0.5018769939423235 0.7106631443348486 0
0.5450373399869831 0.3318609227581776 0
0.5399999528660139 0.67102150869504 0
0.8139585068636424 0.9186581693077602 0
0.2636113656620659 0.9188739270357664 0
0.9011086320168832 0.2176722961408344 0
0.9125653039606156 0.4433088356515048 0
0.8896174420786827 0.3956026076104131 0
0.9017776364073662 0.1139511795958463 0
0.9354906831547507 0.0786381244855319 0
0.4335654620637802 0.3316791811775284 0
0.7506514947089831 0.3775058407618107 0
0.7726117782174993 0.3361664706316942 0
0.823846865513791 0.3444578026680075 0
0.5151791727002865 0.2890695177510076 0
0.3488611623796327 0.6866771595968905 0
0.1344472476435672 0.5494275784034002 0
0.08359639359353641 0.5607897567279471 0
0.2617959029371972 0.130616961774671 0
0.8558428706179765 0.09155675015277989 0
0.8461977525629736 0.5182553606779298 0
0.6291036671246986 0.6917683566662631 0
0.95239690461519 0.1797754973001044 0
0.9222760091970016 0.2656606804990044 0
0.8724445056992061 0.2629889920160878 0
0.8953747574111458 0.3069100954661907 0
0.9436717505656196 0.3056466909566415 0
0.2268127362694435 0.6672593391327555 0
0.9567766395068479 0.4251349435506905 0
0.3871183414798566 0.256258487281201 0
0.5157046956246762 0.2355079638837065 0
0.2899350464424817 0.7435904813210783 0
0.9567998079425152 0.5751750724587807 0
0.9511621556909399 0.5209745173144998 0
0.2587922415364916 0.2805755079893291 0
0.2550304089826416 0.3291891982790183 0
0.2113573882189662 0.3531010106436153 0
0.9572596788580618 0.6749554578831114 0
0.9194054329788446 0.6423434725440559 0
0.9105659501680361 0.6975347251454878 0
0.4662260738319874 0.753496489087134 0
0.9566473638541207 0.7246261110659865 0
0.9143937399792739 0.7495696288775417 0
0.2094695565659387 0.4021431557533991 0
0.04330127018939268 0.4250000000017682 0
0.1754113008651186 0.9571480232583787 0
0.1499890650622641 0.9135703308049348 0
0.09909436025675185 0.9175316538522256 0
0.1243232112975871 0.8689199922309681 0
0.1771480532868211 0.8731012755040071 0
0.8274037605371555 0.04498484194877279 0
0.8023123522373715 0.08945098626214217 0
0.7517883155054911 0.08984519234100741 0
0.7247436772904128 0.04645278623712199 0
0.7255107601175141 0.9571434916013251 0
0.6752358646846952 0.9568848285532308 0
0.6493436653298893 0.9141556038602356 0
0.5993727302679818 0.9168782775422125 0
0.6214879517334123 0.8671632626889098 0
0.5447633344884723 0.920119084259047 0
0.512730662194144 0.8810002745859747 0
0.7015059076516604 0.9061568082809049 0
0.3727372893005428 0.9580283995276716 0
0.3500000000014564 0.9135159535817716 0
0.422108694520727 0.9522402735886125 0
0.3744218504825831 0.04002910181354981 0
0.422149815053964 0.04236913425908916 0
0.5759771372667839 0.04115103405412006 0
0.5281186962232438 0.04298076234377952 0
0.9517014591815496 0.8230989799263818 0
0.04215329060432421 0.824735641763044 0
0.08655871517425678 0.8000036314536771 0
0.04079528978325503 0.7245555019910015 0
0.07514139588304268 0.9575494430671515 0
0.9247881315356467 0.9576622667563228 0
0.9116910279906675 0.9059854192459993 0
0.7514762538081188 0.6286831296174764 0
0.1034959552202312 0.6420782734420218 0
0.3830555104658451 0.8691689693072229 0
0.217477781858296 0.1550127990006674 0
0.882274719126617 0.8651131926310682 0
0.7141154220093917 0.7200058301225837 0
0.4314419589088354 0.1346237694300893 0
0.7572194502151275 0.916465353482968 0
0.602306362156288 0.1381852796183949 0
0.1303366489391008 0.2532670379185548 0
0.7555383449672078 0.8407754698677625 0
0.7300174733564964 0.1653179519370092 0
0.3304459844829678 0.8687954583929927 0
0.1357315561565724 0.7667016255123785 0
0.840140462233549 0.742484752878603 0
0.8433923375229255 0.3898870911391744 0
0.2051993980060437 0.9172054206335349 0
0.6015524805280981 0.08548793372425036 0
0.9224042042255819 0.354283357501446 0
0.7714368461436362 0.2856353527339842 0
0.3031053505475751 0.1568886645809534 0
0.6749999999991443 0.0423474585528888 0
0.3037270616951594 0.1097558505093571 0
0.2743404198729614 0.6591966380748393 0
0.04030395959388512 0.5766558127361462 0
0.244050301382989 0.5748465855652112 0
0.6139064939698256 0.7369112707431753 0
0.6440920761354478 0.2588706933166048 0
0.3482068888921702 0.08321012223678104 0
0.847779222395322 0.3026135310739738 0
0.08620022185714774 0.1368319526416748 0
0.04705689105495441 0.9208719927092336 0
0.9590131399785051 0.9248285633742118 0
0.170651835087182 0.5208862079444259 0
0.04183545152359945 0.1720693770237008 0
0.09577349942733777 0.2290423126728339 0
0.0355375367435011 0.2753328142045893 0
0.5161006736746726 0.08912390116306196 0
0.08366358575831574 0.8432724396412821 0
0.04067212140587445 0.3210228016982307 0
0.5830727699951826 0.3009345252486982 0
0.08791166165597043 0.3801722126781905 0
0.9110496627557674 0.5139969182615266 0
0.03910195999443346 0.07500000000031198 0
0.08910875537759308 0.4252918306827436 0
0.03999892920153071 0.47672661219566 0
0.4340019872582145 0.08840626680307456 0
0.2080964240302731 0.8394155978206544 0
0.5734570469440802 0.9588688295975965 0
0.5208580850992222 0.9590900654947967 0
0.03751743327449121 0.6735076909960039 0
0.3884563754718442 0.3020462394467022 0
0.5189686357494775 0.7542918723322005 0
0.1279476276534665 0.8163280467215102 0
0.6665365507174356 0.8758897632339432 0
0.5810785346407792 0.7022370115349961 0
0.8696074682338216 0.6486592861670928 0
0.2759133719999892 0.0382885063590936 0
0.7349731840874096 0.6753837056951093 0
0.8707747922517669 0.3507181081905953 0
0.8292937109227966 0.9571516932469746 0
0.2791802717174521 0.9572617590935112 0
0.1750201739864088 0.03529659162275255 0
0.9215942450714552 0.03803684837462681 0
0.07346189561717804 0.039332244903332 0
0.6880133884442343 0.3293898751645233 0
0.08314842407702788 0.7534089476731952 0
0.3033084972594057 0.6995815617787344 0
0.08776017812841022 0.515377190097716 0
0.2373854108264373 0.6201839852826854 0
0.2912589419289118 0.350341461703667 0
0.7275849013618794 0.1236183026483668 0
0.8018304507092531 0.5054690561557853 0
0.964549121087641 0.2702483835192419 0
0.07471981525688984 0.6089158098255707 0
0.3054854351999427 0.9147183625698412 0
0.8581067611946132 0.9115552797347157 0
0.4672197278452582 0.298893579290223 0
0.3509939489293086 0.3194045998578035 0
0.8073843743932435 0.3049413618543128 0
0.2447220416891479 0.4256992088935659 0
0.5431523147697427 0.7125921732457829 0
0.8787745989053189 0.7313494680511725 0
0.6501204268228453 0.07420314796138687 0
0.3903662115901423 0.7419661675449092 0
0.9216675464661812 0.8571512699096128 0
0.4939884512634297 0.9223885696973403 0
0.4550872397705137 0.9245837298942144 0
0.7390598858353246 0.8779008305060965 0
0.8963231785049912 0.07624292270536551 0
0.03662559858567302 0.9633744014143268 0
0.9633974596214061 0.9633974596214265 0
0.245192075707645 0.3773008093104512 0
0.5538984814386307 0.07438383631574394 0
0.9637624534549674 0.03623754654496879 0
0.03623769343763963 0.0362376934377245 0
0.8227497038501168 0.1266182390995377 0
0.1591393682556304 0.8385509235507722 0
0.8810650633028942 0.529771035871063 0
0.8506277580849403 0.2289740854095485 0
0.3939772225149802 0.07319994309438059 0
0.7316081938657759 0.4078034743830987 0
0.7306971253680056 0.5955196640563513 0
0.2036398286059871 0.5842660380602342 0
0.927336599422107 0.6010734507609818 0
0.3902749345628331 0.9186255989796754 0
0.9212145991539455 0.7865013837609666 0
0.4240251287011087 0.7344243798251953 0
0.7241642370812127 0.3479249801919758 0
0.9720881939960746 0.07575435395092556 0
0.3015532033132732 0.07028832003164422 0
0.9651363229675198 0.3386273099575453 0
0.9294039696597829 0.3996066508155598 0
0.8194554338508647 0.5411949999438683 0
0.5509001404963202 0.2956635570928929 0
0.1765837083874653 0.5562522038470965 0
0.9216086036300652 0.4807615224207789 0
0.07901526276462142 0.8845536538963741 0
0.6569001640092802 0.8417967935438542 0
0.06602806331670573 0.6512955558138585 0
0.6064504335846509 0.2712185657303674 0
2 2 0 43
502
503
504
505
506
507
508
509
510
511
512
513
514
515
516
517
518
519
520
521
522
523
524
525
526
527
528
529
530
531
532
533
534
535
536
537
538
539
540
541
542
543
544
0.4894457026679181 0.4169973759066872 0
0.5746133629987339 0.5790116330393351 0
0.3952384124748776 0.5740949601656679 0
0.5788959128449347 0.4226739331559963 0
0.488232377564508 0.5829721627160283 0
0.3968373401961099 0.4259018079415134 0
0.6572963068808064 0.55353407950348 0
0.3264649368554142 0.4590144959364071 0
0.6588283416851211 0.4497170768472274 0
0.326105391366337 0.5418315972470222 0
0.7097761375655611 0.5043480908470208 0
0.2938895531159324 0.4997941056106525 0
0.5330146553020907 0.5863994838077468 0
0.5109530355470207 0.5440808767454155 0
0.4666749119113668 0.5403255750183522 0
0.4914120094180901 0.4999525307515661 0
0.5420370341509056 0.507270676977246 0
0.4456790187229652 0.4980383087646538 0
0.5145871911529637 0.4600364560412734 0
0.4690599968691043 0.4582345851090752 0
0.5364159182841054 0.4192300745026645 0
0.4439298626176073 0.4194118203924692 0
0.441650946773565 0.5791990375762675 0
0.6145480430162689 0.5669740670766645 0
0.6190484903857629 0.5235040764064347 0
0.6608921062843206 0.5047737313986524 0
0.6244546988121857 0.4766885078866973 0
0.5739306800052936 0.5315933363693299 0
0.6209528019825827 0.4292627084581667 0
0.5611654335935188 0.463654692808351 0
0.4207092742330413 0.5356125479428511 0
0.4054583365209488 0.4992997913044177 0
0.3357705044777326 0.5009502417166831 0
0.3719013265697969 0.5276521546308636 0
0.3557010292506066 0.4321701349281812 0
0.695318419904338 0.4676990363343779 0
0.4230488523067863 0.4612750492902243 0
0.3558073590999894 0.5689208595742475 0
0.3709181987817571 0.4724752971684413 0
0.5875819571291033 0.4946961254750292 0
0.6923995620931092 0.5385905043951241 0
0.5951079355538226 0.4552922519098647 0
0.5470087492141525 0.5541707133571839 0
$EndNodes
$Elements
6 1086 1 1086
1 1 1 20
1 1 6 
2 6 7 
3 7 8 
4 8 9 
5 9 10 
6 10 11 
7 11 12 
8 12 13 
9 13 14 
10 14 15 
11 15 16 
12 16 17 
13 17 18 
14 18 19 
15 19 20 
16 20 21 
17 21 22 
18 22 23 
19 23 24 
20 24 2 
1 2 1 20
21 2 25 
22 25 26 
23 26 27 
24 27 28 
25 28 29 
26 29 30 
27 30 31 
28 31 32 
29 32 33 
30 33 34 
31 34 35 
32 35 36 
33 36 37 
34 37 38 
35 38 39 
36 39 40 
37 40 41 
38 41 42 
39 42 43 
40 43 3 
1 3 1 20
41 3 44 
42 44 45 
43 45 46 
44 46 47 
45 47 48 
46 48 49 
47 49 50 
48 50 51 
49 51 52 
50 52 53 
51 53 54 
52 54 55 
53 55 56 
54 56 57 
55 57 58 
56 58 59 
57 59 60 
58 60 61 
59 61 62 
60 62 4 
1 4 1 20
61 4 63 
62 63 64 
63 64 65 
64 65 66 
65 66 67 
66 67 68 
67 68 69 
68 69 70 
69 70 71 
70 71 72 
71 72 73 
72 73 74 
73 74 75 
74 75 76 
75 76 77 
76 77 78 
77 78 79 
78 79 80 
79 80 81 
80 81 1 
2 1 2 897
81 308 115 388 
82 309 108 397 
83 294 203 326 
84 147 380 466 
85 149 279 313 
86 380 147 413 
87 284 119 418 
88 202 175 363 
89 268 308 388 
90 279 149 327 
91 344 186 437 
92 269 309 397 
93 377 271 447 
94 271 267 447 
95 119 284 427 
96 304 207 320 
97 394 376 447 
98 411 289 415 
99 138 411 415 
100 298 109 299 
101 404 281 448 
102 121 310 327 
103 343 344 437 
104 286 123 416 
105 123 286 417 
106 90 112 281 
107 281 320 448 
108 357 278 358 
109 353 419 434 
110 297 148 298 
111 349 422 425 
112 376 394 434 
113 349 130 422 
114 293 294 326 
115 286 285 420 
116 417 286 420 
117 107 381 439 
118 368 383 486 
119 278 357 452 
120 310 279 327 
121 96 110 295 
122 281 112 320 
123 362 202 363 
124 299 109 300 
125 102 116 292 
126 207 304 465 
127 117 85 293 
128 292 116 296 
129 294 107 439 
130 305 127 307 
131 383 368 393 
132 136 441 457 
133 142 426 449 
134 426 280 449 
135 132 442 456 
136 295 110 451 
137 349 280 426 
138 280 349 425 
139 93 92 406 
140 441 308 457 
141 296 254 446 
142 148 297 301 
143 175 173 363 
144 143 93 406 
145 285 130 420 
146 130 285 422 
147 289 123 415 
148 123 289 416 
149 442 309 456 
150 302 303 304 
151 410 330 440 
152 354 269 397 
153 355 324 356 
154 380 385 466 
155 184 366 435 
156 117 293 326 
157 295 276 459 
158 292 296 446 
159 304 303 488 
160 366 184 469 
161 269 354 428 
162 419 376 434 
163 276 295 451 
164 138 301 411 
165 114 356 357 
166 19 20 358 
167 272 317 489 
168 88 127 302 
169 302 127 303 
170 301 138 424 
171 383 283 486 
172 203 294 386 
173 180 178 365 
174 114 355 356 
175 100 126 306 
176 127 87 307 
177 356 252 357 
178 306 126 319 
179 139 324 355 
180 298 148 443 
181 119 373 418 
182 364 430 467 
183 109 298 443 
184 303 305 345 
185 267 394 447 
186 353 434 478 
187 318 410 440 
188 371 119 427 
189 274 315 432 
190 317 272 400 
191 319 273 335 
192 112 304 320 
193 315 111 432 
194 365 364 467 
195 429 52 430 
196 337 288 338 
197 91 90 281 
198 310 121 328 
199 248 329 410 
200 202 362 364 
201 283 369 486 
202 317 316 489 
203 340 451 473 
204 19 358 402 
205 253 321 449 
206 352 378 412 
207 379 380 413 
208 20 114 358 
209 27 28 327 
210 250 319 335 
211 369 283 468 
212 345 305 433 
213 178 202 365 
214 305 307 462 
215 282 180 365 
216 254 296 408 
217 103 102 292 
218 85 84 293 
219 329 248 480 
220 135 311 333 
221 97 96 295 
222 321 322 449 
223 451 110 473 
224 149 313 314 
225 299 300 323 
226 142 322 405 
227 338 288 423 
228 89 88 302 
229 252 356 477 
230 98 111 315 
231 28 121 327 
232 115 308 441 
233 149 27 327 
234 364 429 430 
235 116 306 421 
236 101 100 306 
237 87 86 307 
238 126 99 315 
239 352 412 498 
240 108 309 442 
241 135 338 497 
242 323 219 384 
243 372 125 398 
244 299 323 384 
245 303 127 305 
246 338 423 497 
247 358 278 402 
248 114 357 358 
249 310 328 329 
250 331 30 492 
251 450 265 484 
252 203 172 407 
253 202 364 365 
254 301 297 411 
255 330 399 440 
256 321 253 414 
257 135 34 338 
258 406 450 484 
259 344 346 347 
260 209 211 341 
261 260 433 462 
262 326 203 407 
263 329 328 330 
264 200 265 332 
265 129 32 333 
266 307 117 436 
267 275 223 334 
268 209 341 348 
269 273 229 335 
270 219 323 401 
271 207 190 336 
272 344 342 346 
273 342 38 346 
274 211 214 341 
275 214 339 340 
276 214 340 341 
277 144 146 348 
278 256 401 403 
279 360 361 366 
280 190 192 336 
281 360 124 361 
282 128 342 343 
283 198 200 332 
284 229 231 335 
285 223 225 334 
286 33 135 333 
287 74 130 349 
288 50 124 360 
289 14 119 371 
290 71 72 142 
291 35 337 338 
292 34 35 338 
293 200 206 265 
294 265 206 290 
295 339 276 340 
296 146 209 348 
297 181 187 345 
298 33 34 135 
299 31 32 129 
300 240 242 254 
301 36 37 128 
302 222 276 339 
303 214 215 339 
304 128 37 342 
305 195 198 204 
306 367 132 368 
307 118 54 369 
308 119 15 373 
309 254 242 272 
310 204 198 332 
311 361 362 363 
312 56 132 367 
313 17 125 372 
314 36 128 337 
315 228 273 274 
316 234 236 250 
317 73 74 349 
318 361 124 362 
319 222 275 276 
320 170 172 203 
321 359 360 366 
322 222 223 275 
323 174 176 260 
324 346 120 347 
325 192 195 336 
326 179 181 345 
327 108 59 350 
328 114 21 355 
329 181 183 187 
330 343 342 344 
331 215 218 339 
332 32 33 333 
333 228 229 273 
334 273 319 458 
335 218 220 222 
336 195 196 198 
337 218 222 339 
338 234 235 236 
339 170 203 386 
340 225 227 228 
341 198 199 200 
342 188 190 207 
343 69 70 131 
344 74 75 130 
345 351 353 354 
346 55 367 369 
347 375 122 376 
348 16 372 373 
349 370 13 371 
350 359 49 360 
351 115 48 359 
352 133 12 370 
353 200 205 206 
354 231 233 234 
355 231 234 335 
356 330 328 331 
357 225 228 334 
358 187 183 188 
359 47 48 115 
360 39 120 346 
361 20 21 114 
362 49 50 360 
363 38 39 346 
364 58 59 108 
365 9 10 109 
366 56 57 132 
367 11 12 133 
368 50 51 124 
369 17 18 125 
370 14 15 119 
371 53 54 118 
372 55 56 367 
373 13 14 371 
374 16 17 372 
375 237 239 240 
376 350 150 351 
377 195 204 336 
378 222 220 223 
379 240 241 242 
380 37 38 342 
381 122 67 377 
382 211 213 214 
383 35 36 337 
384 120 40 374 
385 192 194 195 
386 66 122 375 
387 351 352 353 
388 228 227 229 
389 234 250 335 
390 54 55 369 
391 15 16 373 
392 30 331 454 
393 60 150 350 
394 170 171 172 
395 234 233 235 
396 12 13 370 
397 67 68 377 
398 22 139 355 
399 48 49 359 
400 236 235 237 
401 21 22 355 
402 59 60 350 
403 228 274 334 
404 39 40 120 
405 28 29 121 
406 172 173 174 
407 66 67 122 
408 77 78 123 
409 290 291 321 
410 379 136 380 
411 243 245 248 
412 61 62 378 
413 215 217 218 
414 174 175 176 
415 41 147 374 
416 167 169 170 
417 137 65 375 
418 176 178 179 
419 40 41 374 
420 263 298 299 
421 45 136 379 
422 65 66 375 
423 179 180 181 
424 181 182 183 
425 45 46 136 
426 79 80 138 
427 7 8 148 
428 351 150 352 
429 60 61 150 
430 84 83 107 
431 104 103 106 
432 41 42 147 
433 195 194 196 
434 218 219 220 
435 44 45 379 
436 22 23 139 
437 26 27 149 
438 64 65 137 
439 271 377 431 
440 263 299 384 
441 150 61 378 
442 115 359 388 
443 223 224 225 
444 214 213 215 
445 188 189 190 
446 401 323 403 
447 290 206 291 
448 225 226 227 
449 240 239 241 
450 165 167 386 
451 170 169 171 
452 352 150 378 
453 249 279 310 
454 229 230 231 
455 198 196 199 
456 172 171 173 
457 231 232 233 
458 242 241 243 
459 218 217 219 
460 174 173 175 
461 92 91 113 
462 185 259 268 
463 176 175 178 
464 96 95 110 
465 188 183 189 
466 108 350 397 
467 179 178 180 
468 313 251 324 
469 181 180 182 
470 190 191 192 
471 223 220 224 
472 90 89 112 
473 98 97 111 
474 200 199 205 
475 237 238 239 
476 102 101 116 
477 86 85 117 
478 221 262 263 
479 246 244 252 
480 211 212 213 
481 99 98 315 
482 100 99 126 
483 88 87 127 
484 111 97 295 
485 215 216 217 
486 229 227 230 
487 190 189 191 
488 263 297 298 
489 225 224 226 
490 201 177 264 
491 155 266 325 
492 192 193 194 
493 237 235 238 
494 351 354 397 
495 159 161 163 
496 183 182 383 
497 268 259 308 
498 167 168 169 
499 359 366 388 
500 264 177 395 
501 231 230 232 
502 165 166 167 
503 233 232 255 
504 196 194 197 
505 112 89 302 
506 116 101 306 
507 86 117 307 
508 215 213 216 
509 279 251 313 
510 421 306 495 
511 171 169 184 
512 249 251 279 
513 192 191 193 
514 269 258 309 
515 243 244 245 
516 263 262 297 
517 239 238 247 
518 84 107 293 
519 217 216 221 
520 182 282 283 
521 106 103 292 
522 182 283 383 
523 193 191 258 
524 209 210 211 
525 247 238 277 
526 193 258 269 
527 167 170 386 
528 245 246 249 
529 167 166 168 
530 185 201 259 
531 230 227 387 
532 201 264 270 
533 226 224 256 
534 178 175 202 
535 249 246 251 
536 159 163 381 
537 189 183 383 
538 243 241 244 
539 300 109 438 
540 227 226 387 
541 163 164 165 
542 245 244 246 
543 226 256 257 
544 219 217 384 
545 182 180 282 
546 232 230 284 
547 221 216 261 
548 221 261 262 
549 205 271 382 
550 262 261 289 
551 247 277 278 
552 235 233 389 
553 205 267 271 
554 241 239 392 
555 206 205 382 
556 233 255 389 
557 221 263 384 
558 112 302 304 
559 293 107 294 
560 168 166 177 
561 272 242 400 
562 321 291 322 
563 185 177 201 
564 217 221 384 
565 82 5 140 
566 211 210 212 
567 186 344 463 
568 185 268 391 
569 165 164 166 
570 213 212 390 
571 146 208 209 
572 244 241 392 
573 252 244 392 
574 157 159 381 
575 284 230 387 
576 238 235 389 
577 168 177 185 
578 216 213 390 
579 154 152 316 
580 259 201 385 
581 163 161 164 
582 205 199 267 
583 239 247 392 
584 212 285 286 
585 201 270 385 
586 5 105 141 
587 184 169 391 
588 169 168 391 
589 164 161 186 
590 226 257 387 
591 311 156 312 
592 151 145 253 
593 315 274 458 
594 94 93 134 
595 212 210 285 
596 199 196 394 
597 154 316 317 
598 277 238 389 
599 212 286 390 
600 160 158 162 
601 261 216 390 
602 168 185 391 
603 191 189 393 
604 196 197 394 
605 291 206 382 
606 141 153 155 
607 154 317 318 
608 258 191 393 
609 209 208 210 
610 267 199 394 
611 113 91 281 
612 159 160 161 
613 287 162 288 
614 189 383 393 
615 243 248 400 
616 125 18 402 
617 155 156 266 
618 372 398 474 
619 160 162 287 
620 159 158 160 
621 177 166 395 
622 151 253 280 
623 146 151 208 
624 166 164 395 
625 399 312 440 
626 266 156 311 
627 155 153 156 
628 350 351 397 
629 153 152 154 
630 164 186 395 
631 157 158 159 
632 146 145 151 
633 220 219 401 
634 312 156 396 
635 82 140 157 
636 154 318 396 
637 312 399 493 
638 153 154 396 
639 141 105 152 
640 71 142 405 
641 157 140 158 
642 156 153 396 
643 141 152 153 
644 330 331 399 
645 256 224 401 
646 389 255 398 
647 134 93 143 
648 94 134 144 
649 144 145 146 
650 323 300 403 
651 277 389 398 
652 131 70 405 
653 144 134 145 
654 242 243 400 
655 148 301 445 
656 172 174 407 
657 224 220 401 
658 133 370 409 
659 113 281 404 
660 364 362 429 
661 18 19 402 
662 240 254 408 
663 110 95 461 
664 311 135 497 
665 322 142 449 
666 236 237 408 
667 126 315 458 
668 204 332 404 
669 296 116 421 
670 63 64 412 
671 42 43 413 
672 123 78 415 
673 374 270 487 
674 79 138 415 
675 262 289 411 
676 276 275 459 
677 320 207 448 
678 77 123 417 
679 130 75 420 
680 375 376 419 
681 253 145 414 
682 142 72 426 
683 110 461 473 
684 433 305 462 
685 73 349 426 
686 289 261 416 
687 70 71 405 
688 255 232 418 
689 319 126 458 
690 275 334 432 
691 138 80 424 
692 362 124 429 
693 174 260 407 
694 390 286 416 
695 455 382 500 
696 92 113 406 
697 197 428 478 
698 51 52 429 
699 357 252 452 
700 52 53 430 
701 69 131 431 
702 377 68 431 
703 134 143 414 
704 285 210 422 
705 356 324 477 
706 197 194 428 
707 193 269 428 
708 366 361 435 
709 260 176 433 
710 179 345 433 
711 151 280 425 
712 387 257 427 
713 250 236 501 
714 329 330 410 
715 237 240 408 
716 409 370 481 
717 386 294 439 
718 165 386 439 
719 398 255 474 
720 257 256 409 
721 109 10 438 
722 11 133 438 
723 287 343 437 
724 297 262 411 
725 47 115 441 
726 58 108 442 
727 132 57 442 
728 381 163 439 
729 9 109 443 
730 207 336 448 
731 136 46 441 
732 186 161 437 
733 148 8 443 
734 64 137 412 
735 147 42 413 
736 347 264 463 
737 139 23 444 
738 7 148 445 
739 160 287 437 
740 145 134 414 
741 78 79 415 
742 106 316 482 
743 303 345 488 
744 301 424 445 
745 325 266 479 
746 122 377 447 
747 256 403 409 
748 393 368 456 
749 155 325 453 
750 261 390 416 
751 343 287 485 
752 388 366 469 
753 76 77 417 
754 341 340 473 
755 247 278 452 
756 232 284 418 
757 399 129 493 
758 76 417 420 
759 149 314 490 
760 368 132 456 
761 421 250 501 
762 113 404 450 
763 312 396 440 
764 380 136 457 
765 257 409 481 
766 137 375 419 
767 325 162 494 
768 128 343 485 
769 385 380 457 
770 140 5 453 
771 258 393 456 
772 328 121 454 
773 5 141 453 
774 252 392 452 
775 75 76 420 
776 259 385 457 
777 310 329 480 
778 188 207 465 
779 428 354 478 
780 95 94 461 
781 291 382 455 
782 369 367 486 
783 204 404 448 
784 381 107 483 
785 120 374 487 
786 62 4 471 
787 4 63 471 
788 210 208 422 
789 30 31 492 
790 3 44 472 
791 43 3 472 
792 80 81 424 
793 249 310 480 
794 324 251 477 
795 131 455 500 
796 248 245 480 
797 26 149 490 
798 117 326 436 
799 105 104 482 
800 83 82 483 
801 422 208 425 
802 246 252 477 
803 208 151 425 
804 404 332 450 
805 72 73 426 
806 264 395 463 
807 345 187 488 
808 94 144 461 
809 171 184 499 
810 284 387 427 
811 162 158 494 
812 391 268 469 
813 264 347 487 
814 268 388 469 
815 124 51 429 
816 53 118 430 
817 194 193 428 
818 152 105 482 
819 24 2 475 
820 2 25 475 
821 81 1 476 
822 1 6 476 
823 82 157 483 
824 307 436 462 
825 270 374 466 
826 266 423 479 
827 68 69 431 
828 121 29 454 
829 316 106 489 
830 334 274 432 
831 398 125 464 
832 139 444 470 
833 176 179 433 
834 129 399 492 
835 106 292 446 
836 399 331 492 
837 277 398 464 
838 326 407 436 
839 361 363 435 
840 344 347 463 
841 333 311 493 
842 394 197 434 
843 161 160 437 
844 270 264 487 
845 10 11 438 
846 163 165 439 
847 340 276 451 
848 46 47 441 
849 57 58 442 
850 353 352 498 
851 8 9 443 
852 430 118 467 
853 184 435 499 
854 311 312 493 
855 396 318 440 
856 23 24 444 
857 412 137 498 
858 6 7 445 
859 104 106 482 
860 407 260 436 
861 29 30 454 
862 107 83 483 
863 445 424 476 
864 133 409 491 
865 409 403 491 
866 318 317 460 
867 332 265 450 
868 254 272 446 
869 376 122 447 
870 336 204 448 
871 283 282 468 
872 410 318 460 
873 275 432 459 
874 280 253 449 
875 314 444 475 
876 131 405 455 
877 265 290 484 
878 392 247 452 
879 288 337 485 
880 141 155 453 
881 331 328 454 
882 314 313 470 
883 322 291 455 
884 354 353 478 
885 419 353 498 
886 306 319 495 
887 374 147 466 
888 287 288 485 
889 309 258 456 
890 319 250 495 
891 308 259 457 
892 363 173 499 
893 453 325 494 
894 274 273 458 
895 144 348 461 
896 400 248 460 
897 444 314 470 
898 405 322 455 
899 324 139 470 
900 111 295 459 
901 313 324 470 
902 406 113 450 
903 278 277 464 
904 162 325 479 
905 317 400 460 
906 438 133 491 
907 314 475 490 
908 282 365 467 
909 461 348 473 
910 125 402 464 
911 413 43 472 
912 63 412 471 
913 402 278 464 
914 118 369 468 
915 373 372 474 
916 187 188 465 
917 395 186 463 
918 266 311 497 
919 290 321 496 
920 385 270 466 
921 184 391 469 
922 378 62 471 
923 44 379 472 
924 348 341 473 
925 370 371 481 
926 255 418 474 
927 251 246 477 
928 288 162 479 
929 129 333 493 
930 245 249 480 
931 316 152 482 
932 431 131 500 
933 337 128 485 
934 248 410 460 
935 157 381 483 
936 367 368 486 
937 427 257 481 
938 347 120 487 
939 382 271 500 
940 31 129 492 
941 25 26 490 
942 236 408 501 
943 432 111 459 
944 158 140 494 
945 173 171 499 
946 412 378 471 
947 379 413 472 
948 408 296 501 
949 418 373 474 
950 423 266 497 
951 321 414 496 
952 403 300 491 
953 414 143 496 
954 143 406 484 
955 436 260 462 
956 106 446 489 
957 296 421 501 
958 424 81 476 
959 423 288 479 
960 435 363 499 
961 371 427 481 
962 300 438 491 
963 250 421 495 
964 140 453 494 
965 271 431 500 
966 434 197 478 
967 137 419 498 
968 444 24 475 
969 6 445 476 
970 465 304 488 
971 446 272 489 
972 467 118 468 
973 282 467 468 
974 475 25 490 
975 187 465 488 
976 143 484 496 
977 484 290 496 
2 2 2 109
978 507 538 540 
979 538 533 540 
980 95 509 513 
981 94 95 513 
982 511 92 513 
983 92 93 513 
984 105 5 512 
985 105 512 537 
986 526 525 529 
987 525 503 529 
988 527 510 537 
989 535 534 540 
990 533 535 540 
991 536 507 540 
992 510 527 528 
993 532 504 535 
994 520 522 531 
995 522 505 531 
996 533 532 535 
997 516 524 532 
998 95 96 509 
999 91 92 511 
1000 83 84 508 
1001 103 104 510 
1002 89 90 504 
1003 87 88 506 
1004 97 98 507 
1005 101 102 505 
1006 85 86 503 
1007 99 100 502 
1008 518 517 520 
1009 517 516 519 
1010 515 517 518 
1011 5 82 512 
1012 515 516 517 
1013 93 94 513 
1014 502 520 521 
1015 515 506 516 
1016 520 517 521 
1017 524 504 532 
1018 512 527 537 
1019 520 502 522 
1020 516 506 524 
1021 518 531 541 
1022 515 518 544 
1023 517 519 521 
1024 502 521 523 
1025 514 506 515 
1026 510 528 530 
1027 513 509 534 
1028 535 504 539 
1029 503 86 514 
1030 86 87 514 
1031 527 526 528 
1032 101 505 522 
1033 100 101 522 
1034 519 533 538 
1035 518 529 544 
1036 87 506 514 
1037 502 100 522 
1038 98 99 523 
1039 507 98 523 
1040 88 89 524 
1041 89 504 524 
1042 508 525 526 
1043 99 502 523 
1044 506 88 524 
1045 508 526 527 
1046 511 513 534 
1047 519 532 533 
1048 523 521 538 
1049 84 85 525 
1050 508 84 525 
1051 102 103 530 
1052 103 510 530 
1053 104 105 537 
1054 529 518 541 
1055 510 104 537 
1056 85 503 525 
1057 505 102 530 
1058 96 97 536 
1059 509 96 536 
1060 518 520 531 
1061 519 516 532 
1062 97 507 536 
1063 504 90 539 
1064 527 512 542 
1065 508 527 542 
1066 91 511 539 
1067 511 534 535 
1068 507 523 538 
1069 82 83 542 
1070 90 91 539 
1071 512 82 542 
1072 530 528 543 
1073 541 531 543 
1074 521 519 538 
1075 511 535 539 
1076 83 508 542 
1077 514 515 544 
1078 528 526 541 
1079 509 536 540 
1080 534 509 540 
1081 526 529 541 
1082 529 503 544 
1083 503 514 544 
1084 528 541 543 
1085 505 530 543 
1086 531 505 543 
$EndElements
