$MeshFormat
4.1 0 8
$EndMeshFormat
$PhysicalNames
5
1 1 "HV"
1 2 "GE"
1 3 "wall"
2 4 "rock"
2 5 "pore"
$EndPhysicalNames
$Entities
204 5 2 0
1 0 0 0 0 
2 1 0 0 0 
3 1 1 0 0 
4 0 1 0 0 
5 0.8153899999999999 0.5 0 0 
6 0.81523 0.50637 0 0 
7 0.81476 0.51274 0 0 
8 0.81398 0.5190900000000001 0 0 
9 0.81288 0.52543 0 0 
10 0.81147 0.53173 0 0 
11 0.80975 0.53801 0 0 
12 0.80772 0.54425 0 0 
13 0.80538 0.55045 0 0 
14 0.80274 0.55659 0 0 
15 0.7998 0.56268 0 0 
16 0.79656 0.5687 0 0 
17 0.7930199999999999 0.5746599999999999 0 0 
18 0.7891899999999999 0.5805399999999999 0 0 
19 0.78508 0.58635 0 0 
20 0.78068 0.59206 0 0 
21 0.776 0.5976900000000001 0 0 
22 0.7710399999999999 0.60322 0 0 
23 0.76581 0.60864 0 0 
24 0.76032 0.61396 0 0 
25 0.75457 0.61916 0 0 
26 0.74857 0.62424 0 0 
27 0.74231 0.6292 0 0 
28 0.73582 0.63404 0 0 
29 0.72909 0.63873 0 0 
30 0.72213 0.64329 0 0 
31 0.71495 0.64771 0 0 
32 0.70756 0.65198 0 0 
33 0.69996 0.6561 0 0 
34 0.69216 0.66006 0 0 
35 0.6841699999999999 0.66386 0 0 
36 0.676 0.6675 0 0 
37 0.66765 0.67097 0 0 
38 0.65913 0.67427 0 0 
39 0.65046 0.6774 0 0 
40 0.64163 0.68035 0 0 
41 0.63266 0.68313 0 0 
42 0.62356 0.68571 0 0 
43 0.61434 0.68812 0 0 
44 0.60501 0.69033 0 0 
45 0.59557 0.69236 0 0 
46 0.5860300000000001 0.6942 0 0 
47 0.57641 0.69584 0 0 
48 0.56671 0.69728 0 0 
49 0.5569499999999999 0.69853 0 0 
50 0.5471200000000001 0.69958 0 0 
51 0.53726 0.70044 0 0 
52 0.52735 0.70109 0 0 
53 0.51742 0.7015400000000001 0 0 
54 0.50747 0.70179 0 0 
55 0.49751 0.70184 0 0 
56 0.48756 0.70169 0 0 
57 0.47761 0.70134 0 0 
58 0.46769 0.70079 0 0 
59 0.4578 0.70004 0 0 
60 0.44796 0.69908 0 0 
61 0.43816 0.6979300000000001 0 0 
62 0.42843 0.69659 0 0 
63 0.41877 0.69504 0 0 
64 0.40919 0.6933 0 0 
65 0.3997 0.69137 0 0 
66 0.39031 0.68925 0 0 
67 0.38103 0.68694 0 0 
68 0.37187 0.68444 0 0 
69 0.36284 0.68176 0 0 
70 0.35394 0.6788999999999999 0 0 
71 0.34519 0.67586 0 0 
72 0.33659 0.67264 0 0 
73 0.32816 0.66926 0 0 
74 0.31989 0.6657 0 0 
75 0.31181 0.66198 0 0 
76 0.30391 0.6581 0 0 
77 0.29621 0.65406 0 0 
78 0.28872 0.64986 0 0 
79 0.28143 0.64552 0 0 
80 0.27436 0.64103 0 0 
81 0.26752 0.6364 0 0 
82 0.2609 0.63164 0 0 
83 0.25453 0.62674 0 0 
84 0.2484 0.6217200000000001 0 0 
85 0.24252 0.61657 0 0 
86 0.2369 0.61131 0 0 
87 0.23154 0.60594 0 0 
88 0.22645 0.6004699999999999 0 0 
89 0.22163 0.59489 0 0 
90 0.21709 0.58922 0 0 
91 0.21283 0.58346 0 0 
92 0.20885 0.57761 0 0 
93 0.20517 0.57169 0 0 
94 0.20178 0.5657 0 0 
95 0.19869 0.55964 0 0 
96 0.1959 0.55352 0 0 
97 0.19341 0.54735 0 0 
98 0.19123 0.54114 0 0 
99 0.18935 0.53488 0 0 
100 0.18779 0.52858 0 0 
101 0.18653 0.5222599999999999 0 0 
102 0.18559 0.51592 0 0 
103 0.18496 0.50956 0 0 
104 0.18465 0.50319 0 0 
105 0.18465 0.49681 0 0 
106 0.18496 0.49044 0 0 
107 0.18559 0.48408 0 0 
108 0.18653 0.47774 0 0 
109 0.18779 0.47142 0 0 
110 0.18935 0.46512 0 0 
111 0.19123 0.45886 0 0 
112 0.19341 0.45265 0 0 
113 0.1959 0.44648 0 0 
114 0.19869 0.44036 0 0 
115 0.20178 0.4343 0 0 
116 0.20517 0.42831 0 0 
117 0.20885 0.42239 0 0 
118 0.21283 0.41654 0 0 
119 0.21709 0.41078 0 0 
120 0.22163 0.40511 0 0 
121 0.22645 0.39953 0 0 
122 0.23154 0.39406 0 0 
123 0.2369 0.38869 0 0 
124 0.24252 0.38343 0 0 
125 0.2484 0.37828 0 0 
126 0.25453 0.37326 0 0 
127 0.2609 0.36836 0 0 
128 0.26752 0.3636 0 0 
129 0.27436 0.35897 0 0 
130 0.28143 0.35448 0 0 
131 0.28872 0.35014 0 0 
132 0.29621 0.34594 0 0 
133 0.30391 0.3419 0 0 
134 0.31181 0.33802 0 0 
135 0.31989 0.3343 0 0 
136 0.32816 0.33074 0 0 
137 0.33659 0.32736 0 0 
138 0.34519 0.32414 0 0 
139 0.35394 0.3211 0 0 
140 0.36284 0.31824 0 0 
141 0.37187 0.31556 0 0 
142 0.38103 0.31306 0 0 
143 0.39031 0.31075 0 0 
144 0.3997 0.30863 0 0 
145 0.40919 0.3067 0 0 
146 0.41877 0.30496 0 0 
147 0.42843 0.30341 0 0 
148 0.43816 0.30207 0 0 
149 0.44796 0.30092 0 0 
150 0.4578 0.29996 0 0 
151 0.46769 0.29921 0 0 
152 0.47761 0.29866 0 0 
153 0.48756 0.29831 0 0 
154 0.49751 0.29816 0 0 
155 0.50747 0.29821 0 0 
156 0.51742 0.29846 0 0 
157 0.52735 0.29891 0 0 
158 0.53726 0.29956 0 0 
159 0.5471200000000001 0.30042 0 0 
160 0.5569499999999999 0.30147 0 0 
161 0.56671 0.30272 0 0 
162 0.57641 0.30416 0 0 
163 0.5860300000000001 0.3058 0 0 
164 0.59557 0.30764 0 0 
165 0.60501 0.30967 0 0 
166 0.61434 0.31188 0 0 
167 0.62356 0.31429 0 0 
168 0.63266 0.31687 0 0 
169 0.64163 0.31965 0 0 
170 0.65046 0.3226 0 0 
171 0.65913 0.32573 0 0 
172 0.66765 0.32903 0 0 
173 0.676 0.3325 0 0 
174 0.6841699999999999 0.33614 0 0 
175 0.69216 0.33994 0 0 
176 0.69996 0.3439 0 0 
177 0.70756 0.34802 0 0 
178 0.71495 0.35229 0 0 
179 0.72213 0.35671 0 0 
180 0.72909 0.36127 0 0 
181 0.73582 0.36596 0 0 
182 0.74231 0.3708 0 0 
183 0.74857 0.37576 0 0 
184 0.75457 0.38084 0 0 
185 0.76032 0.38604 0 0 
186 0.76581 0.39136 0 0 
187 0.7710399999999999 0.39678 0 0 
188 0.776 0.40231 0 0 
189 0.78068 0.40794 0 0 
190 0.78508 0.41365 0 0 
191 0.7891899999999999 0.41946 0 0 
192 0.7930199999999999 0.42534 0 0 
193 0.79656 0.4313 0 0 
194 0.7998 0.43732 0 0 
195 0.80274 0.44341 0 0 
196 0.80538 0.44955 0 0 
197 0.80772 0.45575 0 0 
198 0.80975 0.46199 0 0 
199 0.81147 0.46827 0 0 
200 0.81288 0.47457 0 0 
201 0.81398 0.48091 0 0 
202 0.81476 0.48726 0 0 
203 0.81523 0.49363 0 0 
204 0.8153899999999999 0.5 0 0 
1 0 0 0 1 0 0 1 3 2 1 -2 
2 1 0 0 1 1 0 1 2 2 2 -3 
3 0 1 0 1 1 0 1 3 2 3 -4 
4 0 0 0 0 1 0 1 1 2 4 -1 
5 0.202191849565615 0.3021728006401463 0 0.8153633333333333 0.6989881710105167 0 0 2 5 -5 
1 0 0 0 1 1 0 1 4 5 4 1 2 3 -5 
2 0.202191849565615 0.3021728006401463 0 0.8153633333333333 0.6989881710105167 0 1 5 1 5 
$EndEntities
$Nodes
12 841 1 841
0 1 0 1
1
0 0 0
0 2 0 1
2
1 0 0
0 3 0 1
3
1 1 0
0 4 0 1
4
0 1 0
0 5 0 1
5
0.8153633333333332 0.5010616666666666 0
1 1 0 19
6
7
8
9
10
11
12
13
14
15
16
17
18
19
20
21
22
23
24
0.04999999999989965 0 0
0.09999999999981467 0 0
0.1499999999997036 0 0
0.1999999999995579 0 0
0.2499999999994121 0 0
0.2999999999992664 0 0
0.3499999999991206 0 0
0.3999999999989749 0 0
0.4499999999988292 0 0
0.4999999999986943 0 0
0.5499999999988151 0 0
0.5999999999989468 0 0
0.6499999999990784 0 0
0.69999999999921 0 0
0.7499999999993417 0 0
0.7999999999994734 0 0
0.8499999999996051 0 0
0.8999999999997368 0 0
0.9499999999998684 0 0
1 2 0 19
25
26
27
28
29
30
31
32
33
34
35
36
37
38
39
40
41
42
43
1 0.04999999999989965 0
1 0.09999999999981467 0
1 0.1499999999997036 0
1 0.1999999999995579 0
1 0.2499999999994121 0
1 0.2999999999992664 0
1 0.3499999999991206 0
1 0.3999999999989749 0
1 0.4499999999988292 0
1 0.4999999999986943 0
1 0.5499999999988151 0
1 0.5999999999989468 0
1 0.6499999999990784 0
1 0.69999999999921 0
1 0.7499999999993417 0
1 0.7999999999994734 0
1 0.8499999999996051 0
1 0.8999999999997368 0
1 0.9499999999998684 0
1 3 0 19
44
45
46
47
48
49
50
51
52
53
54
55
56
57
58
59
60
61
62
0.9499999999997918 1 0
0.8999999999995836 1 0
0.8499999999996529 1 0
0.7999999999999998 1 0
0.7500000000003466 1 0
0.7000000000006934 1 0
0.6500000000010401 1 0
0.6000000000013869 1 0
0.5500000000017335 1 0
0.5000000000020587 1 0
0.4500000000018723 1 0
0.4000000000016644 1 0
0.3500000000014564 1 0
0.3000000000012483 1 0
0.2500000000010403 1 0
0.2000000000008322 1 0
0.1500000000006241 1 0
0.100000000000416 1 0
0.05000000000020799 1 0
1 4 0 19
63
64
65
66
67
68
69
70
71
72
73
74
75
76
77
78
79
80
81
0 0.9499999999997918 0
0 0.8999999999995836 0
0 0.8499999999996529 0
0 0.7999999999999998 0
0 0.7500000000003466 0
0 0.7000000000006934 0
0 0.6500000000010401 0
0 0.6000000000013869 0
0 0.5500000000017335 0
0 0.5000000000020587 0
0 0.4500000000018723 0
0 0.4000000000016644 0
0 0.3500000000014564 0
0 0.3000000000012483 0
0 0.2500000000010403 0
0 0.2000000000008322 0
0 0.1500000000006241 0
0 0.100000000000416 0
0 0.05000000000020799 0
1 5 0 51
82
83
84
85
86
87
88
89
90
91
92
93
94
95
96
97
98
99
100
101
102
103
104
105
106
107
108
109
110
111
112
113
114
115
116
117
118
119
120
121
122
123
124
125
126
127
128
129
130
131
132
0.8112635364298511 0.5323427442423033 0
0.8001494361392146 0.5618800602587691 0
0.7833271326764109 0.58860262457983 0
0.7622162468157325 0.612102812502486 0
0.7379963677753529 0.6323991271465488 0
0.7115297062312591 0.6496747669443338 0
0.6834333656202891 0.6641577369164688 0
0.654146894650334 0.6760585943297478 0
0.623994085631923 0.6855577329899641 0
0.5932193579693316 0.6927978668481246 0
0.5620139135796994 0.6978729634372104 0
0.5305401674159054 0.7008691138048919 0
0.4989379868472913 0.7018117774827084 0
0.4673401559235673 0.7007332508784867 0
0.435879718516876 0.6976005870138292 0
0.4046986415503284 0.6923777961475387 0
0.373958512836069 0.6849929799307802 0
0.3438556437853685 0.6753366608990452 0
0.3146376697222275 0.6632689183607685 0
0.2866367459586443 0.6486030354973152 0
0.2602967886558887 0.6311354956939926 0
0.2362582794084552 0.6106256168925074 0
0.2153950405467404 0.5869064000243331 0
0.1989083254142804 0.5599775633894016 0
0.1882319232506501 0.5302805128951661 0
0.1846672139086806 0.4989381254026248 0
0.1887369224291875 0.4676566565668612 0
0.1998494817758859 0.4381186110285308 0
0.2166741624027839 0.4113982532604207 0
0.237784822333398 0.3878978861733849 0
0.2620022662535649 0.3675989146540865 0
0.2884710690801334 0.3503266146461258 0
0.3165661475775966 0.3358414951582843 0
0.3458526399454864 0.3239405667395789 0
0.3760053828256844 0.3144406969623751 0
0.4067810051929129 0.307204882670681 0
0.4379857347411031 0.3021254083607989 0
0.4694595641485147 0.2991307398074113 0
0.5010617556813661 0.2981882189429503 0
0.5326595644924272 0.299267081066505 0
0.5641198075984891 0.3024019965621506 0
0.5953015310354925 0.3076203985274483 0
0.6260412995215058 0.3150073328148501 0
0.6561438988824658 0.3246641501194331 0
0.6853617896516214 0.336731962488608 0
0.7133637789093181 0.351396005634498 0
0.7397006673701169 0.3688680510321585 0
0.7637424186405111 0.3893740636032139 0
0.7846060119563154 0.4130928997113065 0
0.8010908927591679 0.4400236147529096 0
0.8117698832023209 0.4697197573519604 0
2 1 0 491
133
134
135
136
137
138
139
140
141
142
143
144
145
146
147
148
149
150
151
152
153
154
155
156
157
158
159
160
161
162
163
164
165
166
167
168
169
170
171
172
173
174
175
176
177
178
179
180
181
182
183
184
185
186
187
188
189
190
191
192
193
194
195
196
197
198
199
200
201
202
203
204
205
206
207
208
209
210
211
212
213
214
215
216
217
218
219
220
221
222
223
224
225
226
227
228
229
230
231
232
233
234
235
236
237
238
239
240
241
242
243
244
245
246
247
248
249
250
251
252
253
254
255
256
257
258
259
260
261
262
263
264
265
266
267
268
269
270
271
272
273
274
275
276
277
278
279
280
281
282
283
284
285
286
287
288
289
290
291
292
293
294
295
296
297
298
299
300
301
302
303
304
305
306
307
308
309
310
311
312
313
314
315
316
317
318
319
320
321
322
323
324
325
326
327
328
329
330
331
332
333
334
335
336
337
338
339
340
341
342
343
344
345
346
347
348
349
350
351
352
353
354
355
356
357
358
359
360
361
362
363
364
365
366
367
368
369
370
371
372
373
374
375
376
377
378
379
380
381
382
383
384
385
386
387
388
389
390
391
392
393
394
395
396
397
398
399
400
401
402
403
404
405
406
407
408
409
410
411
412
413
414
415
416
417
418
419
420
421
422
423
424
425
426
427
428
429
430
431
432
433
434
435
436
437
438
439
440
441
442
443
444
445
446
447
448
449
450
451
452
453
454
455
456
457
458
459
460
461
462
463
464
465
466
467
468
469
470
471
472
473
474
475
476
477
478
479
480
481
482
483
484
485
486
487
488
489
490
491
492
493
494
495
496
497
498
499
500
501
502
503
504
505
506
507
508
509
510
511
512
513
514
515
516
517
518
519
520
521
522
523
524
525
526
527
528
529
530
531
532
533
534
535
536
537
538
539
540
541
542
543
544
545
546
547
548
549
550
551
552
553
554
555
556
557
558
559
560
561
562
563
564
565
566
567
568
569
570
571
572
573
574
575
576
577
578
579
580
581
582
583
584
585
586
587
588
589
590
591
592
593
594
595
596
597
598
599
600
601
602
603
604
605
606
607
608
609
610
611
612
613
614
615
616
617
618
619
620
621
622
623
0.2869424095147309 0.6800305939071916 0
0.7130585751057251 0.3199704263414292 0
0.2905711408203836 0.3202682313662299 0
0.7094301737840552 0.6797337063759993 0
0.6178936246620862 0.2840363607981011 0
0.3821060174060922 0.7159637486971806 0
0.6146536280550592 0.7141590729143281 0
0.3853507849806455 0.2858488183213751 0
0.5179119867439819 0.2715226879402036 0
0.4820880799143847 0.7284791466903662 0
0.2300142283662286 0.6412369023062887 0
0.7699836752237429 0.3587629168649705 0
0.2327685763628963 0.3559500826274372 0
0.7672300929122191 0.6440512104571673 0
0.2269894654524465 0.9625364579172091 0
0.7734091088188313 0.04044749469583857 0
0.2264377258796841 0.04256044809595195 0
0.7731541611167725 0.9574180738567148 0
0.9581043266151383 0.228883191110387 0
0.04169795600306773 0.77077757308814 0
0.9567511105826783 0.7726758951226907 0
0.0433012701894021 0.2250000000009362 0
0.5722932306638069 0.9602535892114763 0
0.4280183561952043 0.03975056103878881 0
0.3749894330444766 0.9586162732694916 0
0.6250105279493485 0.04138718027623341 0
0.5505847678160358 0.7269423803973867 0
0.4494176248665583 0.2730681958671927 0
0.1857240043253622 0.4081615617529442 0
0.8142823302542543 0.5918411186574445 0
0.1832953476214364 0.586343090323829 0
0.8167050241451586 0.4136562978535534 0
0.5264841062184455 0.0422653154984605 0
0.4735134299899616 0.9577362489599329 0
0.6755215147052667 0.9575737038153092 0
0.3242292390575912 0.04251431844391625 0
0.8748350204068578 0.9609632621553605 0
0.04250064878166965 0.87511839716379 0
0.04592204113257406 0.1219493994874322 0
0.8721023261690726 0.04655668340523141 0
0.0433012701889216 0.6750000000008667 0
0.9566987298109043 0.3249999999991935 0
0.1569500337998353 0.5219674948330122 0
0.843069027041454 0.4778841516839261 0
0.9582045026271923 0.6754644375440707 0
0.041842667467589 0.3241344999736047 0
0.04000442205974591 0.4270322849352822 0
0.9600111099093243 0.5729734449584269 0
0.04195092120397788 0.5750006521776059 0
0.9580463359823108 0.4247304292353337 0
0.9577132126115445 0.1252791225643771 0
0.1282783627577148 0.9536035233112123 0
0.9546341255727638 0.8778231908758869 0
0.1251760573824031 0.03899497463991546 0
0.8407307681200763 0.5185818849906998 0
0.87168669324597 0.5005531638159433 0
0.8745839475461802 0.4711205714512076 0
0.8661428661850781 0.5374553049293634 0
0.9071969872382244 0.4812117303455916 0
0.1592903110855871 0.48121685086022 0
0.1283365105660789 0.499389847897581 0
0.1254340694348285 0.5288380069716948 0
0.133868475758121 0.4625047842196635 0
0.09281229106375473 0.5187740601426322 0
0.1695759765100182 0.5567087178381367 0
0.1492895384538072 0.5846070365594844 0
0.1675554572022804 0.6219672309928443 0
0.1268167581633821 0.6125546244572945 0
0.1411923487418151 0.6483112170246597 0
0.1032743341088608 0.6431676048800207 0
0.1191940941816751 0.6795834371087974 0
0.1563003393395755 0.6843949421768077 0
0.1352799066058258 0.716259293873589 0
0.1740539076828889 0.7203872906857591 0
0.1522988697235873 0.7528859523200744 0
0.1925716746839863 0.7564975667302414 0
0.1695664334111428 0.7898665211104334 0
0.2104828171988891 0.7936898730156159 0
0.1870803976529639 0.8284305000626727 0
0.2291662057966114 0.8312399235030989 0
0.2526651779071258 0.7967790977350221 0
0.2709009371165487 0.8340650217599545 0
0.2943918213574055 0.8003384345181088 0
0.3119152421459073 0.8370915115709485 0
0.3347852535916327 0.804357140253146 0
0.3523843995049981 0.8399150323772324 0
0.3750710487978368 0.8072065979168913 0
0.3924961525922953 0.8428146757258301 0
0.4149504810530654 0.8110766769684221 0
0.4324116064631149 0.8454245819175253 0
0.4549141773497721 0.8124302272666998 0
0.472276485425675 0.847773630935974 0
0.4949900750640528 0.8155933302181251 0
0.5121935664277968 0.8507902867729022 0
0.5349634328415711 0.8185160980984533 0
0.5521752135838531 0.8545614967129074 0
0.5750962198208126 0.8215133716691725 0
0.5924160617777966 0.8578310475036 0
0.6158452436312429 0.8240722161992571 0
0.3173630303644337 0.7672273663462131 0
0.288963670387066 0.8717541152311727 0
0.6335002723697321 0.8638980825197602 0
0.656175229032728 0.8270432242641621 0
0.6758507187526317 0.869797875981469 0
0.6971908184271333 0.8308728344455918 0
0.6797866344948711 0.793555085348026 0
0.7195324908210829 0.7963841040630514 0
0.7379130743535016 0.8328852037627091 0
0.7603861020259266 0.7981614990104373 0
0.7787011489275636 0.8345801423727404 0
0.8010015289460903 0.7988608786334047 0
0.7827249750128682 0.7629507412123459 0
0.8230811046746889 0.7634978911671945 0
0.8249187080206063 0.8363508509031622 0
0.8065985964980543 0.7287136593682148 0
0.8454048553609745 0.7290423758378604 0
0.1443680290580112 0.8244123492683224 0
0.8267761399572056 0.687694568763326 0
0.2129881625887154 0.7264599672926004 0
0.701439781638824 0.7612939444484756 0
0.1626319041776669 0.8645399696553487 0
0.8668634958819503 0.6936915042307615 0
0.8509803633530648 0.6564894099127496 0
0.8693110645735973 0.7668204825088212 0
0.5979838567931992 0.7887291894362845 0
0.5275315369556677 0.8861085042564116 0
0.7562254379313093 0.8703413483143878 0
0.4398098925407353 0.7812457724241685 0
0.7654836994348205 0.7223836744272552 0
0.4128384937121853 0.8796606007676848 0
0.5166863778493369 0.7846751315431983 0
0.6622602590382973 0.7590807166951343 0
0.09804185014179406 0.7109458881963167 0
0.8891454628825521 0.6608569550024986 0
0.8700330188594535 0.6249167060103363 0
0.1187196343732486 0.8599092141910483 0
0.9102828126050292 0.6255337151288676 0
0.6097358124768932 0.8952784352719542 0
0.6806634127358271 0.7281625342632848 0
0.1005352224649052 0.8215662094560952 0
0.8922130086449678 0.5902493934444276 0
0.8304288954938479 0.4432670491010272 0
0.8507126575646994 0.4153882253586279 0
0.832443452576066 0.378030695016109 0
0.8731827080843232 0.387442488424954 0
0.8588044139459715 0.3516865950198748 0
0.896722877116686 0.3568275624318285 0
0.8808007315425886 0.3204127072929447 0
0.843693966355661 0.3156040591870027 0
0.8647118562045097 0.2837383417653426 0
0.8259381386988178 0.2796132301332776 0
0.8476898918289599 0.2471138439967978 0
0.8074192134164531 0.2435054163838661 0
0.8304194219286858 0.210137136589241 0
0.7895071717018981 0.206319101294792 0
0.8129270247618346 0.172416637006581 0
0.7714001224540412 0.1686806341411883 0
0.7473774897373544 0.2032280423289727 0
0.7297293151290494 0.1652707939869417 0
0.7057180606198514 0.1995668003493171 0
0.6882025704517571 0.1627993364684515 0
0.6652514435790213 0.1956243133565416 0
0.6476368288983562 0.1600839092654788 0
0.6249311613954961 0.1928165044956817 0
0.6075043088527172 0.1572121613830239 0
0.5850508569792441 0.1889521225776366 0
0.5675867926464635 0.1546068712913918 0
0.5450873244892448 0.1876073912628484 0
0.5277228605559949 0.152263494207782 0
0.5050136443152911 0.1844476874206661 0
0.4878079607530873 0.1492511163154999 0
0.4650426707603986 0.1815289735016243 0
0.4478284210762131 0.1454879040565483 0
0.424912439199346 0.1785365219753704 0
0.4075901894671926 0.1422235104036279 0
0.3841662407444271 0.1759822025631329 0
0.6826364608171495 0.2327943277324227 0
0.7110238992458543 0.1282690556276823 0
0.3663844601447473 0.1362361493438365 0
0.3440620700064006 0.1731086405956802 0
0.3239102035744602 0.1303598110871375 0
0.3028222423092954 0.1692216495691596 0
0.3202696110163034 0.2065238311279476 0
0.2804961733385161 0.2036871116228135 0
0.2621083659814544 0.1671893659644367 0
0.2396419298546141 0.2019080978164184 0
0.221395872317076 0.1655404773781966 0
0.1990628503626269 0.2012322080844518 0
0.2173137600347944 0.2371193160001218 0
0.1769835474773557 0.2365899971791834 0
0.1755468587161888 0.1637634293658989 0
0.1934401952085719 0.2713514962069403 0
0.154724832908372 0.2710819615680384 0
0.8556109780299651 0.1757340549987987 0
0.1732672437479351 0.3123620578087972 0
0.7870081126237178 0.273542115725882 0
0.298592397413646 0.2387682789376671 0
0.8374971554305763 0.1362654532002944 0
0.1332821030656551 0.3064365136930305 0
0.1490756639324178 0.3435677597684842 0
0.1310934570949132 0.2331142958426379 0
0.4020297863843687 0.2113206386305519 0
0.4724663111088019 0.1139255513245182 0
0.2437936530114303 0.1297321703257336 0
0.5601914012733377 0.2187807133655707 0
0.5871564106194406 0.1203682081750183 0
0.2345360896724535 0.2776581983852512 0
0.4833195064149796 0.2153611398244818 0
0.3377640762617248 0.2409723830541695 0
0.9019457703882356 0.289071654241473 0
0.1109102749933852 0.3392093623599958 0
0.1300130485126887 0.375126821322891 0
0.8812727275132528 0.1402580119174215 0
0.08976038399070253 0.374506960738844 0
0.3902678232612155 0.1047811697953119 0
0.3193561073334946 0.2718729559910804 0
0.8994509034820231 0.1784833497714913 0
0.1078505554790843 0.4098075595054356 0
0.165192414610961 0.4427822248698248 0
0.8348182597066167 0.557185379767303 0
0.1121146072889719 0.5779837188122248 0
0.8878875702625924 0.4220126212194817 0
0.08706116622495715 0.3015741066015152 0
0.9132987820071448 0.6980435153839599 0
0.7950163654671996 0.383804323578012 0
0.8026060757094109 0.3499224018682726 0
0.7763101909089738 0.3255951133451631 0
0.2049828362446484 0.6161945091084082 0
0.1973909110752918 0.650076914912556 0
0.2236858644514031 0.6744043107628306 0
0.7969104045048379 0.6234180098761899 0
0.2030950112883956 0.3765881217481867 0
0.7972101946792162 0.6631466654450886 0
0.7675055719811176 0.6814125049106601 0
0.2028032307474159 0.3368762764417959 0
0.2325014948880722 0.3186045579133981 0
0.2781826661603524 0.2699790694511862 0
0.7218349866606905 0.7300567629447059 0
0.7423216043620294 0.3380661309653638 0
0.741820435034106 0.3044680294094783 0
0.7110867690624731 0.2880791433389756 0
0.7431331073535025 0.2690630950135346 0
0.257677539476675 0.6619347399322512 0
0.2581811405256367 0.6955339183311411 0
0.2889127020168482 0.7119234114533195 0
0.2568726580014953 0.7309394554778771 0
0.831285219889679 0.6228598478833175 0
0.1687312922992726 0.3771535380805697 0
0.8655645353782392 0.09450771095085948 0
0.818886453093234 0.1021644220056276 0
0.1345535854258117 0.9056330115277161 0
0.1840116426489741 0.901159646000768 0
0.3168589692893267 0.6945300445897953 0
0.3476112900687744 0.7075651725168637 0
0.356789819391389 0.7382173641279082 0
0.3910467292755594 0.7475570633529272 0
0.6831400839967687 0.3054712959612829 0
0.652387066469672 0.2924360951885316 0
0.6432102455318478 0.2617859742226744 0
0.6089540435220065 0.2524470658377561 0
0.5221127032432794 0.2161849989998549 0
0.4778893772409321 0.7838448368916506 0
0.4434672971261556 0.2127269652753512 0
0.4198970647271322 0.2452547201235539 0
0.3804247232651077 0.2400249641772117 0
0.3596918127709813 0.2099568904669675 0
0.5565415375327369 0.7873139070819422 0
0.5801186352721518 0.7547907659125319 0
0.6195922374794485 0.7600191392714337 0
0.640340678402722 0.7901037164735334 0
0.03861680486599527 0.6237630686645274 0
0.9612624877599678 0.3758652360920834 0
0.351191127725693 0.2937266903022626 0
0.6488163130868683 0.7062834564819701 0
0.03889083777951421 0.7237218648627477 0
0.9625051171933979 0.2761863211525933 0
0.04305523270238937 0.2753310481059045 0
0.08507592475815613 0.2523223426907433 0
0.08760344934883843 0.2067537947506375 0
0.1306649341666121 0.184870762358791 0
0.09285129799283208 0.1610323492866506 0
0.1345754698834635 0.1412948243428023 0
0.1704387747090768 0.1172903864437174 0
0.09637362686824054 0.1145081800914992 0
0.06342354518853885 0.07649774384984173 0
0.9571240601648754 0.7235184631275843 0
0.9151783215753132 0.7469701783030197 0
0.912385673293869 0.7925377748268291 0
0.8698136611608654 0.8149238506236798 0
0.9079157515858901 0.8382973874243733 0
0.8665074658364413 0.8586480435264201 0
0.8294468137956045 0.8831315637367272 0
0.9050956538236118 0.8848620901795247 0
0.9369674602518467 0.9232473621783401 0
0.9141081998125042 0.1087845822322144 0
0.086238678419888 0.891686788296073 0
0.9561186147905143 0.8249999999995392 0
0.04481792445210608 0.1750000000007282 0
0.5510072570528047 0.2748320313640059 0
0.4489913086661777 0.7251754443602751 0
0.4843887804748054 0.2717779684707307 0
0.5156119728378896 0.7282298690475566 0
0.4771730179022023 0.04025126383387256 0
0.5228756095089057 0.9597555336045103 0
0.5754160043424785 0.04106463222655927 0
0.5508422425344179 0.08550656361482585 0
0.4245835396515898 0.9589396628842235 0
0.4491556696498468 0.9145011680458041 0
0.6259112557973915 0.9572248435903029 0
0.3759584137446524 0.0427479297550761 0
0.3208080290579808 0.7288665071590981 0
0.6791894179428922 0.2711361860448929 0
0.7242516003605448 0.9578295960790417 0
0.6984486130543273 0.9139599805363792 0
0.6531427885733715 0.9152645456169886 0
0.275412279803807 0.04223692479278267 0
0.301208455585815 0.08624226887389488 0
0.3461175993762894 0.08524958671612226 0
0.2581271694123961 0.238186678702243 0
0.741900339265702 0.7618717876843785 0
0.0465128794118679 0.5237238450906753 0
0.04004764189691909 0.4743892069484129 0
0.07752037917809898 0.4475474753571771 0
0.9534888446743695 0.4762388424422112 0
0.9599587704158774 0.5256091784993303 0
0.9225036906982393 0.5524778389834373 0
0.2746684378956303 0.7661708318227851 0
0.7253562924634306 0.2338204732848173 0
0.7433353601857811 0.9134725391208613 0
0.9495964012618201 0.178403473000467 0
0.05039846487187458 0.8216097496924802 0
0.04565294941695784 0.3744307470520361 0
0.9543727661470875 0.6255344989610166 0
0.2564618769398349 0.08651324218167618 0
0.8217264176870931 0.038490517001516 0
0.1787927344671519 0.9617194923505874 0
0.2281420444011855 0.8999923435456326 0
0.8234759296198682 0.9589330701411845 0
0.1764306483983799 0.04104749836066943 0
0.6741623677446987 0.04209940517737158 0
0.6496653212784593 0.08347313760478065 0
0.7239136635541108 0.04180458142079121 0
0.7491102643206536 0.08461653513609768 0
0.6966811757650189 0.08386470550069211 0
0.3258392695235999 0.9579021186798662 0
0.3503339092100248 0.9165345711295079 0
0.2768221114827129 0.9566719464297009 0
0.3071104837049697 0.9131066531545704 0
0.5847022730109344 0.2787693565071082 0
0.4152967570388733 0.7212358643696473 0
0.848649788052794 0.5924501197040141 0
0.151387151651023 0.4075667579101099 0
0.2611572582300708 0.3358739246465326 0
0.2641709082478405 0.3024698524600023 0
0.7388439809404558 0.6641292324420645 0
0.7358355092966284 0.6975435565860426 0
0.9239073739464178 0.03817805747304218 0
0.04903466718231594 0.9242319186522141 0
0.7557326346640079 0.1300392713120721 0
0.4982616259804378 0.07957730695478001 0
0.5017446427283947 0.9204392897423559 0
0.7955596502406889 0.9104846063904333 0
0.2325554114417695 0.7611705986319002 0
0.7674471862233985 0.2388324482402471 0
0.204391037061287 0.08968949393684408 0
0.5820117621097416 0.7223598999050379 0
0.4179844604786163 0.2776413291682128 0
0.6790961443441548 0.6954699337261724 0
0.6705207987352648 0.1238230374883108 0
0.3301305614209796 0.8756642946649313 0
0.3209033479626081 0.304529317894748 0
0.7158800222313476 0.8682993538529338 0
0.2840998280720081 0.1317768772936281 0
0.9186329420434746 0.3962028271626863 0
0.2063109825244975 0.8661411652646275 0
0.8711204326951326 0.2138959844394407 0
0.1288631607039932 0.7861030254260144 0
0.951286741651978 0.07534136443736612 0
0.6299149967721429 0.1244480804627793 0
0.370075663572912 0.8755838845261573 0
0.07741060004917255 0.9609540190774282 0
0.4307244923174454 0.1099041871812304 0
0.5692773778601043 0.8901374374232718 0
0.8866630839570259 0.251393748759522 0
0.1131639333076362 0.7486850936810978 0
0.08123756499663472 0.6036239006634505 0
0.6008385569321379 0.07967524452576202 0
0.7961511520041207 0.1353583384754507 0
0.39916049850278 0.9203437493746258 0
0.3578142243993463 0.773070657363071 0
0.6421893387753974 0.2269400461530156 0
0.0787996690286029 0.5559618422946636 0
0.9211884421631327 0.4439769599091128 0
0.53611057062042 0.7562616606767649 0
0.4638949516245555 0.2437645267052353 0
0.2490633795748664 0.8675481477824833 0
0.1512602467714235 0.07823462845783015 0
0.8488986164912067 0.9218703809192382 0
0.4524689379790863 0.0755245424645932 0
0.5470887448814657 0.9238405543221647 0
0.4624928195991341 0.7538506095150949 0
0.5375066931076389 0.2461661480488206 0
0.4984798663436829 0.7558902090607719 0
0.5015224369348734 0.2441295783315545 0
0.9228256699673034 0.9628031756144828 0
0.9168639718028527 0.3243419175555759 0
0.08225269747110676 0.6748681472470935 0
0.07809972647522812 0.03734549917968262 0
0.3986934616698171 0.7801017240019463 0
0.6013086446659029 0.2199141812786795 0
0.5490666829880614 0.1251195650769327 0
0.4509306125910343 0.8749038517534655 0
0.9149348651241764 0.2177102839657839 0
0.08483519291766614 0.7823342741450517 0
0.1949887144296581 0.6874949929193063 0
0.8050069675945983 0.3125052633800591 0
0.4260551614650495 0.7515277463373431 0
0.5739450521054374 0.2484849160669902 0
0.9220698562326362 0.1468379361570692 0
0.07386287554868079 0.7412764915423939 0
0.0779080343373828 0.8531536593955749 0
0.5112352391905355 0.119370202362424 0
0.4887634845929386 0.8806543204976895 0
0.102208518781259 0.4771818518531532 0
0.8978065060058888 0.5228129036016862 0
0.6386719180481242 0.7353289699333698 0
0.361343749288463 0.2646983212425482 0
0.8821033536511848 0.7275558941567287 0
0.9260624368856909 0.2587812707661683 0
0.1183166403723324 0.272354749107188 0
0.7969703517831546 0.86697770234349 0
0.1335145514092166 0.4327156353197343 0
0.866513835487276 0.5672911901695979 0
0.7948121581509824 0.6971555785169969 0
0.2031132391630118 0.1332031914900781 0
0.2052011625816844 0.3028841415967974 0
0.07228998664008951 0.4061456755297857 0
0.9277503524209922 0.5938871899098916 0
0.8376252134751697 0.7960907907672525 0
0.8933052894305409 0.9244969566608626 0
0.1626703295635393 0.2039141385661926 0
0.07504548841871833 0.3427711353451992 0
0.9250608652538012 0.6570866244040827 0
0.1073762200979846 0.07547920615421418 0
0.7825760861691868 0.1047427757521254 0
0.7034271301895847 0.7076402050596465 0
0.2965773747696293 0.2923744268888169 0
0.4090674396146219 0.07464846236310355 0
0.5897251763846973 0.9245140493792754 0
0.2679944155940659 0.9058697276603958 0
0.963313050370476 0.03668694962946215 0
0.03660254037858077 0.9633974596214192 0
0.2938166966272029 0.7411236807927375 0
0.706181455905464 0.2588826659539279 0
0.9637624289174059 0.9637624289174269 0
0.03623725464628214 0.03623725464636701 0
0.06974474637446117 0.6434222347679652 0
0.07157816154974246 0.4919045928507141 0
0.9284277624745505 0.5081068040903169 0
0.1691273662982645 0.6562325594195353 0
0.8308691735055566 0.3437672582611097 0
0.2308457267549108 0.7011486891989283 0
0.7691522301411133 0.2988528427311054 0
0.8614734525715373 0.4443619495792055 0
0.1385351688172754 0.5556192691366072 0
0.9300362017067769 0.3556475086482735 0
0.8890359814042901 0.5540573262257025 0
0.110992496121156 0.4459514612510327 0
0.8699039341286754 0.8939325801867628 0
0.6033287179480127 0.7372013606219768 0
0.2044943566870534 0.9313704013461114 0
0.9328152052162162 0.2946762327430008 0
0.3966779854996208 0.2628266048630898 0
0.02749580171942821 0.07598820387609821 0
0.1309857249245044 0.1063081058042183 0
0.9027349877661378 0.07061024759999254 0
0.9727257569112144 0.923962549180644 0
0.7947951110373113 0.07236460517926385 0
0.2457920575218437 0.9332048296264845 0
0.8224495953321662 0.6498384769598684 0
0.09772148994003785 0.9292224702916355 0
0.1775800649459686 0.3501934484460418 0
0.1071013712844949 0.5489739180770107 0
0.8929074975285518 0.4510037470187438 0
0.3786942697049578 0.07603667129759156 0
0.06537257608839217 0.7016242505191945 0
0.6216193647723163 0.9245550915001495 0
0.3367689467767523 0.7504819529194305 0
0.663229885716591 0.2495277373897064 0
0.8381572588111136 0.0715940078071842 0
0.1610077920652252 0.9287370637051681 0
2 2 0 218
624
625
626
627
628
629
630
631
632
633
634
635
636
637
638
639
640
641
642
643
644
645
646
647
648
649
650
651
652
653
654
655
656
657
658
659
660
661
662
663
664
665
666
667
668
669
670
671
672
673
674
675
676
677
678
679
680
681
682
683
684
685
686
687
688
689
690
691
692
693
694
695
696
697
698
699
700
701
702
703
704
705
706
707
708
709
710
711
712
713
714
715
716
717
718
719
720
721
722
723
724
725
726
727
728
729
730
731
732
733
734
735
736
737
738
739
740
741
742
743
744
745
746
747
748
749
750
751
752
753
754
755
756
757
758
759
760
761
762
763
764
765
766
767
768
769
770
771
772
773
774
775
776
777
778
779
780
781
782
783
784
785
786
787
788
789
790
791
792
793
794
795
796
797
798
799
800
801
802
803
804
805
806
807
808
809
810
811
812
813
814
815
816
817
818
819
820
821
822
823
824
825
826
827
828
829
830
831
832
833
834
835
836
837
838
839
840
841
0.4856703255751628 0.3248413190826031 -4.304956871843772e-18
0.6037003120323311 0.6634935596180277 1.201446894636069e-17
0.3707021936735918 0.6569283840550164 -9.007224421567228e-18
0.6042742698310418 0.3379347563377381 6.560698966855989e-18
0.4840730996850863 0.6739080818383572 1.454504228085916e-18
0.369155924480026 0.3453029892887244 -1.441565911588639e-17
0.7293313570301072 0.6000934343849413 2.221725454089355e-17
0.2475769204787809 0.4179264069750624 -2.409882162309271e-17
0.7096284321386824 0.3823584209243516 1.676704037407936e-17
0.2626561992156598 0.6051311791602434 -1.957983569469369e-17
0.7806051430585101 0.4669709897891068 2.456774365134689e-17
0.2135928723634619 0.5115221903016421 -2.556602971177591e-17
0.7833514227582575 0.5400174844862187 2.604944599056951e-17
0.5462539902419892 0.6739685470108966 7.036019714011237e-18
0.5464069472502074 0.3265989506080353 1.175640606831939e-18
0.4267822794554 0.3316889618632671 -9.474134554495954e-18
0.4222186801002601 0.6692695367736822 -4.175128229630119e-18
0.6591374851648827 0.6454087977768211 1.668392172203639e-17
0.3140031175071636 0.3669866271068878 -1.899873324585667e-17
0.6630120643796761 0.355521554954616 1.212958464612766e-17
0.3117786004781796 0.6323006161735457 -1.471184935065581e-17
0.7520971464417369 0.4160387917071479 2.114798571241309e-17
0.2322722211085627 0.5581600745801913 -2.310097259582878e-17
0.2227309219092899 0.4629180120012935 -2.556783407995311e-17
0.5155561151387917 0.6739649022745741 4.280943224098822e-18
0.5010214960144207 0.6466788622997413 2.515103973656829e-18
0.4693593853627875 0.6460402544397272 -3.372462898347326e-19
0.4864596582290907 0.6193257440799641 7.456876444605105e-19
0.454892296767545 0.6174679715895629 -2.118775625443472e-18
0.4719723196185985 0.5912574073795319 -1.029137196308645e-18
0.5035441980100517 0.5928474101040331 1.831203397039074e-18
0.4890676276747348 0.5647506918930723 5.686502865878533e-20
0.4574903366811728 0.5632360912980161 -2.802686255878475e-18
0.5206447265971929 0.5662810383146919 2.916665341411175e-18
0.5061673618508046 0.5381798596693554 1.142180250671634e-18
0.5377456083884985 0.5396993274842007 4.001899597476112e-18
0.523268789192736 0.5115959405296286 2.227426124723449e-18
0.5548455211795361 0.5131125192729489 5.086960691558628e-18
0.5403714525651281 0.4850095925487669 3.312741855391566e-18
0.5087942738289906 0.4834924012655816 4.531568363397991e-19
0.5719468022810794 0.4865259109871271 6.172147966974242e-18
0.5864208641276479 0.5146286037775202 7.946362239875385e-18
0.6035215428146674 0.4880429458825671 9.031511522277604e-18
0.6179946218453825 0.5161456141406304 1.080563717643187e-17
0.6350938938274826 0.4895615696375713 1.189068749539934e-17
0.5574734190839151 0.4584254438456052 4.398032236493567e-18
0.600895824092716 0.5427325063784423 9.720677573615047e-18
0.6495657115978584 0.5176609491113673 1.366464434218408e-17
0.6206234033326608 0.4614637271369395 1.011687575703071e-17
0.6666635387203679 0.4910791969458654 1.474960375462381e-17
0.6811332718622022 0.5191725534966292 1.652327166497869e-17
0.6640392350300734 0.545759645446239 1.543874271343341e-17
0.5351201889149187 0.5944017061494631 4.691309263627934e-18
0.6982271752596531 0.4925962275756252 1.760797069750629e-17
0.6837596358852843 0.4645039699338418 1.58345182520709e-17
0.7126941531939373 0.5206845506619826 1.938130622156611e-17
0.7151300878790936 0.4661226860139925 1.867726715990158e-17
0.7006215670221004 0.4382658614884144 1.690411801848483e-17
0.6692528707394035 0.4364665883141393 1.405847341345798e-17
0.6863888037416432 0.4098352296330059 1.514601382181159e-17
0.6562445715784745 0.407936220060467 1.240857354023996e-17
0.5180737600202067 0.6202356594801332 3.598317177590903e-18
0.549651683665929 0.6216036700872444 6.455446366987017e-18
0.5667088067084382 0.5957629787625319 7.549284270024221e-18
0.5796945806457514 0.6226353897993203 9.169126122531867e-18
0.5980304735771081 0.5971703373231777 1.038408079437525e-17
0.6099278936899453 0.6299347452320517 1.200588226029568e-17
0.6286422775546761 0.5991822988789631 1.316539387331403e-17
0.7297517807891838 0.4941323689701972 2.04631579269118e-17
0.7427282198915646 0.5212254131575338 2.208589297583724e-17
0.7260666714968697 0.548064601286727 2.104444118809314e-17
0.7593694486543673 0.4931723346257875 2.310499396659268e-17
0.748267484517923 0.4663893181640498 2.165572839904264e-17
0.5522231789559471 0.5677798109723844 5.776053199592506e-18
0.4403942872811804 0.5897449309438894 -3.888719093507906e-18
0.4259142803553551 0.5617215180554072 -5.662126271252635e-18
0.4430126344344066 0.5351540367078135 -4.576878243427805e-18
0.4114395741989685 0.5336354379363998 -7.436117444041899e-18
0.4285385679871046 0.5070530861852253 -6.35106346704432e-18
0.3969660156305407 0.5055374624700262 -9.21020677856375e-18
0.4140651936696483 0.4789534550167051 -8.125164264094049e-18
0.3824936797839452 0.4774376824190643 -1.098421689453321e-17
0.3653959395964749 0.5040197631956196 -1.206916294799664e-17
0.3509242538875195 0.4759239893495579 -1.384304697071955e-17
0.3338282668852641 0.5025022859529606 -1.492789967394157e-17
0.3995918482648275 0.4508530089529818 -9.899276246428117e-18
0.3943387806600866 0.5602189683514949 -8.521313010166262e-18
0.4311640604679254 0.4523681257037102 -7.040172035254319e-18
0.4166906749591378 0.4242669560068689 -8.814299853579648e-18
0.448264646410472 0.4257820902932523 -5.955037460188941e-18
0.3193584860547534 0.4744107339342548 -1.670154134908301e-17
0.3022664369284182 0.5009867358937311 -1.778607944626238e-17
0.3167345391437026 0.5290760624284758 -1.601262605379477e-17
0.3851179921011584 0.4227525276424981 -1.167343466341314e-17
0.2877987018937379 0.4728979340655818 -1.955949101278011e-17
0.3048879442298006 0.4463224709092515 -1.84751957028121e-17
0.4337904894900538 0.3976795617164333 -7.729257488705751e-18
0.4653665914741309 0.3991955555180788 -4.8697893536733e-18
0.4798399027150927 0.4272978239153142 -3.095649621299037e-18
0.4969431266660319 0.4007112615194978 -2.010287206697607e-18
0.4233181913102284 0.6158344278655541 -4.980052378435295e-18
0.2851740598426991 0.5275604569308419 -1.887068554748587e-17
0.3002416214381252 0.5553402427204323 -1.704866741902966e-17
0.3313018192747021 0.5571164390277256 -1.423109958485853e-17
0.4601124991918727 0.5085675211969789 -3.491816510534498e-18
0.5114188401456423 0.4288116958967393 -2.359628964857911e-19
0.5285206328278469 0.4022262738821666 8.492903514461207e-19
0.5134395229714037 0.3752178146971358 -9.609003557076058e-19
0.5449114555252271 0.3770128954656338 1.893938408372985e-18
0.5599797405530869 0.4039704796227443 3.702117827663094e-18
0.5757676425061228 0.3789712247814582 4.696276976519853e-18
0.5914163983910832 0.4055985220746708 6.550966163697164e-18
0.4528531165916199 0.3724812628355872 -6.444570382794332e-18
0.3171772542383381 0.5825642218624543 -1.506839599677276e-17
0.3456709795335061 0.5852606318660123 -1.246559804517886e-17
0.6074859855776198 0.3737535458930642 7.454642613221291e-18
0.4209698617779546 0.3642414427144237 -9.445305867206724e-18
0.2668251566374469 0.5552047892469245 -2.004995567584985e-17
0.2461618637625203 0.5267662534703643 -2.238530854210662e-17
0.2716782941657829 0.4454734050539598 -2.146999050479011e-17
0.2854205878498899 0.4194185088378897 -2.067726789797351e-17
0.3194379162376202 0.4196874274887586 -1.761979754255701e-17
0.2560809701809538 0.4706901030076318 -2.244336900527354e-17
0.2696506837015929 0.499367195592512 -2.074060323253655e-17
0.6153724156536803 0.5708388512577957 1.149518063627506e-17
0.6467438564920531 0.5723906155571921 1.433688611776811e-17
0.6588996434115758 0.5991273924485874 1.587994625741489e-17
0.6780610240494993 0.5736444261067656 1.716868231132653e-17
0.6915941699352086 0.6040158468474228 1.889681779226425e-17
0.7091699373732339 0.574208022539357 1.997011680500118e-17
0.4088197466776066 0.58820782486595 -6.748404114566067e-18
0.3917985235551116 0.6131215304630742 -7.854695699017216e-18
0.3798664072446706 0.5321151572867392 -1.029539466323856e-17
0.3680210834711852 0.4493406021627644 -1.275820473212731e-17
0.5890484917003468 0.4599432331332177 7.257438351899691e-18
0.5693217801593156 0.5412116813924144 6.861312444092368e-18
0.6951940488343026 0.5469222999229501 1.825442681739983e-17
0.6324352774519606 0.5442546969819444 1.257696142661792e-17
0.6232087814864437 0.405965863855259 9.410420695197293e-18
0.4026637875627682 0.3953865354526087 -1.056153352958059e-17
0.3716298880345915 0.3952515436095556 -1.334898801658188e-17
0.4745902085128989 0.5366675109279474 -1.717320600399929e-18
0.4916903509323721 0.5100803226991516 -6.322453242500646e-19
0.4772120936172852 0.4819809706923516 -2.406779630644994e-18
0.4831669209584336 0.3743974230164729 -3.691621634628556e-18
0.3772541069623825 0.5864811506042499 -9.610495960732946e-18
0.3600934133197536 0.6121788064288435 -1.071604768811285e-17
0.3534531381711358 0.4212756106141179 -1.454020714232366e-17
0.3367279397165502 0.3880800801057506 -1.660257332187695e-17
0.5837587465245342 0.5692493610144577 8.63109815299574e-18
0.6061148795541598 0.4333056828944459 8.338632652974332e-18
0.4456377850752641 0.4804675824084432 -5.266042751276586e-18
0.3360138036753358 0.4478268057431175 -1.565633223993711e-17
0.6521874744384423 0.4629946066718066 1.297551588900057e-17
0.3483144496965141 0.5305859369647509 -1.315291959283783e-17
0.5745048754868407 0.4319280305497242 5.478461326368168e-18
0.5429664962375021 0.4303785293267171 2.62181204117159e-18
0.4627372012990676 0.4538825510299431 -4.180996175486948e-18
0.4943172968222933 0.4553957824938754 -1.321216347672097e-18
0.5258902964472452 0.4569189075628809 1.538093954206439e-18
0.6379386635215976 0.4346887814888429 1.121808199131681e-17
0.362791090561977 0.5586297140168288 -1.13794701428355e-17
0.6435437819627192 0.3790823931250218 1.078080168541512e-17
0.4022128335378726 0.6422760128093014 -6.427042337524547e-18
0.5615160858043041 0.6473448027465072 7.955519264219046e-18
0.3875382582248636 0.3679519950760459 -1.238291585145978e-17
0.7345783190627527 0.4395684557036136 1.997363159370842e-17
0.7190664356422297 0.4131353523289092 1.81345100452295e-17
0.6766481462175509 0.381462653913806 1.379204038338651e-17
0.2372582094901984 0.4941252700078369 -2.37363440333364e-17
0.2689875106374122 0.3925378203451043 -2.260663178109687e-17
0.515975199568156 0.3241681187216134 -1.596596321746234e-18
0.4561504797112133 0.3259349872591056 -6.935753986114508e-18
0.4527944808656622 0.6715588246272897 -1.392356642131099e-18
0.6313996679455592 0.350814983925315 9.212905769732471e-18
0.5765610159705582 0.3305778080082378 3.949134425987966e-18
0.3978721186594737 0.3384718280959196 -1.195400904968285e-17
0.6318431962122119 0.6541342914480953 1.438191575191407e-17
0.3407118457701401 0.3529398748287899 -1.683926287798179e-17
0.3440038590292042 0.6402712469845648 -1.168497241971311e-17
0.6873881724353924 0.6347000366877025 1.903822317413526e-17
0.437676525393829 0.6427909993355727 -3.235605419028739e-18
0.3002225380035258 0.39230045092044 -1.980742357494508e-17
0.2858883919736993 0.6174507662654266 -1.72865094957597e-17
0.5323472205932409 0.6464909820631497 5.323288776277837e-18
0.2436890097955322 0.4461423099083882 -2.397060853342924e-17
0.3318870876498718 0.6101337464930923 -1.328203814960687e-17
0.7563720680246834 0.5808211037956608 2.43181532363953e-17
0.7890883665130994 0.4909852860226149 2.573516768250844e-17
0.2834414467744331 0.586659729531095 -1.802679740834472e-17
0.5304283607608816 0.3512633529451731 1.58705823470074e-19
0.2494747239485497 0.5837812982392157 -2.112385362025164e-17
0.4999541556772483 0.3496967667833423 -2.602726881231093e-18
0.7115679546814643 0.6241766424021898 2.103031133748918e-17
0.7549193932721958 0.5492543790700772 2.365398015091979e-17
0.6418053526760745 0.6249112538464279 1.478181169031777e-17
0.5601427477814638 0.3532064518225759 2.858314736989639e-18
0.7687591805318478 0.4396496030974366 2.304260314820136e-17
0.3947581723396244 0.6691689419432638 -6.641303046179244e-18
0.4704883334552303 0.3491480547588974 -5.256448642132802e-18
0.5755561359723614 0.6702610396197982 9.603078416067708e-18
0.2141375180108289 0.5381400314713264 -2.506703555935952e-17
0.7376312259462364 0.3949626892278228 1.949332348655141e-17
0.3611527712452343 0.3699052965817732 -1.471787983675735e-17
0.2089233573735172 0.4866984526811158 -2.640487610143796e-17
0.7750188961323305 0.5642152216560711 2.571082390775328e-17
0.7932521377584157 0.5163015291340185 2.653695392928255e-17
0.73436131405436 0.5721704365039986 2.219648876445552e-17
0.5848463323333614 0.3548887573686149 5.10381354391496e-18
0.3078096529211086 0.607170266174991 -1.549300743055279e-17
0.4454488141982837 0.3486989418862562 -7.511242686548855e-18
0.3747313383654377 0.6320649033502691 -9.066072013487611e-18
0.2245744681995031 0.4346766317672412 -2.587995174753266e-17
0.7683642053104205 0.5182826144577382 2.433685946805528e-17
0.6905492812758068 0.3602780813648497 1.468137677192966e-17
0.6667171817340473 0.6226599317510986 1.697948100819487e-17
0.5866331562065125 0.6460884980580235 1.018843418642831e-17
0.2859235559872434 0.3734564221542922 -2.140935879930179e-17
$EndNodes
$Elements
6 1680 1 1680
1 1 1 20
1 1 6 
2 6 7 
3 7 8 
4 8 9 
5 9 10 
6 10 11 
7 11 12 
8 12 13 
9 13 14 
10 14 15 
11 15 16 
12 16 17 
13 17 18 
14 18 19 
15 19 20 
16 20 21 
17 21 22 
18 22 23 
19 23 24 
20 24 2 
1 2 1 20
21 2 25 
22 25 26 
23 26 27 
24 27 28 
25 28 29 
26 29 30 
27 30 31 
28 31 32 
29 32 33 
30 33 34 
31 34 35 
32 35 36 
33 36 37 
34 37 38 
35 38 39 
36 39 40 
37 40 41 
38 41 42 
39 42 43 
40 43 3 
1 3 1 20
41 3 44 
42 44 45 
43 45 46 
44 46 47 
45 47 48 
46 48 49 
47 49 50 
48 50 51 
49 51 52 
50 52 53 
51 53 54 
52 54 55 
53 55 56 
54 56 57 
55 57 58 
56 58 59 
57 59 60 
58 60 61 
59 61 62 
60 62 4 
1 4 1 20
61 4 63 
62 63 64 
63 64 65 
64 65 66 
65 66 67 
66 67 68 
67 68 69 
68 69 70 
69 70 71 
70 71 72 
71 72 73 
72 73 74 
73 74 75 
74 75 76 
75 76 77 
76 77 78 
77 78 79 
78 79 80 
79 80 81 
80 81 1 
2 1 2 1114
81 234 236 447 
82 313 449 450 
83 236 446 447 
84 311 313 450 
85 349 462 545 
86 272 463 546 
87 276 357 358 
88 199 360 361 
89 462 151 545 
90 463 152 546 
91 192 195 351 
92 187 190 352 
93 366 261 488 
94 368 339 486 
95 449 313 505 
96 159 400 526 
97 160 396 527 
98 461 446 504 
99 466 449 505 
100 446 236 504 
101 475 310 476 
102 406 271 558 
103 405 348 559 
104 355 178 409 
105 200 202 518 
106 347 311 450 
107 270 234 447 
108 261 366 566 
109 339 368 568 
110 277 279 506 
111 336 466 505 
112 259 461 504 
113 356 177 418 
114 400 399 526 
115 256 419 420 
116 396 395 527 
117 333 410 411 
118 108 192 351 
119 397 341 398 
120 401 264 402 
121 355 409 410 
122 276 358 593 
123 199 361 592 
124 82 187 352 
125 413 171 416 
126 341 397 559 
127 310 475 491 
128 264 401 558 
129 369 339 451 
130 370 261 452 
131 171 413 430 
132 351 195 564 
133 352 190 565 
134 185 422 429 
135 473 511 519 
136 478 512 521 
137 422 185 425 
138 362 375 376 
139 359 371 372 
140 466 336 497 
141 356 418 419 
142 453 196 524 
143 456 191 525 
144 354 506 525 
145 461 259 494 
146 353 200 518 
147 354 277 506 
148 196 453 590 
149 191 456 591 
150 542 392 550 
151 541 388 549 
152 348 341 559 
153 271 264 558 
154 333 411 412 
155 250 365 612 
156 378 459 495 
157 374 460 496 
158 327 367 614 
159 338 438 519 
160 262 440 521 
161 308 334 398 
162 231 257 402 
163 497 336 567 
164 337 542 550 
165 260 541 549 
166 271 406 500 
167 459 213 495 
168 460 290 496 
169 365 250 566 
170 348 405 503 
171 256 420 421 
172 454 179 455 
173 457 180 458 
174 367 327 568 
175 353 518 524 
176 246 421 423 
177 261 370 488 
178 339 369 486 
179 458 273 599 
180 199 163 360 
181 276 164 357 
182 455 350 600 
183 494 259 563 
184 175 197 597 
185 470 494 530 
186 176 274 596 
187 522 388 541 
188 523 392 542 
189 334 397 398 
190 257 401 402 
191 471 497 529 
192 511 338 519 
193 512 262 521 
194 387 388 522 
195 323 412 414 
196 391 392 523 
197 73 179 454 
198 35 180 457 
199 418 153 419 
200 267 255 379 
201 84 162 363 
202 110 161 364 
203 400 159 498 
204 344 332 380 
205 339 321 451 
206 261 244 452 
207 396 160 499 
208 409 154 410 
209 420 153 429 
210 410 154 411 
211 438 543 554 
212 440 544 555 
213 494 424 530 
214 474 475 476 
215 436 493 532 
216 435 492 531 
217 473 476 501 
218 300 337 393 
219 223 260 394 
220 478 480 502 
221 497 415 529 
222 411 154 430 
223 493 258 532 
224 492 335 531 
225 422 420 429 
226 168 442 450 
227 304 340 395 
228 227 263 399 
229 37 177 465 
230 32 182 404 
231 75 178 464 
232 363 162 379 
233 492 438 554 
234 364 161 380 
235 493 440 555 
236 98 138 386 
237 124 137 390 
238 273 458 570 
239 362 376 594 
240 359 372 595 
241 419 153 420 
242 350 455 569 
243 251 378 495 
244 328 374 496 
245 173 69 403 
246 170 428 490 
247 438 338 543 
248 273 267 483 
249 350 344 484 
250 440 262 544 
251 362 143 375 
252 359 144 371 
253 312 308 398 
254 235 231 402 
255 413 411 430 
256 194 175 597 
257 469 384 507 
258 474 148 475 
259 189 176 596 
260 386 387 443 
261 390 391 444 
262 510 427 608 
263 30 174 408 
264 267 379 483 
265 178 76 409 
266 344 380 484 
267 165 437 438 
268 166 439 440 
269 416 171 417 
270 476 310 501 
271 480 233 502 
272 152 67 407 
273 39 153 418 
274 448 168 449 
275 183 427 510 
276 20 148 474 
277 58 147 479 
278 470 150 494 
279 421 246 571 
280 462 349 551 
281 463 272 553 
282 506 182 525 
283 471 149 497 
284 490 428 613 
285 480 479 582 
286 399 263 526 
287 395 340 527 
288 412 323 573 
289 150 445 461 
290 109 108 351 
291 156 14 435 
292 155 52 436 
293 165 16 437 
294 166 54 439 
295 99 98 386 
296 125 124 390 
297 83 82 352 
298 167 441 447 
299 51 155 441 
300 154 78 430 
301 168 12 442 
302 518 202 589 
303 435 165 492 
304 436 166 493 
305 419 256 560 
306 465 177 575 
307 386 138 387 
308 11 168 448 
309 390 137 391 
310 464 178 574 
311 150 48 445 
312 329 341 348 
313 252 264 271 
314 334 395 396 
315 257 399 400 
316 324 321 339 
317 247 244 261 
318 181 71 453 
319 182 33 456 
320 425 185 426 
321 453 72 454 
322 456 34 457 
323 70 181 403 
324 246 423 424 
325 252 238 264 
326 329 315 341 
327 174 31 404 
328 153 40 429 
329 217 215 232 
330 294 292 309 
331 300 298 337 
332 223 221 260 
333 582 479 611 
334 28 151 462 
335 66 152 463 
336 445 167 446 
337 158 472 473 
338 157 477 478 
339 449 168 450 
340 225 223 394 
341 302 300 393 
342 229 227 399 
343 306 304 395 
344 304 302 340 
345 227 225 263 
346 68 173 407 
347 444 391 621 
348 443 387 620 
349 177 38 418 
350 489 510 608 
351 70 71 181 
352 32 33 182 
353 78 79 430 
354 72 73 454 
355 34 35 457 
356 257 229 399 
357 334 306 395 
358 404 182 506 
359 485 368 486 
360 487 366 488 
361 158 473 519 
362 157 478 521 
363 263 225 394 
364 340 302 393 
365 308 306 334 
366 231 229 257 
367 151 29 408 
368 77 154 409 
369 215 213 459 
370 292 290 460 
371 187 176 188 
372 405 115 503 
373 406 89 500 
374 438 437 519 
375 316 315 329 
376 239 238 252 
377 440 439 521 
378 149 448 466 
379 192 175 193 
380 148 21 467 
381 85 84 363 
382 111 110 364 
383 446 167 447 
384 321 318 451 
385 244 241 452 
386 68 69 173 
387 30 31 174 
388 147 59 468 
389 73 74 179 
390 35 36 180 
391 47 150 470 
392 9 149 471 
393 75 76 178 
394 37 38 177 
395 208 206 251 
396 285 283 328 
397 5 176 187 
398 323 414 415 
399 518 181 524 
400 107 175 192 
401 334 396 397 
402 257 400 401 
403 217 232 522 
404 294 309 523 
405 178 355 574 
406 314 312 315 
407 237 235 238 
408 79 171 430 
409 177 356 575 
410 322 321 324 
411 245 244 247 
412 472 474 476 
413 477 479 480 
414 441 155 581 
415 15 165 435 
416 53 166 436 
417 17 158 437 
418 55 157 439 
419 13 156 442 
420 238 235 402 
421 315 312 398 
422 175 106 197 
423 167 50 441 
424 208 251 495 
425 285 328 496 
426 473 472 476 
427 176 132 274 
428 478 477 480 
429 158 18 472 
430 157 56 477 
431 49 167 445 
432 445 446 461 
433 472 19 474 
434 149 10 448 
435 477 57 479 
436 39 40 153 
437 77 78 154 
438 28 29 151 
439 66 67 152 
440 232 215 459 
441 309 292 460 
442 448 449 466 
443 329 369 451 
444 252 370 452 
445 71 72 453 
446 33 34 456 
447 40 41 429 
448 214 213 215 
449 291 290 292 
450 269 465 575 
451 31 32 404 
452 394 260 533 
453 346 464 574 
454 393 337 534 
455 41 185 429 
456 289 291 491 
457 293 292 294 
458 216 215 217 
459 197 163 198 
460 13 14 156 
461 51 52 155 
462 15 16 165 
463 53 54 166 
464 17 18 158 
465 55 56 157 
466 274 164 275 
467 506 279 598 
468 172 381 622 
469 69 70 403 
470 19 20 474 
471 57 58 479 
472 49 50 167 
473 11 12 168 
474 251 547 594 
475 328 548 595 
476 47 48 150 
477 9 10 149 
478 450 442 617 
479 20 21 148 
480 58 59 147 
481 184 383 623 
482 378 251 594 
483 29 30 408 
484 145 368 485 
485 255 250 612 
486 76 77 409 
487 374 328 595 
488 146 366 487 
489 366 365 566 
490 295 294 296 
491 218 217 219 
492 179 74 464 
493 325 324 327 
494 248 247 250 
495 332 327 614 
496 320 318 321 
497 243 241 244 
498 105 163 197 
499 212 210 213 
500 131 164 274 
501 289 287 290 
502 100 99 385 
503 126 125 389 
504 410 333 562 
505 180 36 465 
506 368 367 568 
507 385 99 386 
508 389 125 390 
509 329 348 369 
510 252 271 370 
511 213 210 495 
512 331 327 332 
513 254 250 255 
514 291 310 491 
515 290 287 496 
516 67 68 407 
517 38 39 418 
518 381 172 608 
519 183 27 462 
520 170 65 463 
521 297 296 298 
522 220 219 221 
523 247 261 566 
524 324 339 568 
525 93 159 434 
526 119 160 433 
527 260 221 541 
528 337 298 542 
529 14 15 435 
530 52 53 436 
531 16 17 437 
532 54 55 439 
533 50 51 441 
534 12 13 442 
535 314 315 316 
536 237 238 239 
537 361 547 592 
538 358 548 593 
539 10 11 448 
540 299 298 300 
541 222 221 223 
542 116 115 405 
543 27 28 462 
544 65 66 463 
545 90 89 406 
546 22 172 467 
547 48 49 445 
548 316 329 451 
549 239 252 452 
550 392 137 481 
551 60 184 468 
552 388 138 482 
553 169 46 470 
554 186 8 471 
555 18 19 472 
556 56 57 477 
557 273 483 565 
558 150 461 494 
559 350 484 564 
560 513 490 613 
561 383 184 613 
562 264 238 402 
563 341 315 398 
564 343 332 344 
565 266 255 267 
566 21 22 467 
567 46 47 470 
568 8 9 471 
569 59 60 468 
570 354 525 616 
571 473 501 511 
572 301 300 302 
573 224 223 225 
574 353 524 615 
575 478 502 512 
576 412 411 413 
577 64 170 490 
578 74 75 464 
579 164 130 357 
580 163 104 360 
581 36 37 465 
582 303 302 304 
583 226 225 227 
584 165 438 492 
585 361 362 547 
586 358 359 548 
587 357 144 358 
588 166 440 493 
589 458 180 570 
590 360 143 361 
591 421 420 422 
592 455 179 569 
593 120 119 433 
594 94 93 434 
595 305 304 306 
596 228 227 229 
597 243 244 245 
598 320 321 322 
599 280 278 281 
600 203 201 204 
601 384 469 603 
602 251 206 547 
603 328 283 548 
604 172 23 489 
605 149 466 497 
606 63 64 490 
607 363 379 612 
608 364 380 614 
609 22 23 172 
610 26 27 183 
611 64 65 170 
612 41 42 185 
613 441 581 619 
614 60 61 184 
615 307 306 308 
616 230 229 231 
617 45 46 169 
618 79 80 171 
619 7 8 186 
620 23 24 489 
621 212 213 214 
622 289 290 291 
623 311 308 312 
624 234 231 235 
625 284 283 285 
626 207 206 208 
627 282 281 283 
628 205 204 206 
629 373 389 444 
630 377 385 443 
631 371 134 372 
632 375 133 376 
633 291 292 293 
634 214 215 216 
635 129 144 357 
636 103 143 360 
637 293 294 295 
638 216 217 218 
639 322 324 325 
640 245 247 248 
641 143 102 375 
642 144 128 371 
643 365 363 612 
644 127 134 371 
645 313 312 314 
646 236 235 237 
647 101 133 375 
648 379 255 612 
649 367 364 614 
650 112 145 485 
651 86 146 487 
652 136 87 487 
653 135 113 485 
654 346 344 350 
655 269 267 273 
656 136 487 488 
657 135 485 486 
658 412 413 414 
659 211 212 507 
660 442 156 580 
661 421 422 423 
662 114 135 503 
663 88 136 500 
664 380 332 614 
665 295 296 297 
666 218 219 220 
667 297 298 299 
668 220 221 222 
669 286 285 287 
670 209 208 210 
671 380 161 484 
672 379 162 483 
673 325 327 331 
674 248 250 254 
675 318 316 451 
676 241 239 452 
677 387 138 388 
678 391 137 392 
679 299 300 301 
680 222 223 224 
681 381 330 382 
682 383 253 384 
683 382 330 520 
684 317 316 318 
685 240 239 241 
686 373 134 389 
687 331 332 343 
688 254 255 266 
689 377 133 385 
690 392 481 550 
691 388 482 549 
692 301 302 303 
693 224 225 226 
694 303 304 305 
695 226 227 228 
696 305 306 307 
697 228 229 230 
698 25 26 510 
699 253 211 507 
700 61 62 513 
701 211 210 212 
702 288 287 289 
703 403 181 518 
704 280 281 282 
705 203 204 205 
706 282 283 284 
707 205 206 207 
708 311 312 313 
709 234 235 236 
710 547 362 594 
711 548 359 595 
712 173 403 589 
713 242 241 243 
714 319 318 320 
715 137 123 481 
716 91 139 498 
717 138 97 482 
718 117 140 499 
719 284 285 286 
720 207 208 209 
721 181 453 524 
722 182 456 525 
723 307 308 311 
724 230 231 234 
725 358 144 359 
726 361 143 362 
727 88 87 136 
728 114 113 135 
729 127 126 134 
730 101 100 133 
731 249 268 272 
732 326 345 349 
733 139 558 602 
734 314 316 317 
735 237 239 240 
736 140 559 605 
737 121 141 431 
738 95 142 432 
739 96 432 482 
740 122 431 481 
741 210 208 495 
742 287 285 496 
743 91 90 139 
744 117 116 140 
745 124 123 137 
746 98 97 138 
747 115 114 503 
748 89 88 500 
749 95 94 142 
750 121 120 141 
751 460 374 586 
752 459 378 585 
753 160 118 499 
754 159 92 498 
755 414 413 416 
756 122 121 431 
757 96 95 432 
758 423 422 425 
759 97 96 482 
760 123 122 481 
761 92 91 498 
762 118 117 499 
763 372 134 373 
764 376 133 377 
765 128 127 371 
766 102 101 375 
767 87 86 487 
768 113 112 485 
769 93 92 159 
770 119 118 160 
771 152 407 552 
772 129 128 144 
773 103 102 143 
774 86 85 146 
775 112 111 145 
776 214 216 233 
777 291 293 310 
778 286 287 288 
779 209 210 211 
780 240 241 242 
781 317 318 319 
782 188 176 189 
783 193 175 194 
784 242 243 246 
785 319 320 323 
786 198 163 199 
787 275 164 276 
788 134 126 389 
789 133 100 385 
790 240 242 259 
791 317 319 336 
792 139 90 406 
793 140 116 405 
794 488 370 578 
795 343 344 346 
796 266 267 269 
797 434 526 535 
798 486 369 579 
799 433 527 536 
800 314 317 505 
801 237 240 504 
802 408 174 604 
803 236 237 504 
804 313 314 505 
805 131 130 164 
806 105 104 163 
807 384 253 507 
808 84 83 162 
809 110 109 161 
810 136 488 578 
811 142 94 434 
812 141 120 433 
813 279 278 280 
814 202 201 203 
815 135 486 579 
816 187 188 190 
817 192 193 195 
818 104 103 360 
819 130 129 357 
820 345 330 381 
821 286 288 326 
822 209 211 249 
823 268 253 383 
824 245 248 256 
825 322 325 333 
826 385 386 443 
827 389 390 444 
828 26 183 510 
829 146 365 366 
830 145 367 368 
831 326 288 330 
832 249 211 253 
833 469 507 528 
834 45 169 537 
835 345 381 427 
836 268 383 428 
837 277 276 278 
838 200 199 201 
839 326 330 345 
840 184 61 513 
841 249 253 268 
842 7 186 540 
843 376 378 594 
844 434 159 526 
845 372 374 595 
846 433 160 527 
847 5 132 176 
848 107 106 175 
849 297 299 338 
850 220 222 262 
851 106 105 197 
852 132 131 274 
853 437 158 519 
854 439 157 521 
855 355 410 562 
856 156 435 531 
857 82 5 187 
858 108 107 192 
859 155 436 532 
860 219 522 541 
861 296 523 542 
862 526 263 535 
863 145 111 364 
864 146 85 363 
865 303 305 335 
866 226 228 258 
867 307 311 347 
868 230 234 270 
869 293 295 501 
870 216 218 502 
871 240 259 504 
872 317 336 505 
873 527 340 536 
874 427 183 551 
875 249 272 509 
876 326 349 508 
877 219 217 522 
878 296 294 523 
879 428 170 553 
880 374 373 586 
881 378 377 585 
882 278 276 593 
883 201 199 592 
884 356 419 560 
885 254 266 356 
886 331 343 355 
887 454 455 590 
888 417 171 606 
889 457 458 591 
890 280 282 342 
891 203 205 265 
892 198 200 353 
893 275 277 354 
894 372 373 374 
895 376 377 378 
896 442 580 617 
897 426 185 609 
898 284 286 508 
899 207 209 509 
900 479 147 611 
901 161 109 351 
902 277 278 279 
903 200 201 202 
904 233 216 502 
905 310 293 501 
906 162 83 352 
907 522 232 620 
908 523 309 621 
909 333 412 573 
910 256 421 571 
911 185 42 609 
912 198 199 200 
913 275 276 277 
914 146 363 365 
915 145 364 367 
916 171 80 606 
917 295 297 511 
918 218 220 512 
919 263 394 535 
920 340 393 536 
921 447 441 619 
922 24 2 583 
923 2 25 583 
924 286 326 508 
925 209 249 509 
926 62 4 584 
927 4 63 584 
928 456 457 591 
929 453 454 590 
930 507 212 528 
931 289 491 520 
932 305 307 514 
933 228 230 515 
934 151 408 561 
935 330 288 520 
936 282 284 516 
937 205 207 517 
938 384 603 623 
939 214 233 528 
940 161 351 484 
941 545 151 561 
942 188 189 191 
943 193 194 196 
944 502 218 512 
945 501 295 511 
946 443 232 585 
947 3 44 587 
948 43 3 587 
949 81 1 588 
950 1 6 588 
951 162 352 483 
952 464 346 569 
953 297 338 511 
954 220 262 512 
955 444 309 586 
956 139 406 558 
957 140 405 559 
958 465 269 570 
959 288 289 520 
960 533 260 549 
961 534 337 550 
962 186 471 529 
963 307 347 514 
964 230 270 515 
965 603 468 623 
966 335 305 514 
967 258 228 515 
968 212 214 528 
969 558 401 602 
970 559 397 605 
971 284 508 516 
972 207 509 517 
973 169 470 530 
974 546 152 552 
975 221 219 541 
976 298 296 542 
977 342 282 516 
978 265 205 517 
979 415 497 567 
980 246 424 563 
981 174 404 598 
982 183 462 551 
983 424 494 563 
984 170 463 553 
985 537 169 572 
986 246 243 571 
987 232 443 620 
988 475 148 610 
989 323 320 573 
990 280 342 538 
991 203 265 539 
992 432 142 533 
993 309 444 621 
994 431 141 534 
995 268 428 553 
996 345 427 551 
997 323 415 567 
998 335 492 554 
999 540 186 576 
1000 258 493 555 
1001 147 468 603 
1002 347 450 617 
1003 432 533 549 
1004 338 299 543 
1005 431 534 550 
1006 262 222 544 
1007 206 204 547 
1008 283 281 548 
1009 44 45 537 
1010 242 246 563 
1011 547 204 592 
1012 548 281 593 
1013 245 256 571 
1014 322 333 573 
1015 6 7 540 
1016 179 464 569 
1017 319 323 567 
1018 180 465 570 
1019 232 459 585 
1020 256 248 560 
1021 303 335 554 
1022 309 460 586 
1023 226 258 555 
1024 190 557 599 
1025 333 325 562 
1026 195 556 600 
1027 270 447 619 
1028 254 356 560 
1029 279 280 538 
1030 202 203 539 
1031 331 355 562 
1032 299 301 543 
1033 222 224 544 
1034 482 432 549 
1035 250 247 566 
1036 148 467 610 
1037 142 434 535 
1038 481 431 550 
1039 327 324 568 
1040 141 433 536 
1041 533 142 535 
1042 534 141 536 
1043 455 556 590 
1044 458 557 591 
1045 407 173 618 
1046 186 529 576 
1047 169 530 572 
1048 355 343 574 
1049 424 423 601 
1050 356 266 575 
1051 233 480 582 
1052 335 514 531 
1053 258 515 532 
1054 427 381 608 
1055 416 417 576 
1056 349 345 551 
1057 272 268 553 
1058 415 414 607 
1059 425 426 572 
1060 428 383 613 
1061 401 400 602 
1062 397 396 605 
1063 403 518 589 
1064 467 172 622 
1065 528 233 582 
1066 509 272 546 
1067 508 349 545 
1068 468 184 623 
1069 301 303 554 
1070 610 467 622 
1071 224 226 555 
1072 370 271 578 
1073 369 348 579 
1074 557 458 599 
1075 275 354 596 
1076 198 353 597 
1077 556 455 600 
1078 537 426 587 
1079 576 529 607 
1080 382 610 622 
1081 387 522 620 
1082 404 506 598 
1083 540 417 588 
1084 391 523 621 
1085 543 301 554 
1086 544 224 555 
1087 382 520 577 
1088 500 136 578 
1089 503 135 579 
1090 248 254 560 
1091 281 278 593 
1092 204 201 592 
1093 516 508 545 
1094 517 509 546 
1095 572 530 601 
1096 525 191 616 
1097 524 196 615 
1098 426 537 572 
1099 513 62 584 
1100 25 510 583 
1101 325 331 562 
1102 417 540 576 
1103 394 533 535 
1104 393 534 536 
1105 373 444 586 
1106 377 443 585 
1107 259 242 563 
1108 243 245 571 
1109 346 350 569 
1110 269 273 570 
1111 320 322 573 
1112 63 490 584 
1113 489 24 583 
1114 191 189 616 
1115 196 194 615 
1116 195 193 556 
1117 190 188 557 
1118 336 319 567 
1119 265 517 552 
1120 265 552 618 
1121 530 424 601 
1122 469 528 582 
1123 529 415 607 
1124 597 353 615 
1125 596 354 616 
1126 342 561 604 
1127 193 196 556 
1128 188 191 557 
1129 172 489 608 
1130 343 346 574 
1131 266 269 575 
1132 342 516 561 
1133 491 475 577 
1134 588 417 606 
1135 490 513 584 
1136 587 426 609 
1137 510 489 583 
1138 577 475 610 
1139 80 81 606 
1140 484 351 564 
1141 42 43 609 
1142 483 352 565 
1143 498 139 602 
1144 517 546 552 
1145 499 140 605 
1146 273 565 599 
1147 552 407 618 
1148 350 564 600 
1149 516 545 561 
1150 531 514 580 
1151 532 515 581 
1152 539 173 589 
1153 561 408 604 
1154 423 425 601 
1155 538 174 598 
1156 274 275 596 
1157 197 198 597 
1158 414 416 607 
1159 156 531 580 
1160 155 532 581 
1161 271 500 578 
1162 514 347 580 
1163 515 270 581 
1164 348 503 579 
1165 194 597 615 
1166 189 596 616 
1167 520 491 577 
1168 381 382 622 
1169 383 384 623 
1170 400 498 602 
1171 396 499 605 
1172 184 513 613 
1173 538 342 604 
1174 202 539 589 
1175 44 537 587 
1176 6 540 588 
1177 416 576 607 
1178 539 265 618 
1179 279 538 598 
1180 603 469 611 
1181 425 572 601 
1182 147 603 611 
1183 556 196 590 
1184 557 191 591 
1185 469 582 611 
1186 174 538 604 
1187 580 347 617 
1188 173 539 618 
1189 581 270 619 
1190 81 588 606 
1191 43 587 609 
1192 564 195 600 
1193 565 190 599 
1194 382 577 610 
2 2 2 486
1195 696 790 821 
1196 741 813 815 
1197 635 742 825 
1198 743 631 744 
1199 772 745 806 
1200 813 633 815 
1201 742 646 825 
1202 684 786 792 
1203 741 646 742 
1204 744 631 794 
1205 639 740 800 
1206 742 635 793 
1207 647 746 793 
1208 642 772 806 
1209 790 645 821 
1210 739 627 798 
1211 740 789 800 
1212 772 642 802 
1213 630 752 753 
1214 124 125 798 
1215 770 803 810 
1216 646 741 815 
1217 803 770 835 
1218 627 739 832 
1219 786 643 792 
1220 647 793 828 
1221 625 690 801 
1222 787 626 835 
1223 626 787 822 
1224 634 696 821 
1225 772 802 827 
1226 683 684 792 
1227 634 695 696 
1228 807 813 833 
1229 752 630 817 
1230 807 633 813 
1231 745 744 806 
1232 626 803 835 
1233 740 639 834 
1234 125 643 798 
1235 627 124 798 
1236 690 625 840 
1237 683 632 791 
1238 650 797 805 
1239 632 683 792 
1240 801 690 819 
1241 648 649 808 
1242 631 743 809 
1243 645 790 791 
1244 746 647 809 
1245 818 811 831 
1246 803 644 810 
1247 695 634 812 
1248 797 640 805 
1249 811 818 829 
1250 786 739 798 
1251 637 648 808 
1252 732 814 820 
1253 645 791 826 
1254 789 629 800 
1255 814 638 820 
1256 654 676 685 
1257 685 676 686 
1258 694 753 760 
1259 753 751 760 
1260 651 654 685 
1261 710 769 785 
1262 751 675 760 
1263 746 718 747 
1264 738 769 770 
1265 774 762 784 
1266 749 675 751 
1267 725 742 747 
1268 686 676 687 
1269 677 680 692 
1270 769 755 770 
1271 667 671 761 
1272 771 745 772 
1273 718 715 747 
1274 693 692 695 
1275 689 687 773 
1276 725 741 742 
1277 692 680 696 
1278 679 677 692 
1279 679 692 693 
1280 657 659 697 
1281 743 718 746 
1282 715 725 747 
1283 710 699 754 
1284 674 677 679 
1285 714 708 715 
1286 674 673 677 
1287 754 755 769 
1288 771 757 776 
1289 769 738 785 
1290 671 675 761 
1291 714 715 718 
1292 663 766 767 
1293 675 749 761 
1294 762 684 784 
1295 699 698 754 
1296 687 697 773 
1297 752 751 753 
1298 676 657 697 
1299 677 678 680 
1300 745 771 776 
1301 695 692 696 
1302 129 130 645 
1303 706 703 756 
1304 671 668 673 
1305 707 706 708 
1306 670 667 761 
1307 707 708 714 
1308 697 659 759 
1309 715 716 725 
1310 663 660 766 
1311 750 749 751 
1312 687 676 697 
1313 660 658 766 
1314 764 771 772 
1315 705 707 757 
1316 667 666 668 
1317 671 673 674 
1318 698 652 724 
1319 667 668 671 
1320 703 701 756 
1321 748 689 773 
1322 686 687 688 
1323 725 726 741 
1324 748 670 761 
1325 113 114 642 
1326 750 751 752 
1327 782 729 783 
1328 691 748 749 
1329 663 782 783 
1330 656 698 699 
1331 670 748 773 
1332 705 706 707 
1333 691 749 750 
1334 698 724 754 
1335 690 689 691 
1336 100 101 644 
1337 700 699 701 
1338 677 673 678 
1339 705 703 706 
1340 88 89 641 
1341 702 701 703 
1342 688 687 689 
1343 701 699 710 
1344 710 754 769 
1345 701 710 756 
1346 719 718 743 
1347 715 708 716 
1348 125 126 643 
1349 653 652 698 
1350 665 666 667 
1351 656 699 700 
1352 102 103 633 
1353 691 689 748 
1354 656 700 765 
1355 688 689 690 
1356 754 724 755 
1357 656 653 698 
1358 664 669 758 
1359 661 665 759 
1360 127 128 632 
1361 85 86 630 
1362 665 664 666 
1363 733 734 735 
1364 110 111 631 
1365 704 703 705 
1366 661 664 665 
1367 655 653 656 
1368 94 95 628 
1369 700 728 765 
1370 763 717 764 
1371 764 717 771 
1372 668 666 672 
1373 96 97 640 
1374 658 765 766 
1375 92 93 637 
1376 735 734 739 
1377 700 701 702 
1378 659 660 661 
1379 104 105 646 
1380 709 705 757 
1381 661 662 664 
1382 657 658 659 
1383 665 670 759 
1384 123 124 627 
1385 659 661 759 
1386 730 732 733 
1387 98 99 626 
1388 121 122 638 
1389 717 709 757 
1390 654 655 657 
1391 90 91 625 
1392 115 116 629 
1393 117 118 639 
1394 712 709 717 
1395 733 732 734 
1396 712 717 763 
1397 654 657 676 
1398 665 667 670 
1399 659 658 660 
1400 119 120 624 
1401 657 655 658 
1402 661 660 662 
1403 654 653 655 
1404 756 710 785 
1405 664 662 669 
1406 735 739 762 
1407 729 723 730 
1408 722 723 729 
1409 671 674 675 
1410 702 703 704 
1411 655 656 765 
1412 759 670 773 
1413 749 748 761 
1414 766 728 767 
1415 730 731 732 
1416 679 693 694 
1417 666 664 758 
1418 736 720 740 
1419 765 728 766 
1420 658 655 765 
1421 740 720 763 
1422 730 723 731 
1423 713 721 722 
1424 662 660 663 
1425 714 718 719 
1426 757 707 776 
1427 722 721 723 
1428 697 759 773 
1429 651 653 654 
1430 720 712 763 
1431 680 678 681 
1432 721 720 736 
1433 704 705 709 
1434 700 702 728 
1435 723 721 768 
1436 713 720 721 
1437 731 723 768 
1438 713 712 720 
1439 721 736 768 
1440 706 756 778 
1441 672 774 784 
1442 711 709 712 
1443 711 712 713 
1444 674 679 760 
1445 668 672 777 
1446 719 743 744 
1447 672 666 758 
1448 717 757 771 
1449 725 716 726 
1450 704 709 711 
1451 675 674 760 
1452 663 767 782 
1453 679 694 760 
1454 678 673 777 
1455 716 708 778 
1456 131 132 634 
1457 702 704 775 
1458 672 758 774 
1459 728 702 775 
1460 726 727 737 
1461 704 711 775 
1462 729 730 780 
1463 727 716 778 
1464 735 762 774 
1465 767 728 775 
1466 714 719 776 
1467 737 727 738 
1468 673 668 777 
1469 682 678 777 
1470 781 722 782 
1471 681 682 683 
1472 733 779 780 
1473 774 758 779 
1474 719 744 745 
1475 719 745 776 
1476 713 722 781 
1477 708 706 778 
1478 707 714 776 
1479 82 83 636 
1480 662 663 783 
1481 108 109 647 
1482 683 682 684 
1483 758 669 779 
1484 722 729 782 
1485 735 774 779 
1486 733 735 779 
1487 779 669 780 
1488 651 652 653 
1489 681 678 682 
1490 726 716 727 
1491 775 711 781 
1492 767 775 781 
1493 767 781 782 
1494 730 733 780 
1495 729 780 783 
1496 669 662 783 
1497 711 713 781 
1498 777 672 784 
1499 780 669 783 
1500 106 107 635 
1501 778 756 785 
1502 684 682 784 
1503 738 727 785 
1504 727 778 785 
1505 682 777 784 
1506 651 650 652 
1507 649 651 685 
1508 684 762 786 
1509 649 650 651 
1510 762 739 786 
1511 111 112 794 
1512 631 111 794 
1513 755 724 787 
1514 649 628 650 
1515 696 680 790 
1516 763 764 789 
1517 681 683 791 
1518 747 742 793 
1519 752 804 839 
1520 793 635 828 
1521 650 628 797 
1522 652 650 805 
1523 686 688 788 
1524 740 763 789 
1525 680 681 790 
1526 787 724 805 
1527 640 787 805 
1528 746 747 793 
1529 649 685 808 
1530 648 628 649 
1531 737 738 810 
1532 741 726 813 
1533 736 740 834 
1534 641 801 819 
1535 804 752 817 
1536 637 93 648 
1537 93 94 648 
1538 121 638 795 
1539 120 121 795 
1540 94 628 648 
1541 624 120 795 
1542 691 750 819 
1543 732 731 814 
1544 639 118 796 
1545 118 119 796 
1546 96 640 797 
1547 95 96 797 
1548 119 624 796 
1549 628 95 797 
1550 123 627 799 
1551 122 123 799 
1552 638 122 799 
1553 790 681 791 
1554 750 752 839 
1555 643 786 798 
1556 116 117 800 
1557 629 116 800 
1558 117 639 800 
1559 132 5 812 
1560 634 132 812 
1561 695 812 837 
1562 641 89 801 
1563 89 90 801 
1564 686 788 808 
1565 788 637 808 
1566 90 625 801 
1567 812 830 837 
1568 642 114 802 
1569 114 115 802 
1570 630 753 831 
1571 100 644 803 
1572 99 100 803 
1573 115 629 802 
1574 626 99 803 
1575 743 746 809 
1576 87 88 804 
1577 88 641 804 
1578 813 737 833 
1579 724 652 805 
1580 764 772 827 
1581 688 690 840 
1582 755 787 835 
1583 739 734 832 
1584 101 102 807 
1585 102 633 807 
1586 640 97 822 
1587 644 101 807 
1588 98 626 822 
1589 768 736 823 
1590 92 637 824 
1591 625 91 824 
1592 787 640 822 
1593 685 686 808 
1594 624 795 816 
1595 738 770 810 
1596 630 86 817 
1597 84 85 811 
1598 85 630 811 
1599 638 799 820 
1600 726 737 813 
1601 103 104 815 
1602 104 646 815 
1603 637 788 824 
1604 632 128 826 
1605 744 794 806 
1606 643 126 838 
1607 795 814 816 
1608 633 103 815 
1609 731 768 816 
1610 86 87 817 
1611 113 642 841 
1612 127 632 838 
1613 129 645 826 
1614 130 131 821 
1615 694 693 818 
1616 131 634 821 
1617 792 643 838 
1618 690 691 819 
1619 734 732 820 
1620 789 764 827 
1621 632 792 838 
1622 645 130 821 
1623 97 98 822 
1624 791 632 826 
1625 87 804 817 
1626 105 106 825 
1627 106 635 825 
1628 110 631 836 
1629 795 638 814 
1630 636 83 829 
1631 91 92 824 
1632 646 105 825 
1633 128 129 826 
1634 107 108 828 
1635 635 107 828 
1636 629 789 827 
1637 108 647 828 
1638 625 824 840 
1639 647 109 836 
1640 694 818 831 
1641 5 82 830 
1642 636 818 837 
1643 818 693 837 
1644 642 806 841 
1645 83 84 829 
1646 819 750 839 
1647 814 731 816 
1648 796 624 823 
1649 82 636 830 
1650 737 810 833 
1651 753 694 831 
1652 816 768 823 
1653 624 816 823 
1654 794 112 841 
1655 770 755 835 
1656 802 629 827 
1657 109 110 836 
1658 811 630 831 
1659 693 695 837 
1660 631 809 836 
1661 126 127 838 
1662 799 627 832 
1663 84 811 829 
1664 112 113 841 
1665 824 788 840 
1666 823 736 834 
1667 809 647 836 
1668 806 794 841 
1669 818 636 829 
1670 812 5 830 
1671 639 796 834 
1672 788 688 840 
1673 820 799 832 
1674 644 807 833 
1675 810 644 833 
1676 804 641 839 
1677 641 819 839 
1678 796 823 834 
1679 734 820 832 
1680 830 636 837 
$EndElements
