w   = 1;     // m
h   = 1;     // m

a   = 0.071;
dx0 = a/100;  // m
dx1 = 0.05;   // m

Point(1) = {0, 0, 0, dx1};
Point(2) = {w, 0, 0, dx1};
Point(3) = {w, h, 0, dx1};
Point(4) = {0, h, 0, dx1};
//+
Line(1) = {1, 2};
//+
Line(2) = {2, 3};
//+
Line(3) = {3, 4};
//+
Line(4) = {4, 1};
//+
Point (5) = {0.57100,0.50000,0,dx0};
Point (6) = {0.57096,0.50142,0,dx0};
Point (7) = {0.57086,0.50284,0,dx0};
Point (8) = {0.57068,0.50426,0,dx0};
Point (9) = {0.57043,0.50567,0,dx0};
Point (10) = {0.57012,0.50707,0,dx0};
Point (11) = {0.56973,0.50847,0,dx0};
Point (12) = {0.56927,0.50986,0,dx0};
Point (13) = {0.56875,0.51125,0,dx0};
Point (14) = {0.56815,0.51262,0,dx0};
Point (15) = {0.56749,0.51397,0,dx0};
Point (16) = {0.56676,0.51532,0,dx0};
Point (17) = {0.56596,0.51664,0,dx0};
Point (18) = {0.56510,0.51796,0,dx0};
Point (19) = {0.56418,0.51925,0,dx0};
Point (20) = {0.56318,0.52052,0,dx0};
Point (21) = {0.56213,0.52178,0,dx0};
Point (22) = {0.56102,0.52301,0,dx0};
Point (23) = {0.55984,0.52422,0,dx0};
Point (24) = {0.55860,0.52541,0,dx0};
Point (25) = {0.55731,0.52657,0,dx0};
Point (26) = {0.55596,0.52770,0,dx0};
Point (27) = {0.55455,0.52880,0,dx0};
Point (28) = {0.55309,0.52988,0,dx0};
Point (29) = {0.55157,0.53093,0,dx0};
Point (30) = {0.55001,0.53195,0,dx0};
Point (31) = {0.54839,0.53293,0,dx0};
Point (32) = {0.54673,0.53388,0,dx0};
Point (33) = {0.54501,0.53480,0,dx0};
Point (34) = {0.54326,0.53568,0,dx0};
Point (35) = {0.54146,0.53653,0,dx0};
Point (36) = {0.53962,0.53734,0,dx0};
Point (37) = {0.53774,0.53812,0,dx0};
Point (38) = {0.53582,0.53885,0,dx0};
Point (39) = {0.53387,0.53955,0,dx0};
Point (40) = {0.53188,0.54021,0,dx0};
Point (41) = {0.52986,0.54083,0,dx0};
Point (42) = {0.52782,0.54140,0,dx0};
Point (43) = {0.52574,0.54194,0,dx0};
Point (44) = {0.52364,0.54243,0,dx0};
Point (45) = {0.52151,0.54288,0,dx0};
Point (46) = {0.51937,0.54329,0,dx0};
Point (47) = {0.51720,0.54366,0,dx0};
Point (48) = {0.51502,0.54398,0,dx0};
Point (49) = {0.51282,0.54426,0,dx0};
Point (50) = {0.51061,0.54449,0,dx0};
Point (51) = {0.50839,0.54468,0,dx0};
Point (52) = {0.50616,0.54483,0,dx0};
Point (53) = {0.50392,0.54493,0,dx0};
Point (54) = {0.50168,0.54499,0,dx0};
Point (55) = {0.49944,0.54500,0,dx0};
Point (56) = {0.49720,0.54496,0,dx0};
Point (57) = {0.49496,0.54489,0,dx0};
Point (58) = {0.49273,0.54476,0,dx0};
Point (59) = {0.49050,0.54460,0,dx0};
Point (60) = {0.48828,0.54438,0,dx0};
Point (61) = {0.48608,0.54413,0,dx0};
Point (62) = {0.48389,0.54383,0,dx0};
Point (63) = {0.48171,0.54348,0,dx0};
Point (64) = {0.47956,0.54309,0,dx0};
Point (65) = {0.47742,0.54266,0,dx0};
Point (66) = {0.47531,0.54219,0,dx0};
Point (67) = {0.47322,0.54168,0,dx0};
Point (68) = {0.47116,0.54112,0,dx0};
Point (69) = {0.46912,0.54052,0,dx0};
Point (70) = {0.46712,0.53988,0,dx0};
Point (71) = {0.46515,0.53921,0,dx0};
Point (72) = {0.46321,0.53849,0,dx0};
Point (73) = {0.46131,0.53773,0,dx0};
Point (74) = {0.45945,0.53694,0,dx0};
Point (75) = {0.45764,0.53611,0,dx0};
Point (76) = {0.45586,0.53525,0,dx0};
Point (77) = {0.45412,0.53434,0,dx0};
Point (78) = {0.45244,0.53341,0,dx0};
Point (79) = {0.45080,0.53244,0,dx0};
Point (80) = {0.44920,0.53144,0,dx0};
Point (81) = {0.44766,0.53041,0,dx0};
Point (82) = {0.44618,0.52935,0,dx0};
Point (83) = {0.44474,0.52825,0,dx0};
Point (84) = {0.44336,0.52714,0,dx0};
Point (85) = {0.44204,0.52599,0,dx0};
Point (86) = {0.44077,0.52482,0,dx0};
Point (87) = {0.43957,0.52362,0,dx0};
Point (88) = {0.43842,0.52240,0,dx0};
Point (89) = {0.43733,0.52115,0,dx0};
Point (90) = {0.43631,0.51989,0,dx0};
Point (91) = {0.43535,0.51861,0,dx0};
Point (92) = {0.43446,0.51730,0,dx0};
Point (93) = {0.43363,0.51598,0,dx0};
Point (94) = {0.43287,0.51465,0,dx0};
Point (95) = {0.43217,0.51330,0,dx0};
Point (96) = {0.43154,0.51193,0,dx0};
Point (97) = {0.43098,0.51056,0,dx0};
Point (98) = {0.43049,0.50917,0,dx0};
Point (99) = {0.43007,0.50778,0,dx0};
Point (100) = {0.42972,0.50637,0,dx0};
Point (101) = {0.42943,0.50496,0,dx0};
Point (102) = {0.42922,0.50355,0,dx0};
Point (103) = {0.42908,0.50213,0,dx0};
Point (104) = {0.42901,0.50071,0,dx0};
Point (105) = {0.42901,0.49929,0,dx0};
Point (106) = {0.42908,0.49787,0,dx0};
Point (107) = {0.42922,0.49645,0,dx0};
Point (108) = {0.42943,0.49504,0,dx0};
Point (109) = {0.42972,0.49363,0,dx0};
Point (110) = {0.43007,0.49222,0,dx0};
Point (111) = {0.43049,0.49083,0,dx0};
Point (112) = {0.43098,0.48944,0,dx0};
Point (113) = {0.43154,0.48807,0,dx0};
Point (114) = {0.43217,0.48670,0,dx0};
Point (115) = {0.43287,0.48535,0,dx0};
Point (116) = {0.43363,0.48402,0,dx0};
Point (117) = {0.43446,0.48270,0,dx0};
Point (118) = {0.43535,0.48139,0,dx0};
Point (119) = {0.43631,0.48011,0,dx0};
Point (120) = {0.43733,0.47885,0,dx0};
Point (121) = {0.43842,0.47760,0,dx0};
Point (122) = {0.43957,0.47638,0,dx0};
Point (123) = {0.44077,0.47518,0,dx0};
Point (124) = {0.44204,0.47401,0,dx0};
Point (125) = {0.44336,0.47286,0,dx0};
Point (126) = {0.44474,0.47175,0,dx0};
Point (127) = {0.44618,0.47065,0,dx0};
Point (128) = {0.44766,0.46959,0,dx0};
Point (129) = {0.44920,0.46856,0,dx0};
Point (130) = {0.45080,0.46756,0,dx0};
Point (131) = {0.45244,0.46659,0,dx0};
Point (132) = {0.45412,0.46566,0,dx0};
Point (133) = {0.45586,0.46475,0,dx0};
Point (134) = {0.45764,0.46389,0,dx0};
Point (135) = {0.45945,0.46306,0,dx0};
Point (136) = {0.46131,0.46227,0,dx0};
Point (137) = {0.46321,0.46151,0,dx0};
Point (138) = {0.46515,0.46079,0,dx0};
Point (139) = {0.46712,0.46012,0,dx0};
Point (140) = {0.46912,0.45948,0,dx0};
Point (141) = {0.47116,0.45888,0,dx0};
Point (142) = {0.47322,0.45832,0,dx0};
Point (143) = {0.47531,0.45781,0,dx0};
Point (144) = {0.47742,0.45734,0,dx0};
Point (145) = {0.47956,0.45691,0,dx0};
Point (146) = {0.48171,0.45652,0,dx0};
Point (147) = {0.48389,0.45617,0,dx0};
Point (148) = {0.48608,0.45587,0,dx0};
Point (149) = {0.48828,0.45562,0,dx0};
Point (150) = {0.49050,0.45540,0,dx0};
Point (151) = {0.49273,0.45524,0,dx0};
Point (152) = {0.49496,0.45511,0,dx0};
Point (153) = {0.49720,0.45504,0,dx0};
Point (154) = {0.49944,0.45500,0,dx0};
Point (155) = {0.50168,0.45501,0,dx0};
Point (156) = {0.50392,0.45507,0,dx0};
Point (157) = {0.50616,0.45517,0,dx0};
Point (158) = {0.50839,0.45532,0,dx0};
Point (159) = {0.51061,0.45551,0,dx0};
Point (160) = {0.51282,0.45574,0,dx0};
Point (161) = {0.51502,0.45602,0,dx0};
Point (162) = {0.51720,0.45634,0,dx0};
Point (163) = {0.51937,0.45671,0,dx0};
Point (164) = {0.52151,0.45712,0,dx0};
Point (165) = {0.52364,0.45757,0,dx0};
Point (166) = {0.52574,0.45806,0,dx0};
Point (167) = {0.52782,0.45860,0,dx0};
Point (168) = {0.52986,0.45917,0,dx0};
Point (169) = {0.53188,0.45979,0,dx0};
Point (170) = {0.53387,0.46045,0,dx0};
Point (171) = {0.53582,0.46115,0,dx0};
Point (172) = {0.53774,0.46188,0,dx0};
Point (173) = {0.53962,0.46266,0,dx0};
Point (174) = {0.54146,0.46347,0,dx0};
Point (175) = {0.54326,0.46432,0,dx0};
Point (176) = {0.54501,0.46520,0,dx0};
Point (177) = {0.54673,0.46612,0,dx0};
Point (178) = {0.54839,0.46707,0,dx0};
Point (179) = {0.55001,0.46805,0,dx0};
Point (180) = {0.55157,0.46907,0,dx0};
Point (181) = {0.55309,0.47012,0,dx0};
Point (182) = {0.55455,0.47120,0,dx0};
Point (183) = {0.55596,0.47230,0,dx0};
Point (184) = {0.55731,0.47343,0,dx0};
Point (185) = {0.55860,0.47459,0,dx0};
Point (186) = {0.55984,0.47578,0,dx0};
Point (187) = {0.56102,0.47699,0,dx0};
Point (188) = {0.56213,0.47822,0,dx0};
Point (189) = {0.56318,0.47948,0,dx0};
Point (190) = {0.56418,0.48075,0,dx0};
Point (191) = {0.56510,0.48204,0,dx0};
Point (192) = {0.56596,0.48336,0,dx0};
Point (193) = {0.56676,0.48468,0,dx0};
Point (194) = {0.56749,0.48603,0,dx0};
Point (195) = {0.56815,0.48738,0,dx0};
Point (196) = {0.56875,0.48875,0,dx0};
Point (197) = {0.56927,0.49014,0,dx0};
Point (198) = {0.56973,0.49153,0,dx0};
Point (199) = {0.57012,0.49293,0,dx0};
Point (200) = {0.57043,0.49433,0,dx0};
Point (201) = {0.57068,0.49574,0,dx0};
Point (202) = {0.57086,0.49716,0,dx0};
Point (203) = {0.57096,0.49858,0,dx0};
Point (204) = {0.57100,0.50000,0,dx0};
//+
BSpline(5)={5,6,7,8,9,10,11,12,13,14,15,16,17,18,19,20,21,22,23,24,25,26,27,28,29,30,31,32,33,34,35,36,37,38,39,40,41,42,43,44,45,46,47,48,49,50,51,52,53,54,55,56,57,58,59,60,61,62,63,64,65,66,67,68,69,70,71,72,73,74,75,76,77,78,79,80,81,82,83,84,85,86,87,88,89,90,91,92,93,94,95,96,97,98,99,100,101,102,103,104,105,106,107,108,109,110,111,112,113,114,115,116,117,118,119,120,121,122,123,124,125,126,127,128,129,130,131,132,133,134,135,136,137,138,139,140,141,142,143,144,145,146,147,148,149,150,151,152,153,154,155,156,157,158,159,160,161,162,163,164,165,166,167,168,169,170,171,172,173,174,175,176,177,178,179,180,181,182,183,184,185,186,187,188,189,190,191,192,193,194,195,196,197,198,199,200,201,202,203,204,5};
//+
Curve Loop(1) = {4, 1, 2, 3};
//+
Curve Loop(2) = {5};
//+
Plane Surface(1) = {1, 2};
//+
Plane Surface(2) = {2};
//+
Physical Curve("HV") = {4};
//+
Physical Curve("GE") = {2};
//+
Physical Curve("wall") = {3, 1};
//+
Physical Surface("rock") = {1};
//+
Physical Surface("pore") = {2};
