w   = 1;      // m
h   = 1;      // m
dx0 = 0.016;     // m
dx1 = 0.05;   // m
Point(1) = {0, 0, 0, dx1};
Point(2) = {w, 0, 0, dx1};
Point(3) = {w, h, 0, dx1};
Point(4) = {0, h, 0, dx1};
//+
Line(1) = {1, 2};
//+
Line(2) = {2, 3};
//+
Line(3) = {3, 4};
//+
Line(4) = {4, 1};
//+
Point (5) = {0.65770,0.50000,0,dx0};
Point (6) = {0.65762,0.50319,0,dx0};
Point (7) = {0.65738,0.50637,0,dx0};
Point (8) = {0.65699,0.50955,0,dx0};
Point (9) = {0.65644,0.51271,0,dx0};
Point (10) = {0.65573,0.51587,0,dx0};
Point (11) = {0.65487,0.51901,0,dx0};
Point (12) = {0.65386,0.52213,0,dx0};
Point (13) = {0.65269,0.52522,0,dx0};
Point (14) = {0.65137,0.52829,0,dx0};
Point (15) = {0.64990,0.53134,0,dx0};
Point (16) = {0.64828,0.53435,0,dx0};
Point (17) = {0.64651,0.53733,0,dx0};
Point (18) = {0.64460,0.54027,0,dx0};
Point (19) = {0.64254,0.54317,0,dx0};
Point (20) = {0.64034,0.54603,0,dx0};
Point (21) = {0.63800,0.54884,0,dx0};
Point (22) = {0.63552,0.55161,0,dx0};
Point (23) = {0.63291,0.55432,0,dx0};
Point (24) = {0.63016,0.55698,0,dx0};
Point (25) = {0.62729,0.55958,0,dx0};
Point (26) = {0.62428,0.56212,0,dx0};
Point (27) = {0.62116,0.56460,0,dx0};
Point (28) = {0.61791,0.56702,0,dx0};
Point (29) = {0.61455,0.56937,0,dx0};
Point (30) = {0.61107,0.57165,0,dx0};
Point (31) = {0.60748,0.57385,0,dx0};
Point (32) = {0.60378,0.57599,0,dx0};
Point (33) = {0.59998,0.57805,0,dx0};
Point (34) = {0.59608,0.58003,0,dx0};
Point (35) = {0.59209,0.58193,0,dx0};
Point (36) = {0.58800,0.58375,0,dx0};
Point (37) = {0.58382,0.58549,0,dx0};
Point (38) = {0.57957,0.58714,0,dx0};
Point (39) = {0.57523,0.58870,0,dx0};
Point (40) = {0.57081,0.59018,0,dx0};
Point (41) = {0.56633,0.59156,0,dx0};
Point (42) = {0.56178,0.59286,0,dx0};
Point (43) = {0.55717,0.59406,0,dx0};
Point (44) = {0.55250,0.59517,0,dx0};
Point (45) = {0.54778,0.59618,0,dx0};
Point (46) = {0.54301,0.59710,0,dx0};
Point (47) = {0.53820,0.59792,0,dx0};
Point (48) = {0.53335,0.59864,0,dx0};
Point (49) = {0.52847,0.59927,0,dx0};
Point (50) = {0.52356,0.59979,0,dx0};
Point (51) = {0.51863,0.60022,0,dx0};
Point (52) = {0.51368,0.60055,0,dx0};
Point (53) = {0.50871,0.60077,0,dx0};
Point (54) = {0.50373,0.60090,0,dx0};
Point (55) = {0.49876,0.60092,0,dx0};
Point (56) = {0.49378,0.60085,0,dx0};
Point (57) = {0.48881,0.60067,0,dx0};
Point (58) = {0.48385,0.60039,0,dx0};
Point (59) = {0.47890,0.60002,0,dx0};
Point (60) = {0.47398,0.59954,0,dx0};
Point (61) = {0.46908,0.59897,0,dx0};
Point (62) = {0.46422,0.59829,0,dx0};
Point (63) = {0.45939,0.59752,0,dx0};
Point (64) = {0.45460,0.59665,0,dx0};
Point (65) = {0.44985,0.59569,0,dx0};
Point (66) = {0.44516,0.59463,0,dx0};
Point (67) = {0.44052,0.59347,0,dx0};
Point (68) = {0.43594,0.59222,0,dx0};
Point (69) = {0.43142,0.59088,0,dx0};
Point (70) = {0.42697,0.58945,0,dx0};
Point (71) = {0.42259,0.58793,0,dx0};
Point (72) = {0.41830,0.58632,0,dx0};
Point (73) = {0.41408,0.58463,0,dx0};
Point (74) = {0.40995,0.58285,0,dx0};
Point (75) = {0.40590,0.58099,0,dx0};
Point (76) = {0.40196,0.57905,0,dx0};
Point (77) = {0.39811,0.57703,0,dx0};
Point (78) = {0.39436,0.57493,0,dx0};
Point (79) = {0.39071,0.57276,0,dx0};
Point (80) = {0.38718,0.57052,0,dx0};
Point (81) = {0.38376,0.56820,0,dx0};
Point (82) = {0.38045,0.56582,0,dx0};
Point (83) = {0.37726,0.56337,0,dx0};
Point (84) = {0.37420,0.56086,0,dx0};
Point (85) = {0.37126,0.55829,0,dx0};
Point (86) = {0.36845,0.55566,0,dx0};
Point (87) = {0.36577,0.55297,0,dx0};
Point (88) = {0.36322,0.55023,0,dx0};
Point (89) = {0.36081,0.54744,0,dx0};
Point (90) = {0.35854,0.54461,0,dx0};
Point (91) = {0.35641,0.54173,0,dx0};
Point (92) = {0.35443,0.53881,0,dx0};
Point (93) = {0.35259,0.53585,0,dx0};
Point (94) = {0.35089,0.53285,0,dx0};
Point (95) = {0.34935,0.52982,0,dx0};
Point (96) = {0.34795,0.52676,0,dx0};
Point (97) = {0.34671,0.52368,0,dx0};
Point (98) = {0.34561,0.52057,0,dx0};
Point (99) = {0.34468,0.51744,0,dx0};
Point (100) = {0.34389,0.51429,0,dx0};
Point (101) = {0.34327,0.51113,0,dx0};
Point (102) = {0.34280,0.50796,0,dx0};
Point (103) = {0.34248,0.50478,0,dx0};
Point (104) = {0.34232,0.50159,0,dx0};
Point (105) = {0.34232,0.49841,0,dx0};
Point (106) = {0.34248,0.49522,0,dx0};
Point (107) = {0.34280,0.49204,0,dx0};
Point (108) = {0.34327,0.48887,0,dx0};
Point (109) = {0.34389,0.48571,0,dx0};
Point (110) = {0.34468,0.48256,0,dx0};
Point (111) = {0.34561,0.47943,0,dx0};
Point (112) = {0.34671,0.47632,0,dx0};
Point (113) = {0.34795,0.47324,0,dx0};
Point (114) = {0.34935,0.47018,0,dx0};
Point (115) = {0.35089,0.46715,0,dx0};
Point (116) = {0.35259,0.46415,0,dx0};
Point (117) = {0.35443,0.46119,0,dx0};
Point (118) = {0.35641,0.45827,0,dx0};
Point (119) = {0.35854,0.45539,0,dx0};
Point (120) = {0.36081,0.45256,0,dx0};
Point (121) = {0.36322,0.44977,0,dx0};
Point (122) = {0.36577,0.44703,0,dx0};
Point (123) = {0.36845,0.44434,0,dx0};
Point (124) = {0.37126,0.44171,0,dx0};
Point (125) = {0.37420,0.43914,0,dx0};
Point (126) = {0.37726,0.43663,0,dx0};
Point (127) = {0.38045,0.43418,0,dx0};
Point (128) = {0.38376,0.43180,0,dx0};
Point (129) = {0.38718,0.42948,0,dx0};
Point (130) = {0.39071,0.42724,0,dx0};
Point (131) = {0.39436,0.42507,0,dx0};
Point (132) = {0.39811,0.42297,0,dx0};
Point (133) = {0.40196,0.42095,0,dx0};
Point (134) = {0.40590,0.41901,0,dx0};
Point (135) = {0.40995,0.41715,0,dx0};
Point (136) = {0.41408,0.41537,0,dx0};
Point (137) = {0.41830,0.41368,0,dx0};
Point (138) = {0.42259,0.41207,0,dx0};
Point (139) = {0.42697,0.41055,0,dx0};
Point (140) = {0.43142,0.40912,0,dx0};
Point (141) = {0.43594,0.40778,0,dx0};
Point (142) = {0.44052,0.40653,0,dx0};
Point (143) = {0.44516,0.40537,0,dx0};
Point (144) = {0.44985,0.40431,0,dx0};
Point (145) = {0.45460,0.40335,0,dx0};
Point (146) = {0.45939,0.40248,0,dx0};
Point (147) = {0.46422,0.40171,0,dx0};
Point (148) = {0.46908,0.40103,0,dx0};
Point (149) = {0.47398,0.40046,0,dx0};
Point (150) = {0.47890,0.39998,0,dx0};
Point (151) = {0.48385,0.39961,0,dx0};
Point (152) = {0.48881,0.39933,0,dx0};
Point (153) = {0.49378,0.39915,0,dx0};
Point (154) = {0.49876,0.39908,0,dx0};
Point (155) = {0.50373,0.39910,0,dx0};
Point (156) = {0.50871,0.39923,0,dx0};
Point (157) = {0.51368,0.39945,0,dx0};
Point (158) = {0.51863,0.39978,0,dx0};
Point (159) = {0.52356,0.40021,0,dx0};
Point (160) = {0.52847,0.40073,0,dx0};
Point (161) = {0.53335,0.40136,0,dx0};
Point (162) = {0.53820,0.40208,0,dx0};
Point (163) = {0.54301,0.40290,0,dx0};
Point (164) = {0.54778,0.40382,0,dx0};
Point (165) = {0.55250,0.40483,0,dx0};
Point (166) = {0.55717,0.40594,0,dx0};
Point (167) = {0.56178,0.40714,0,dx0};
Point (168) = {0.56633,0.40844,0,dx0};
Point (169) = {0.57081,0.40982,0,dx0};
Point (170) = {0.57523,0.41130,0,dx0};
Point (171) = {0.57957,0.41286,0,dx0};
Point (172) = {0.58382,0.41451,0,dx0};
Point (173) = {0.58800,0.41625,0,dx0};
Point (174) = {0.59209,0.41807,0,dx0};
Point (175) = {0.59608,0.41997,0,dx0};
Point (176) = {0.59998,0.42195,0,dx0};
Point (177) = {0.60378,0.42401,0,dx0};
Point (178) = {0.60748,0.42615,0,dx0};
Point (179) = {0.61107,0.42835,0,dx0};
Point (180) = {0.61455,0.43063,0,dx0};
Point (181) = {0.61791,0.43298,0,dx0};
Point (182) = {0.62116,0.43540,0,dx0};
Point (183) = {0.62428,0.43788,0,dx0};
Point (184) = {0.62729,0.44042,0,dx0};
Point (185) = {0.63016,0.44302,0,dx0};
Point (186) = {0.63291,0.44568,0,dx0};
Point (187) = {0.63552,0.44839,0,dx0};
Point (188) = {0.63800,0.45116,0,dx0};
Point (189) = {0.64034,0.45397,0,dx0};
Point (190) = {0.64254,0.45683,0,dx0};
Point (191) = {0.64460,0.45973,0,dx0};
Point (192) = {0.64651,0.46267,0,dx0};
Point (193) = {0.64828,0.46565,0,dx0};
Point (194) = {0.64990,0.46866,0,dx0};
Point (195) = {0.65137,0.47171,0,dx0};
Point (196) = {0.65269,0.47478,0,dx0};
Point (197) = {0.65386,0.47787,0,dx0};
Point (198) = {0.65487,0.48099,0,dx0};
Point (199) = {0.65573,0.48413,0,dx0};
Point (200) = {0.65644,0.48729,0,dx0};
Point (201) = {0.65699,0.49045,0,dx0};
Point (202) = {0.65738,0.49363,0,dx0};
Point (203) = {0.65762,0.49681,0,dx0};
Point (204) = {0.65770,0.50000,0,dx0};
//+
BSpline(5)={5,6,7,8,9,10,11,12,13,14,15,16,17,18,19,20,21,22,23,24,25,26,27,28,29,30,31,32,33,34,35,36,37,38,39,40,41,42,43,44,45,46,47,48,49,50,51,52,53,54,55,56,57,58,59,60,61,62,63,64,65,66,67,68,69,70,71,72,73,74,75,76,77,78,79,80,81,82,83,84,85,86,87,88,89,90,91,92,93,94,95,96,97,98,99,100,101,102,103,104,105,106,107,108,109,110,111,112,113,114,115,116,117,118,119,120,121,122,123,124,125,126,127,128,129,130,131,132,133,134,135,136,137,138,139,140,141,142,143,144,145,146,147,148,149,150,151,152,153,154,155,156,157,158,159,160,161,162,163,164,165,166,167,168,169,170,171,172,173,174,175,176,177,178,179,180,181,182,183,184,185,186,187,188,189,190,191,192,193,194,195,196,197,198,199,200,201,202,203,204,5};

//+
Curve Loop(1) = {4, 1, 2, 3};
//+
Curve Loop(2) = {5};
//+
Plane Surface(1) = {1, 2};
//+
Plane Surface(2) = {2};
//+
Physical Curve("HV") = {4};
//+
Physical Curve("GE") = {2};
//+
Physical Curve("wall") = {3, 1};
//+
Physical Surface("rock") = {1};
//+
Physical Surface("pore") = {2};
