w   = 1;     // m
h   = 1;     // m

dx0 = 0.05;  // m
dx1 = 0.05;  // m

Point(1) = {0, 0, 0, dx1};
Point(2) = {w, 0, 0, dx1};
Point(3) = {w, h, 0, dx1};
Point(4) = {0, h, 0, dx1};
//+
Line(1) = {1, 2};
//+
Line(2) = {2, 3};
//+
Line(3) = {3, 4};
//+
Line(4) = {4, 1};
//+
Point (5) = {0.62600,0.50000,0,dx0};
Point (6) = {0.62594,0.50796,0,dx0};
Point (7) = {0.62575,0.51590,0,dx0};
Point (8) = {0.62544,0.52383,0,dx0};
Point (9) = {0.62500,0.53174,0,dx0};
Point (10) = {0.62443,0.53962,0,dx0};
Point (11) = {0.62375,0.54745,0,dx0};
Point (12) = {0.62294,0.55524,0,dx0};
Point (13) = {0.62200,0.56298,0,dx0};
Point (14) = {0.62095,0.57065,0,dx0};
Point (15) = {0.61977,0.57825,0,dx0};
Point (16) = {0.61848,0.58577,0,dx0};
Point (17) = {0.61706,0.59321,0,dx0};
Point (18) = {0.61553,0.60056,0,dx0};
Point (19) = {0.61389,0.60780,0,dx0};
Point (20) = {0.61213,0.61494,0,dx0};
Point (21) = {0.61026,0.62196,0,dx0};
Point (22) = {0.60828,0.62886,0,dx0};
Point (23) = {0.60619,0.63563,0,dx0};
Point (24) = {0.60400,0.64227,0,dx0};
Point (25) = {0.60170,0.64876,0,dx0};
Point (26) = {0.59930,0.65511,0,dx0};
Point (27) = {0.59681,0.66130,0,dx0};
Point (28) = {0.59421,0.66734,0,dx0};
Point (29) = {0.59152,0.67320,0,dx0};
Point (30) = {0.58874,0.67889,0,dx0};
Point (31) = {0.58588,0.68441,0,dx0};
Point (32) = {0.58292,0.68974,0,dx0};
Point (33) = {0.57989,0.69488,0,dx0};
Point (34) = {0.57677,0.69982,0,dx0};
Point (35) = {0.57358,0.70457,0,dx0};
Point (36) = {0.57031,0.70912,0,dx0};
Point (37) = {0.56698,0.71345,0,dx0};
Point (38) = {0.56357,0.71757,0,dx0};
Point (39) = {0.56011,0.72148,0,dx0};
Point (40) = {0.55658,0.72516,0,dx0};
Point (41) = {0.55300,0.72862,0,dx0};
Point (42) = {0.54936,0.73185,0,dx0};
Point (43) = {0.54568,0.73486,0,dx0};
Point (44) = {0.54195,0.73762,0,dx0};
Point (45) = {0.53818,0.74015,0,dx0};
Point (46) = {0.53437,0.74244,0,dx0};
Point (47) = {0.53053,0.74449,0,dx0};
Point (48) = {0.52665,0.74630,0,dx0};
Point (49) = {0.52275,0.74786,0,dx0};
Point (50) = {0.51883,0.74917,0,dx0};
Point (51) = {0.51488,0.75024,0,dx0};
Point (52) = {0.51093,0.75105,0,dx0};
Point (53) = {0.50696,0.75162,0,dx0};
Point (54) = {0.50298,0.75193,0,dx0};
Point (55) = {0.49901,0.75199,0,dx0};
Point (56) = {0.49503,0.75180,0,dx0};
Point (57) = {0.49106,0.75136,0,dx0};
Point (58) = {0.48709,0.75067,0,dx0};
Point (59) = {0.48314,0.74973,0,dx0};
Point (60) = {0.47921,0.74855,0,dx0};
Point (61) = {0.47530,0.74711,0,dx0};
Point (62) = {0.47141,0.74543,0,dx0};
Point (63) = {0.46755,0.74350,0,dx0};
Point (64) = {0.46372,0.74133,0,dx0};
Point (65) = {0.45993,0.73892,0,dx0};
Point (66) = {0.45618,0.73627,0,dx0};
Point (67) = {0.45247,0.73338,0,dx0};
Point (68) = {0.44881,0.73027,0,dx0};
Point (69) = {0.44520,0.72692,0,dx0};
Point (70) = {0.44165,0.72335,0,dx0};
Point (71) = {0.43815,0.71955,0,dx0};
Point (72) = {0.43472,0.71554,0,dx0};
Point (73) = {0.43135,0.71131,0,dx0};
Point (74) = {0.42805,0.70687,0,dx0};
Point (75) = {0.42482,0.70222,0,dx0};
Point (76) = {0.42166,0.69738,0,dx0};
Point (77) = {0.41859,0.69233,0,dx0};
Point (78) = {0.41559,0.68709,0,dx0};
Point (79) = {0.41268,0.68167,0,dx0};
Point (80) = {0.40986,0.67607,0,dx0};
Point (81) = {0.40712,0.67029,0,dx0};
Point (82) = {0.40448,0.66434,0,dx0};
Point (83) = {0.40193,0.65823,0,dx0};
Point (84) = {0.39949,0.65196,0,dx0};
Point (85) = {0.39714,0.64554,0,dx0};
Point (86) = {0.39489,0.63897,0,dx0};
Point (87) = {0.39275,0.63226,0,dx0};
Point (88) = {0.39072,0.62543,0,dx0};
Point (89) = {0.38879,0.61846,0,dx0};
Point (90) = {0.38698,0.61138,0,dx0};
Point (91) = {0.38527,0.60419,0,dx0};
Point (92) = {0.38369,0.59690,0,dx0};
Point (93) = {0.38222,0.58950,0,dx0};
Point (94) = {0.38086,0.58202,0,dx0};
Point (95) = {0.37963,0.57446,0,dx0};
Point (96) = {0.37851,0.56682,0,dx0};
Point (97) = {0.37752,0.55912,0,dx0};
Point (98) = {0.37664,0.55136,0,dx0};
Point (99) = {0.37590,0.54354,0,dx0};
Point (100) = {0.37527,0.53568,0,dx0};
Point (101) = {0.37477,0.52779,0,dx0};
Point (102) = {0.37439,0.51987,0,dx0};
Point (103) = {0.37414,0.51193,0,dx0};
Point (104) = {0.37402,0.50398,0,dx0};
Point (105) = {0.37402,0.49602,0,dx0};
Point (106) = {0.37414,0.48807,0,dx0};
Point (107) = {0.37439,0.48013,0,dx0};
Point (108) = {0.37477,0.47221,0,dx0};
Point (109) = {0.37527,0.46432,0,dx0};
Point (110) = {0.37590,0.45646,0,dx0};
Point (111) = {0.37664,0.44864,0,dx0};
Point (112) = {0.37752,0.44088,0,dx0};
Point (113) = {0.37851,0.43318,0,dx0};
Point (114) = {0.37963,0.42554,0,dx0};
Point (115) = {0.38086,0.41798,0,dx0};
Point (116) = {0.38222,0.41050,0,dx0};
Point (117) = {0.38369,0.40310,0,dx0};
Point (118) = {0.38527,0.39581,0,dx0};
Point (119) = {0.38698,0.38862,0,dx0};
Point (120) = {0.38879,0.38154,0,dx0};
Point (121) = {0.39072,0.37457,0,dx0};
Point (122) = {0.39275,0.36774,0,dx0};
Point (123) = {0.39489,0.36103,0,dx0};
Point (124) = {0.39714,0.35446,0,dx0};
Point (125) = {0.39949,0.34804,0,dx0};
Point (126) = {0.40193,0.34177,0,dx0};
Point (127) = {0.40448,0.33566,0,dx0};
Point (128) = {0.40712,0.32971,0,dx0};
Point (129) = {0.40986,0.32393,0,dx0};
Point (130) = {0.41268,0.31833,0,dx0};
Point (131) = {0.41559,0.31291,0,dx0};
Point (132) = {0.41859,0.30767,0,dx0};
Point (133) = {0.42166,0.30262,0,dx0};
Point (134) = {0.42482,0.29778,0,dx0};
Point (135) = {0.42805,0.29313,0,dx0};
Point (136) = {0.43135,0.28869,0,dx0};
Point (137) = {0.43472,0.28446,0,dx0};
Point (138) = {0.43815,0.28045,0,dx0};
Point (139) = {0.44165,0.27665,0,dx0};
Point (140) = {0.44520,0.27308,0,dx0};
Point (141) = {0.44881,0.26973,0,dx0};
Point (142) = {0.45247,0.26662,0,dx0};
Point (143) = {0.45618,0.26373,0,dx0};
Point (144) = {0.45993,0.26108,0,dx0};
Point (145) = {0.46372,0.25867,0,dx0};
Point (146) = {0.46755,0.25650,0,dx0};
Point (147) = {0.47141,0.25457,0,dx0};
Point (148) = {0.47530,0.25289,0,dx0};
Point (149) = {0.47921,0.25145,0,dx0};
Point (150) = {0.48314,0.25027,0,dx0};
Point (151) = {0.48709,0.24933,0,dx0};
Point (152) = {0.49106,0.24864,0,dx0};
Point (153) = {0.49503,0.24820,0,dx0};
Point (154) = {0.49901,0.24801,0,dx0};
Point (155) = {0.50298,0.24807,0,dx0};
Point (156) = {0.50696,0.24838,0,dx0};
Point (157) = {0.51093,0.24895,0,dx0};
Point (158) = {0.51488,0.24976,0,dx0};
Point (159) = {0.51883,0.25083,0,dx0};
Point (160) = {0.52275,0.25214,0,dx0};
Point (161) = {0.52665,0.25370,0,dx0};
Point (162) = {0.53053,0.25551,0,dx0};
Point (163) = {0.53437,0.25756,0,dx0};
Point (164) = {0.53818,0.25985,0,dx0};
Point (165) = {0.54195,0.26238,0,dx0};
Point (166) = {0.54568,0.26514,0,dx0};
Point (167) = {0.54936,0.26815,0,dx0};
Point (168) = {0.55300,0.27138,0,dx0};
Point (169) = {0.55658,0.27484,0,dx0};
Point (170) = {0.56011,0.27852,0,dx0};
Point (171) = {0.56357,0.28243,0,dx0};
Point (172) = {0.56698,0.28655,0,dx0};
Point (173) = {0.57031,0.29088,0,dx0};
Point (174) = {0.57358,0.29543,0,dx0};
Point (175) = {0.57677,0.30018,0,dx0};
Point (176) = {0.57989,0.30512,0,dx0};
Point (177) = {0.58292,0.31026,0,dx0};
Point (178) = {0.58588,0.31559,0,dx0};
Point (179) = {0.58874,0.32111,0,dx0};
Point (180) = {0.59152,0.32680,0,dx0};
Point (181) = {0.59421,0.33266,0,dx0};
Point (182) = {0.59681,0.33870,0,dx0};
Point (183) = {0.59930,0.34489,0,dx0};
Point (184) = {0.60170,0.35124,0,dx0};
Point (185) = {0.60400,0.35773,0,dx0};
Point (186) = {0.60619,0.36437,0,dx0};
Point (187) = {0.60828,0.37114,0,dx0};
Point (188) = {0.61026,0.37804,0,dx0};
Point (189) = {0.61213,0.38506,0,dx0};
Point (190) = {0.61389,0.39220,0,dx0};
Point (191) = {0.61553,0.39944,0,dx0};
Point (192) = {0.61706,0.40679,0,dx0};
Point (193) = {0.61848,0.41423,0,dx0};
Point (194) = {0.61977,0.42175,0,dx0};
Point (195) = {0.62095,0.42935,0,dx0};
Point (196) = {0.62200,0.43702,0,dx0};
Point (197) = {0.62294,0.44476,0,dx0};
Point (198) = {0.62375,0.45255,0,dx0};
Point (199) = {0.62443,0.46038,0,dx0};
Point (200) = {0.62500,0.46826,0,dx0};
Point (201) = {0.62544,0.47617,0,dx0};
Point (202) = {0.62575,0.48410,0,dx0};
Point (203) = {0.62594,0.49204,0,dx0};
Point (204) = {0.62600,0.50000,0,dx0};
//+
BSpline(5)={5,6,7,8,9,10,11,12,13,14,15,16,17,18,19,20,21,22,23,24,25,26,27,28,29,30,31,32,33,34,35,36,37,38,39,40,41,42,43,44,45,46,47,48,49,50,51,52,53,54,55,56,57,58,59,60,61,62,63,64,65,66,67,68,69,70,71,72,73,74,75,76,77,78,79,80,81,82,83,84,85,86,87,88,89,90,91,92,93,94,95,96,97,98,99,100,101,102,103,104,105,106,107,108,109,110,111,112,113,114,115,116,117,118,119,120,121,122,123,124,125,126,127,128,129,130,131,132,133,134,135,136,137,138,139,140,141,142,143,144,145,146,147,148,149,150,151,152,153,154,155,156,157,158,159,160,161,162,163,164,165,166,167,168,169,170,171,172,173,174,175,176,177,178,179,180,181,182,183,184,185,186,187,188,189,190,191,192,193,194,195,196,197,198,199,200,201,202,203,204,5};
//+
Curve Loop(1) = {4, 1, 2, 3};
//+
Curve Loop(2) = {5};
//+
Plane Surface(1) = {1, 2};
//+
Plane Surface(2) = {2};
//+
Physical Curve("HV") = {4};
//+
Physical Curve("GE") = {2};
//+
Physical Curve("wall") = {3, 1};
//+
Physical Surface("rock") = {1};
//+
Physical Surface("pore") = {2};
