w   = 1;     // m
h   = 1;     // m

dx0 = 0.05;  // m
dx1 = 0.05;  // m

Point(1) = {0, 0, 0, dx1};
Point(2) = {w, 0, 0, dx1};
Point(3) = {w, h, 0, dx1};
Point(4) = {0, h, 0, dx1};
//+
Line(1) = {1, 2};
//+
Line(2) = {2, 3};
//+
Line(3) = {3, 4};
//+
Line(4) = {4, 1};
//+
Point (5) = {0.75200,0.50000,0,dx0};
Point (6) = {0.75187,0.50398,0,dx0};
Point (7) = {0.75150,0.50795,0,dx0};
Point (8) = {0.75087,0.51192,0,dx0};
Point (9) = {0.74999,0.51587,0,dx0};
Point (10) = {0.74887,0.51981,0,dx0};
Point (11) = {0.74749,0.52373,0,dx0};
Point (12) = {0.74587,0.52762,0,dx0};
Point (13) = {0.74400,0.53149,0,dx0};
Point (14) = {0.74189,0.53532,0,dx0};
Point (15) = {0.73954,0.53913,0,dx0};
Point (16) = {0.73695,0.54289,0,dx0};
Point (17) = {0.73413,0.54661,0,dx0};
Point (18) = {0.73107,0.55028,0,dx0};
Point (19) = {0.72778,0.55390,0,dx0};
Point (20) = {0.72426,0.55747,0,dx0};
Point (21) = {0.72052,0.56098,0,dx0};
Point (22) = {0.71656,0.56443,0,dx0};
Point (23) = {0.71239,0.56782,0,dx0};
Point (24) = {0.70800,0.57113,0,dx0};
Point (25) = {0.70340,0.57438,0,dx0};
Point (26) = {0.69861,0.57756,0,dx0};
Point (27) = {0.69361,0.58065,0,dx0};
Point (28) = {0.68842,0.58367,0,dx0};
Point (29) = {0.68305,0.58660,0,dx0};
Point (30) = {0.67749,0.58945,0,dx0};
Point (31) = {0.67175,0.59220,0,dx0};
Point (32) = {0.66584,0.59487,0,dx0};
Point (33) = {0.65977,0.59744,0,dx0};
Point (34) = {0.65354,0.59991,0,dx0};
Point (35) = {0.64715,0.60229,0,dx0};
Point (36) = {0.64062,0.60456,0,dx0};
Point (37) = {0.63395,0.60673,0,dx0};
Point (38) = {0.62715,0.60879,0,dx0};
Point (39) = {0.62021,0.61074,0,dx0};
Point (40) = {0.61316,0.61258,0,dx0};
Point (41) = {0.60600,0.61431,0,dx0};
Point (42) = {0.59873,0.61593,0,dx0};
Point (43) = {0.59136,0.61743,0,dx0};
Point (44) = {0.58390,0.61881,0,dx0};
Point (45) = {0.57636,0.62008,0,dx0};
Point (46) = {0.56874,0.62122,0,dx0};
Point (47) = {0.56105,0.62225,0,dx0};
Point (48) = {0.55330,0.62315,0,dx0};
Point (49) = {0.54550,0.62393,0,dx0};
Point (50) = {0.53765,0.62459,0,dx0};
Point (51) = {0.52977,0.62512,0,dx0};
Point (52) = {0.52185,0.62553,0,dx0};
Point (53) = {0.51392,0.62581,0,dx0};
Point (54) = {0.50597,0.62596,0,dx0};
Point (55) = {0.49801,0.62600,0,dx0};
Point (56) = {0.49006,0.62590,0,dx0};
Point (57) = {0.48211,0.62568,0,dx0};
Point (58) = {0.47419,0.62534,0,dx0};
Point (59) = {0.46629,0.62487,0,dx0};
Point (60) = {0.45842,0.62427,0,dx0};
Point (61) = {0.45059,0.62355,0,dx0};
Point (62) = {0.44282,0.62271,0,dx0};
Point (63) = {0.43510,0.62175,0,dx0};
Point (64) = {0.42744,0.62066,0,dx0};
Point (65) = {0.41986,0.61946,0,dx0};
Point (66) = {0.41236,0.61813,0,dx0};
Point (67) = {0.40494,0.61669,0,dx0};
Point (68) = {0.39762,0.61513,0,dx0};
Point (69) = {0.39041,0.61346,0,dx0};
Point (70) = {0.38330,0.61167,0,dx0};
Point (71) = {0.37630,0.60978,0,dx0};
Point (72) = {0.36943,0.60777,0,dx0};
Point (73) = {0.36270,0.60565,0,dx0};
Point (74) = {0.35609,0.60343,0,dx0};
Point (75) = {0.34963,0.60111,0,dx0};
Point (76) = {0.34333,0.59869,0,dx0};
Point (77) = {0.33717,0.59617,0,dx0};
Point (78) = {0.33118,0.59355,0,dx0};
Point (79) = {0.32536,0.59084,0,dx0};
Point (80) = {0.31971,0.58803,0,dx0};
Point (81) = {0.31424,0.58514,0,dx0};
Point (82) = {0.30896,0.58217,0,dx0};
Point (83) = {0.30387,0.57911,0,dx0};
Point (84) = {0.29897,0.57598,0,dx0};
Point (85) = {0.29427,0.57277,0,dx0};
Point (86) = {0.28978,0.56948,0,dx0};
Point (87) = {0.28550,0.56613,0,dx0};
Point (88) = {0.28143,0.56271,0,dx0};
Point (89) = {0.27758,0.55923,0,dx0};
Point (90) = {0.27395,0.55569,0,dx0};
Point (91) = {0.27055,0.55210,0,dx0};
Point (92) = {0.26737,0.54845,0,dx0};
Point (93) = {0.26443,0.54475,0,dx0};
Point (94) = {0.26172,0.54101,0,dx0};
Point (95) = {0.25925,0.53723,0,dx0};
Point (96) = {0.25702,0.53341,0,dx0};
Point (97) = {0.25503,0.52956,0,dx0};
Point (98) = {0.25329,0.52568,0,dx0};
Point (99) = {0.25179,0.52177,0,dx0};
Point (100) = {0.25054,0.51784,0,dx0};
Point (101) = {0.24954,0.51390,0,dx0};
Point (102) = {0.24878,0.50994,0,dx0};
Point (103) = {0.24828,0.50597,0,dx0};
Point (104) = {0.24803,0.50199,0,dx0};
Point (105) = {0.24803,0.49801,0,dx0};
Point (106) = {0.24828,0.49403,0,dx0};
Point (107) = {0.24878,0.49006,0,dx0};
Point (108) = {0.24954,0.48610,0,dx0};
Point (109) = {0.25054,0.48216,0,dx0};
Point (110) = {0.25179,0.47823,0,dx0};
Point (111) = {0.25329,0.47432,0,dx0};
Point (112) = {0.25503,0.47044,0,dx0};
Point (113) = {0.25702,0.46659,0,dx0};
Point (114) = {0.25925,0.46277,0,dx0};
Point (115) = {0.26172,0.45899,0,dx0};
Point (116) = {0.26443,0.45525,0,dx0};
Point (117) = {0.26737,0.45155,0,dx0};
Point (118) = {0.27055,0.44790,0,dx0};
Point (119) = {0.27395,0.44431,0,dx0};
Point (120) = {0.27758,0.44077,0,dx0};
Point (121) = {0.28143,0.43729,0,dx0};
Point (122) = {0.28550,0.43387,0,dx0};
Point (123) = {0.28978,0.43052,0,dx0};
Point (124) = {0.29427,0.42723,0,dx0};
Point (125) = {0.29897,0.42402,0,dx0};
Point (126) = {0.30387,0.42089,0,dx0};
Point (127) = {0.30896,0.41783,0,dx0};
Point (128) = {0.31424,0.41486,0,dx0};
Point (129) = {0.31971,0.41197,0,dx0};
Point (130) = {0.32536,0.40916,0,dx0};
Point (131) = {0.33118,0.40645,0,dx0};
Point (132) = {0.33717,0.40383,0,dx0};
Point (133) = {0.34333,0.40131,0,dx0};
Point (134) = {0.34963,0.39889,0,dx0};
Point (135) = {0.35609,0.39657,0,dx0};
Point (136) = {0.36270,0.39435,0,dx0};
Point (137) = {0.36943,0.39223,0,dx0};
Point (138) = {0.37630,0.39022,0,dx0};
Point (139) = {0.38330,0.38833,0,dx0};
Point (140) = {0.39041,0.38654,0,dx0};
Point (141) = {0.39762,0.38487,0,dx0};
Point (142) = {0.40494,0.38331,0,dx0};
Point (143) = {0.41236,0.38187,0,dx0};
Point (144) = {0.41986,0.38054,0,dx0};
Point (145) = {0.42744,0.37934,0,dx0};
Point (146) = {0.43510,0.37825,0,dx0};
Point (147) = {0.44282,0.37729,0,dx0};
Point (148) = {0.45059,0.37645,0,dx0};
Point (149) = {0.45842,0.37573,0,dx0};
Point (150) = {0.46629,0.37513,0,dx0};
Point (151) = {0.47419,0.37466,0,dx0};
Point (152) = {0.48211,0.37432,0,dx0};
Point (153) = {0.49006,0.37410,0,dx0};
Point (154) = {0.49801,0.37400,0,dx0};
Point (155) = {0.50597,0.37404,0,dx0};
Point (156) = {0.51392,0.37419,0,dx0};
Point (157) = {0.52185,0.37447,0,dx0};
Point (158) = {0.52977,0.37488,0,dx0};
Point (159) = {0.53765,0.37541,0,dx0};
Point (160) = {0.54550,0.37607,0,dx0};
Point (161) = {0.55330,0.37685,0,dx0};
Point (162) = {0.56105,0.37775,0,dx0};
Point (163) = {0.56874,0.37878,0,dx0};
Point (164) = {0.57636,0.37992,0,dx0};
Point (165) = {0.58390,0.38119,0,dx0};
Point (166) = {0.59136,0.38257,0,dx0};
Point (167) = {0.59873,0.38407,0,dx0};
Point (168) = {0.60600,0.38569,0,dx0};
Point (169) = {0.61316,0.38742,0,dx0};
Point (170) = {0.62021,0.38926,0,dx0};
Point (171) = {0.62715,0.39121,0,dx0};
Point (172) = {0.63395,0.39327,0,dx0};
Point (173) = {0.64062,0.39544,0,dx0};
Point (174) = {0.64715,0.39771,0,dx0};
Point (175) = {0.65354,0.40009,0,dx0};
Point (176) = {0.65977,0.40256,0,dx0};
Point (177) = {0.66584,0.40513,0,dx0};
Point (178) = {0.67175,0.40780,0,dx0};
Point (179) = {0.67749,0.41055,0,dx0};
Point (180) = {0.68305,0.41340,0,dx0};
Point (181) = {0.68842,0.41633,0,dx0};
Point (182) = {0.69361,0.41935,0,dx0};
Point (183) = {0.69861,0.42244,0,dx0};
Point (184) = {0.70340,0.42562,0,dx0};
Point (185) = {0.70800,0.42887,0,dx0};
Point (186) = {0.71239,0.43218,0,dx0};
Point (187) = {0.71656,0.43557,0,dx0};
Point (188) = {0.72052,0.43902,0,dx0};
Point (189) = {0.72426,0.44253,0,dx0};
Point (190) = {0.72778,0.44610,0,dx0};
Point (191) = {0.73107,0.44972,0,dx0};
Point (192) = {0.73413,0.45339,0,dx0};
Point (193) = {0.73695,0.45711,0,dx0};
Point (194) = {0.73954,0.46087,0,dx0};
Point (195) = {0.74189,0.46468,0,dx0};
Point (196) = {0.74400,0.46851,0,dx0};
Point (197) = {0.74587,0.47238,0,dx0};
Point (198) = {0.74749,0.47627,0,dx0};
Point (199) = {0.74887,0.48019,0,dx0};
Point (200) = {0.74999,0.48413,0,dx0};
Point (201) = {0.75087,0.48808,0,dx0};
Point (202) = {0.75150,0.49205,0,dx0};
Point (203) = {0.75187,0.49602,0,dx0};
Point (204) = {0.75200,0.50000,0,dx0};
//+
BSpline(5)={5,6,7,8,9,10,11,12,13,14,15,16,17,18,19,20,21,22,23,24,25,26,27,28,29,30,31,32,33,34,35,36,37,38,39,40,41,42,43,44,45,46,47,48,49,50,51,52,53,54,55,56,57,58,59,60,61,62,63,64,65,66,67,68,69,70,71,72,73,74,75,76,77,78,79,80,81,82,83,84,85,86,87,88,89,90,91,92,93,94,95,96,97,98,99,100,101,102,103,104,105,106,107,108,109,110,111,112,113,114,115,116,117,118,119,120,121,122,123,124,125,126,127,128,129,130,131,132,133,134,135,136,137,138,139,140,141,142,143,144,145,146,147,148,149,150,151,152,153,154,155,156,157,158,159,160,161,162,163,164,165,166,167,168,169,170,171,172,173,174,175,176,177,178,179,180,181,182,183,184,185,186,187,188,189,190,191,192,193,194,195,196,197,198,199,200,201,202,203,204,5};
//+
Curve Loop(1) = {4, 1, 2, 3};
//+
Curve Loop(2) = {5};
//+
Plane Surface(1) = {1, 2};
//+
Plane Surface(2) = {2};
//+
Physical Curve("HV") = {4};
//+
Physical Curve("GE") = {2};
//+
Physical Curve("wall") = {3, 1};
//+
Physical Surface("rock") = {1};
//+
Physical Surface("pore") = {2};
